Error Metrics,Experiment 4`,Experiment 5,Experiment 6,Residual Analysis
mean target,3.858653232207408,0.7181920210531466,-1.1430475022444444,-0.2818079789468534
F1,0.7998668378869825,0.8947275816297617,0.932449871728734,0.8947275816297615
F2,0.7926222752651666,0.902270108217274,0.9469354923301267,0.9022701082172738
F05,0.8072450526018907,0.8873101131149713,0.9184007574644398,0.8873101131149713
Precision,0.8122399513166756,0.8824330833192967,0.909267538310716,0.8824330833192966
Recall,0.7878650354211563,0.9073695066405482,0.9568452275056332,0.907369506640548
R2,-0.7782173558097387,0.8269276777775765,0.7772390841874893,0.8269276777775765
Adjusted R2,-1.2043339572019345,0.7854541259086086,0.7238585882324177,0.7854541259086086
RMSE,2.6683491564599766,0.2615699763134329,1.1379926116298291,0.26156997631343293
MSE,7.120087220780668,0.06841885250860986,1.2950271841240797,0.06841885250860986
MAE,2.0078832077851856,0.15941609262753004,0.8238692640888889,0.15941609262753006
MAPE,55.47569881377085,23.74869713149981,187.74638240850567,153.64792025485713
Accuracy,44.52430118622915,76.25130286850019,-87.74638240850571,-53.64792025485713
Pearson C.C.,0.4838246044564458,0.9109403128255724,0.8883927093932067,0.9109403128255723
Spearman C.C.,0.4538321814949604,0.9359960737153836,0.8257613654203454,0.9359960737153837
Spatial Distance,0.5161753955435544,0.08905968717442769,0.11160729060679342,0.08905968717442769
NMI,0.8742192986884907,1.0,1.0,1.0
AIC,529.9883933737941,-724.168855132024,69.80355536385233,-724.1688551320239
BIC,529.9883933737941,-724.168855132024,69.80355536385233,-724.1688551320239
Data Size test,270.0,270.0,270.0,270.0
