Date,Site Id,LE_bowen_corr(mm),,TA,TA-1,TA-2,TA-3,TA-4,TA-5,EEflux LST,EEflux LST-1,EEflux LST-2,EEflux LST-3,EEflux LST-4,EEflux LST-5,WS,WS-1,WS-2,RH,RH-1,RH-2,RH-3,EEflux NDVI,EEflux NDVI-1,EEflux NDVI-2,EEflux Albedo,EEflux Albedo-1,EEflux Albedo-2,Site Id_1,Site Id_2,Site Id_3,Site Id_4,Site Id_5,Month_1,Month_2,Month_3,Month_4,Vegetation_1,Vegetation_2,Vegetation_3,LE_bowen_corr(mm)_predicted,Eeflux_ET
4/8/13,US-Tw2,5.93720846,8,0.508425405,0.527474107,0.541037406,0.569045204,0.569388441,0.564625302,0.467391304,0.512820513,0.525919732,0.583333333,0.485785953,0.574136009,0.622910422,0.437398752,0.258155562,0.416000736,0.660831716,0.68416962,0.62650824,0.677574591,0.429258903,0.589027911,0.169390788,0.169390788,0.170876672,1,1,0,0,1,0,1,0,0,0,0,1,5.7720323,5.112141609
11/25/18,US-Bi2,3.358525622,15,0.501737362,0.418784296,0.414719856,0.41852065,0.519048712,0.48251232,0.461817168,0.510869565,0.490245262,0.523968785,0.473801561,0.562430323,0.151900613,0.070672324,0.163634598,0.718194276,0.571767042,0.458630827,0.404478995,0.250240616,0.148219442,0.237728585,0.029717682,0.081723626,0.087667162,1,1,0,1,0,1,0,1,0,0,0,1,1.9537601,0
7/24/17,US-Tw3,1.816220758,24,0.662441777,0.787793661,0.764535468,0.736636652,0.725234767,0.713364689,0.683946488,0.662207358,0.730211817,0.664437012,0.676142698,0.687569677,0.385380662,0.206073421,0.146957195,0.597756879,0.424867662,0.486382195,0.430533447,0.45813282,0.554379211,0.481231954,0.245170877,0.243684993,0.246656761,1,0,0,0,1,0,1,1,1,0,0,1,4.9201045,2.057631731
10/12/17,US-Tw3,2.606153622,70,0.567641805,0.586286457,0.634925739,0.650989401,0.615158839,0.621951354,0.567725753,0.607302118,0.571348941,0.538740245,0.605351171,0.612876254,0.338813278,0.115622084,0.309803282,0.276934386,0.489196464,0.256233047,0.327485688,0.596727623,0.543792108,0.505293551,0.257057949,0.257057949,0.257057949,1,0,0,0,1,1,0,1,0,0,0,1,2.9958627,2.180629611
7/27/18,US-Bi2,7.67592125,78,0.696638252,0.756759786,0.735525841,0.704055903,0.712102403,0.701035597,0.673634337,0.668617614,0.644927536,0.637681159,0.628205128,0.698717949,0.238432689,0.261787038,0.307407059,0.521895783,0.428484825,0.472886121,0.564714053,0.823869105,0.852743022,0.848893167,0.227340267,0.222882615,0.224368499,1,1,0,1,0,0,1,1,0,0,0,1,7.820238,5.47671175
8/9/17,US-Bi2,5.633035082,84,0.649740592,0.664603729,0.663208329,0.671952528,0.72919146,0.790391675,0.640746934,0.596989967,0.640746934,0.623467113,0.621237458,0.671962096,0.174766293,0.178803011,0.182711935,0.71227133,0.673630391,0.651354212,0.604293846,0.821944177,0.829643888,0.888354187,0.246656761,0.248142645,0.245170877,1,1,0,1,0,0,1,1,1,0,0,1,5.791259,4.583256721
4/30/18,US-Tw3,4.11559388,108,0.521680824,0.527349636,0.51661791,0.547775718,0.576078465,0.647840265,0.484949833,0.58974359,0.561036789,0.586399108,0.617335563,0.64632107,0.328819735,0.358658281,0.601036695,0.667387267,0.640922794,0.674468463,0.667465901,0.56400385,0.607314726,0.636188643,0.203566122,0.209509658,0.209509658,1,0,0,0,1,0,1,0,0,0,0,1,3.9406025,4.052640438
8/6/13,US-Tw3,5.284277785,110,0.588155099,0.620818471,0.613230984,0.647886472,0.683400315,0.652917256,0.544314381,0.644927536,0.602842809,0.664715719,0.689241918,0.630156076,0.447082756,0.337667384,0.35329523,0.697220584,0.647273523,0.660233644,0.594704639,0.683349374,0.795957652,0.745909528,0.230312036,0.230312036,0.230312036,1,0,0,0,1,1,0,0,0,0,0,1,4.95725,4.728515148
10/4/17,US-Tw3,2.304599836,111,0.567949423,0.582677022,0.628208581,0.669965002,0.657654271,0.683611461,0.564381271,0.59671126,0.529542921,0.566889632,0.585562988,0.681716834,0.137442327,0.25647782,0.423860811,0.489837502,0.43821721,0.27933893,0.310138618,0.545717036,0.525505294,0.451395573,0.258543834,0.260029718,0.260029718,1,0,0,0,1,1,0,1,0,0,0,1,2.531925,1.381647885
1/2/13,US-Tw2,1.441264705,148,0.397582606,0.303969449,0.377020097,0.365200969,0.359949033,0.422676476,0.341973244,0.327480491,0.333333333,0.351170569,0.384057971,0.394370123,0.095662986,0.141834279,0.364850808,0.580875135,0.747691596,0.581598976,0.59195038,0.321462945,0.35707411,0.356111646,0.095096582,0.095096582,0.093610698,1,1,0,0,1,0,0,0,1,0,0,1,2.2272375,0.3
7/8/14,US-Tw3,7.819789444,181,0.732074062,0.746399861,0.695348425,0.695247442,0.703142467,0.672581376,0.675585284,0.662486065,0.696209588,0.690356745,0.664715719,0.663043478,0.258992517,0.214563303,0.216006106,0.505293667,0.373333436,0.465066179,0.510533173,0.684311838,0.686236766,0.756496631,0.210995542,0.208023774,0.209509658,1,0,0,0,1,0,1,1,1,0,0,1,6.8912406,6.876622677
7/5/13,US-Tw3,7.372364508,187,0.691607469,0.813492811,0.757081095,0.783963134,0.784616937,0.800266496,0.631270903,0.739409142,0.709587514,0.698717949,0.755574136,0.785117057,0.327515623,0.365942832,0.288201958,0.493111608,0.425121908,0.532531649,0.46015754,0.698748797,0.567853705,0.576515881,0.193164933,0.190193165,0.190193165,1,0,0,0,1,0,1,1,1,0,0,1,6.1993556,5.383049965
2/9/15,US-Tw3,3.553317615,208,0.54979101,0.535405316,0.523857281,0.518991008,0.552081736,0.520925205,0.455964326,0.460144928,0.399386845,0.479654404,0.463768116,0.476867336,0.234777794,0.093017391,0.120615293,0.66818895,0.724624526,0.669620472,0.447481138,0.442733397,0.644850818,0.649663138,0.185735513,0.153046062,0.153046062,1,0,0,0,1,0,0,1,0,0,0,1,2.514,0.412699044
11/10/13,US-Tw3,1.382792075,215,0.519798692,0.509536256,0.542828475,0.539619056,0.522825222,0.583363003,0.537625418,0.569397993,0.570791527,0.544314381,0.517837235,0.593366778,0.141890805,0.073855834,0.091574054,0.649404009,0.625953368,0.509413674,0.654083639,0.416746872,0.532242541,0.395572666,0.23179792,0.23179792,0.230312036,1,0,0,0,1,1,0,1,1,0,0,1,1.610054,1.024184585
9/2/17,US-Tw3,3.737294317,245,0.821532519,0.793079463,0.753064731,0.717344332,0.739611057,0.805794624,0.696767001,0.709866221,0.637123746,0.663043478,0.65245262,0.718227425,0.097007938,0.149564592,0.157272079,0.507206794,0.448784615,0.474117364,0.452435079,0.588065448,0.571703561,0.600577478,0.245170877,0.246656761,0.246656761,1,0,0,0,1,1,0,0,1,0,0,1,3.9566863,2.493984938
11/5/14,US-Tw3,2.334181567,293,0.578093533,0.513004794,0.499573231,0.515883489,0.614061798,0.643595099,0.550445931,0.506410256,0.462095875,0.491360089,0.584169454,0.6393534,0.08744881,0.108198446,0.262390001,0.59956615,0.561957485,0.592197509,0.655523882,0.532242541,0.557266603,0.692974013,0.179791976,0.184249629,0.182763744,1,0,0,0,1,1,0,1,1,0,0,1,2.1268172,1.477926016
9/2/14,US-Tw3,12.04448548,310,0.787899234,0.872443324,0.829219592,0.827894934,0.8565171,0.776455227,0.667502787,0.644370123,0.662207358,0.656633222,0.655797101,0.647714604,0.353491293,0.193040283,0.192846658,0.448169531,0.346320595,0.371106852,0.422002025,0.780558229,0.711260828,0.749759384,0.225854383,0.224368499,0.222882615,1,0,0,0,1,1,0,0,1,0,0,1,7.93763,6.607559204
2/9/18,US-Tw3,3.792035973,312,0.578029009,0.587374777,0.503121006,0.544424005,0.612441752,0.569697528,0.457636566,0.522853958,0.468227425,0.478818283,0.363991081,0.47296544,0.111624338,0.123956413,0.124112354,0.625915115,0.583993863,0.73293339,0.455536293,0.743984601,0.825794033,0.781520693,0.175334324,0.17384844,0.172362556,1,0,0,0,1,0,0,1,0,0,0,1,4.067329,1.76043117
3/29/15,US-Tw3,5.024299596,330,0.625197455,0.604124165,0.614903934,0.653269128,0.580833841,0.586920354,0.662207358,0.565774805,0.644648829,0.637681159,0.59057971,0.527313266,0.268250315,0.317781678,0.250875299,0.479452059,0.527321527,0.628149187,0.572316465,0.652550529,0.62560154,0.677574591,0.170876672,0.170876672,0.170876672,1,0,0,0,1,0,0,1,1,0,0,1,4.6586757,3.172667384
2/25/18,US-Bi2,3.705007355,340,0.391543505,0.338892634,0.311739256,0.343962831,0.332316353,0.306261853,0.491360089,0.41638796,0.384057971,0.459866221,0.447881828,0.429765886,0.233167809,0.247336405,0.348739524,0.577852136,0.654145719,0.509268822,0.668173606,0.384023099,0.294513956,0.359961501,0.072808321,0.069836553,0.068350669,1,1,0,1,0,0,0,0,1,0,0,1,3.4504287,2.429801941
3/1/06,US-SO2,2.744729631,347,0.330634595,0.426647857,0.362675423,0.230201209,0.545214425,0.524917785,0.440078038,0.519509476,0.449832776,0.365663322,0.462931996,0.53400223,0.157029382,0.155232623,0.170348043,0.647083146,0.266671272,0.209917796,0.661051563,0.39172281,0.382098171,0.362848893,0.164933135,0.163447251,0.164933135,1,0,1,1,1,0,0,1,1,1,0,0,1.8656569,0
5/5/14,US-Tw3,6.053713666,358,0.548716695,0.576560429,0.665866015,0.706070971,0.68955109,0.663274251,0.545429208,0.525083612,0.516722408,0.693979933,0.70819398,0.660535117,0.384298244,0.431942767,0.265398146,0.578526733,0.600933278,0.439915722,0.445175921,0.718960539,0.600577478,0.570741097,0.166419019,0.160475483,0.160475483,1,0,0,0,1,0,1,0,1,0,0,1,5.86552,5.752664566
5/16/15,US-Tw3,5.252769461,369,0.560412349,0.534216472,0.522126067,0.52747357,0.55486288,0.562014304,0.6393534,0.574693423,0.557134894,0.605072464,0.631828317,0.651895206,0.210868697,0.343615718,0.348000395,0.632693128,0.647985367,0.559760113,0.501943446,0.68238691,0.62560154,0.631376323,0.196136701,0.197622585,0.194650817,1,0,0,0,1,0,1,0,1,0,0,1,5.621714,4.779061317
7/3/15,US-Tw3,8.042523924,381,0.723114127,0.777278377,0.704115575,0.6737794,0.762919742,0.87356817,0.671683389,0.568283166,0.662486065,0.641861761,0.718227425,0.657190635,0.325852347,0.152016626,0.360946136,0.549202467,0.450868767,0.543950545,0.617371918,0.763233879,0.582290664,0.679499519,0.212481426,0.209509658,0.205052006,1,0,0,0,1,0,1,1,1,0,0,1,6.5767198,7.387852192
8/12/18,US-Bi2,6.849453937,392,0.70877866,0.748309049,0.724780344,0.691376293,0.672298253,0.663400516,0.669175028,0.592809365,0.672798216,0.64632107,0.626254181,0.611204013,0.097017512,0.172916247,0.164795858,0.470236473,0.397410056,0.496966743,0.592390016,0.828681424,0.794995188,0.820019249,0.230312036,0.230312036,0.23179792,1,1,0,1,0,0,1,1,1,0,0,1,7.713796,5.298431873
3/23/13,US-Tw2,3.275905266,424,0.496959757,0.477784485,0.519234285,0.55627251,0.58782677,0.534315389,0.515328874,0.533723523,0.590022297,0.587792642,0.538740245,0.625975474,0.270604173,0.342864364,0.235756384,0.326722317,0.586928152,0.522133961,0.557841858,0.499518768,0.606352262,0.532242541,0.176820208,0.184249629,0.145616642,1,1,0,0,1,0,0,1,1,0,0,1,4.706401,3.092366815
3/13/15,US-Tw3,3.078566662,425,0.598161585,0.56135592,0.582533645,0.582004324,0.557557471,0.532061314,0.510869565,0.507525084,0.599219621,0.42419175,0.570512821,0.536231884,0.093583941,0.275673081,0.146579026,0.678209785,0.677827052,0.646281261,0.609714072,0.663137632,0.721847931,0.737247353,0.197622585,0.197622585,0.197622585,1,0,0,0,1,0,0,1,1,0,0,1,3.9699252,2.329701662
6/19/13,US-Tw3,7.884927657,442,0.611886076,0.586233631,0.63798097,0.6625244,0.63554361,0.709371275,0.640468227,0.65328874,0.656911929,0.689799331,0.691750279,0.698160535,0.323655902,0.516577851,0.501673367,0.507456101,0.590471,0.541376316,0.46754108,0.615014437,0.796920115,0.5466795,0.194650817,0.200594354,0.200594354,1,0,0,0,1,0,1,1,0,0,0,1,5.8507237,6.919080734
10/14/12,US-Tw2,1.48671823,445,0.620428037,0.589725187,0.591527576,0.582715794,0.582389895,0.58799298,0.553790412,0.514214047,0.559921962,0.560758082,0.541527313,0.557971014,0.085396138,0.096187344,0.185898876,0.665469671,0.614245596,0.602037235,0.624155133,0.594802695,0.547641963,0.525505294,0.248142645,0.249628529,0.246656761,1,1,0,0,1,1,0,1,0,0,0,1,1.741003,2.291054726
7/10/12,US-Tw2,6.571852162,447,0.756167125,0.687040288,0.686800946,0.697615032,0.640649821,0.631959792,0.760312152,0.634336678,0.666666667,0.711817168,0.675585284,0.670568562,0.182531529,0.382253899,0.354957538,0.416833618,0.440654468,0.426896182,0.404780129,0.551491819,0.653512993,0.598652551,0.166419019,0.166419019,0.158989599,1,1,0,0,1,0,1,1,1,0,0,1,6.2100677,3.057384014
4/15/18,US-Bi2,4.484558689,452,0.497695249,0.563981634,0.490680917,0.431896947,0.567496318,0.496926249,0.555462653,0.622073579,0.56270903,0.493311037,0.609531773,0.566053512,0.345831906,0.135184134,0.298834538,0.601847363,0.539567045,0.566257763,0.636914531,0.424446583,0.54186718,0.443695861,0.130757801,0.130757801,0.129271917,1,1,0,1,0,0,0,1,1,0,0,1,4.9596643,4.482334614
8/28/18,US-Bi2,3.275556862,457,0.585988558,0.586915764,0.605291737,0.63302598,0.590473116,0.598212369,0.603121516,0.536231884,0.612876254,0.579710145,0.57580825,0.581661093,0.256946255,0.197744975,0.196266865,0.688759154,0.691463749,0.618348534,0.623191337,0.792107796,0.774783446,0.81520693,0.222882615,0.222882615,0.222882615,1,1,0,1,0,0,1,1,1,0,0,1,5.3520403,4.184374809
6/14/17,US-Tw3,7.319049991,492,0.699190365,0.633597395,0.569817527,0.533330577,0.572085051,0.658714591,0.720178372,0.761426979,0.633221851,0.662764771,0.674749164,0.746376812,0.266527596,0.234641638,0.190389923,0.459038264,0.563824248,0.617241551,0.576515358,0.699711261,0.735322425,0.543792108,0.197622585,0.203566122,0.203566122,1,0,0,0,1,0,1,1,0,0,0,1,6.9196143,3.754539848
10/12/14,US-Tw3,5.795669062,496,0.708802099,0.651866116,0.634414438,0.67349364,0.717137776,0.707081679,0.621516165,0.643255295,0.575529543,0.648550725,0.670289855,0.682831661,0.327067657,0.149009636,0.273923518,0.291172904,0.576693319,0.595739297,0.500742582,0.646775746,0.811357074,0.69201155,0.20653789,0.203566122,0.202080238,1,0,0,0,1,1,0,1,0,0,0,1,4.659365,7.697583199
7/20/18,US-Bi2,7.119470632,497,0.701035597,0.723268629,0.718243314,0.695353015,0.683271791,0.717688592,0.698717949,0.690635452,0.610367893,0.670568562,0.643812709,0.592530658,0.205784154,0.185174972,0.220569127,0.575257214,0.578627733,0.524099251,0.521825426,0.783445621,0.870067372,0.830606352,0.216939079,0.212481426,0.212481426,1,1,0,1,0,0,1,1,0,0,0,1,7.8439927,0
3/15/16,US-Tw3,3.816992473,531,0.480766693,0.608524264,0.577427964,0.552876188,0.571013931,0.52659856,0.496376812,0.523411371,0.456243032,0.489966555,0.466833891,0.398272018,0.200483845,0.112548622,0.344760461,0.628885588,0.665365959,0.571786973,0.665235179,0.686236766,0.804619827,0.772858518,0.172362556,0.185735513,0.178306092,1,0,0,0,1,0,0,1,1,0,0,1,4.1120157,1.716494441
8/20/15,US-Tw3,4.755563625,563,0.644576988,0.655675924,0.691814025,0.740303108,0.735565944,0.761539772,0.620122631,0.590858417,0.657190635,0.703455964,0.706800446,0.5287068,0.426605728,0.479332889,0.418819378,0.645363545,0.626247211,0.575114432,0.487762428,0.68238691,0.68719923,0.641000962,0.236255572,0.233283804,0.23179792,1,0,0,0,1,1,0,0,0,0,0,1,5.181639,4.255374908
2/1/18,US-Tw3,2.445357637,568,0.48770284,0.514814601,0.448899209,0.441530502,0.406174509,0.428067141,0.435061315,0.387402453,0.445652174,0.399386845,0.403010033,0.40328874,0.100600525,0.137431184,0.111396018,0.734567585,0.652869871,0.781647328,0.758609685,0.751684312,0.676612127,0.761308951,0.153046062,0.151560178,0.14858841,1,0,0,0,1,0,0,1,0,0,0,1,3.0168986,3.150620461
2/17/18,US-Bi2,3.095784552,570,0.453432678,0.431971262,0.411592962,0.412400903,0.411389619,0.500593763,0.51393534,0.445930881,0.437569677,0.460702341,0.418060201,0.490523969,0.070793477,0.154790949,0.346068961,0.606036761,0.558832202,0.527158052,0.497737408,0.364773821,0.427333975,0.345524543,0.053491828,0.052005944,0.046062407,1,1,0,1,0,0,0,0,1,0,0,1,3.3655064,2.697110176
8/17/14,US-Tw3,5.042733005,583,0.669265772,0.687068135,0.678339091,0.655967857,0.655076759,0.643833387,0.68812709,0.627647715,0.65942029,0.633500557,0.607023411,0.558807135,0.230634612,0.228341976,0.195026132,0.560205016,0.535847796,0.551752625,0.604182339,0.637151107,0.637151107,0.650625602,0.227340267,0.227340267,0.227340267,1,0,0,0,1,1,0,0,0,0,0,1,5.462626,4.47864008
6/6/14,US-Tw3,7.323215377,626,0.642034055,0.732277864,0.652099557,0.626537774,0.669244351,0.720304967,0.620122631,0.74219621,0.730490524,0.643812709,0.715719064,0.763377926,0.350985944,0.383433439,0.271205631,0.561415565,0.382252184,0.334376507,0.369438984,0.729547642,0.863330125,0.786333013,0.200594354,0.200594354,0.193164933,1,0,0,0,1,0,1,1,0,0,0,1,6.9674554,6.97646904
10/1/13,US-Tw3,2.208499552,691,0.604932028,0.641942253,0.616058505,0.610554938,0.605992348,0.585965607,0.603400223,0.623188406,0.622352285,0.608974359,0.568561873,0.584726867,0.236010714,0.296393306,0.15845578,0.532950065,0.635826071,0.512056189,0.342968304,0.375360924,0.428296439,0.472569779,0.236255572,0.233283804,0.23179792,1,0,0,0,1,1,0,1,0,0,0,1,2.290011,2.085497618
6/22/14,US-Tw3,3.821975533,709,0.66428701,0.722981013,0.702539207,0.722333805,0.629886121,0.588258004,0.647157191,0.68729097,0.703177258,0.695373467,0.628205128,0.647993311,0.267625999,0.323457679,0.188659507,0.471060985,0.366620577,0.396195494,0.305501283,0.595765159,0.528392685,0.486044273,0.212481426,0.213967311,0.218424963,1,0,0,0,1,0,1,1,0,0,0,1,5.73875,2.604636789
10/9/13,US-Tw3,2.54617823,758,0.593571454,0.611752962,0.578389596,0.59658717,0.630777857,0.612625087,0.551560758,0.623745819,0.533723523,0.637123746,0.601170569,0.553790412,0.280724373,0.139452828,0.076393924,0.43712255,0.426800402,0.486144224,0.364478836,0.45813282,0.455245428,0.362848893,0.251114413,0.251114413,0.246656761,1,0,0,0,1,1,0,1,0,0,0,1,2.5390396,2.790401697
11/13/17,US-Tw3,2.956285957,770,0.552362571,0.510785266,0.507181519,0.538555982,0.457364672,0.481451578,0.518673356,0.470178372,0.49303233,0.462653289,0.497212932,0.504459309,0.162180431,0.09847077,0.117573081,0.724693109,0.717432223,0.762143694,0.78526705,0.70452358,0.610202117,0.621751684,0.167904903,0.167904903,0.170876672,1,0,0,0,1,1,0,1,1,0,0,1,2.0965657,1.630309463
6/2/18,US-Bi2,1.939910828,778,0.743374964,0.621984364,0.597257329,0.618532585,0.630122666,0.550226848,0.889632107,0.739409142,0.651059086,0.705406912,0.658305463,0.650780379,0.181772434,0.298095324,0.515058042,0.427727455,0.509945488,0.593589278,0.537140428,0.26852743,0.322425409,0.358036574,0.120356612,0.120356612,0.153046062,1,1,0,1,0,0,1,0,1,0,0,1,3.3697636,0
7/4/18,US-Bi2,4.735095677,801,0.595513079,0.628190221,0.626739739,0.69585793,0.803776496,0.732220946,0.693979933,0.637959866,0.68115942,0.702619844,0.746934225,0.734392419,0.298955623,0.276669216,0.389547284,0.661326242,0.650994151,0.672560555,0.555948434,0.576515881,0.68719923,0.677574591,0.153046062,0.150074294,0.147102526,1,1,0,1,0,0,1,1,0,0,0,1,4.894561,2.655340195
7/16/17,US-Bi2,10.12973008,816,0.82459274,0.75448475,0.70076019,0.647841296,0.681006714,0.689873197,0.701783724,0.692028986,0.606187291,0.661092531,0.661649944,0.663879599,0.205615473,0.128504954,0.150754848,0.358858576,0.560013886,0.568395365,0.617201363,0.846968239,0.820981713,0.835418672,0.213967311,0.20653789,0.208023774,1,1,0,1,0,0,1,1,0,0,0,1,10.2844305,6.371263504
7/11/15,US-Tw3,6.612072372,857,0.657346732,0.620290606,0.650080555,0.713653867,0.723114127,0.777278377,0.578874025,0.59754738,0.619843924,0.658862876,0.671683389,0.568283166,0.339780341,0.51699338,0.554104361,0.60533885,0.664819246,0.659865306,0.566723359,0.754571704,0.683349374,0.627526468,0.215453195,0.222882615,0.218424963,1,0,0,0,1,0,1,1,1,0,0,1,5.7634587,5.828313828
10/28/17,US-Tw3,2.469508417,928,0.609303688,0.646921889,0.654327769,0.628373631,0.663111936,0.602609422,0.614548495,0.586956522,0.653567447,0.602006689,0.638795987,0.591137124,0.124173539,0.064695189,0.075749389,0.611640267,0.561193557,0.58175981,0.643342528,0.53705486,0.513955727,0.592877767,0.260029718,0.260029718,0.261515602,1,0,0,0,1,1,0,1,0,0,0,1,2.9874125,1.534075379
10/31/15,US-Tw3,4.03002476,933,0.702526599,0.714656483,0.702793971,0.750119757,0.689633712,0.698177476,0.599777035,0.61148272,0.545150502,0.617892977,0.583333333,0.570791527,0.190746656,0.134424301,0.428551125,0.486991787,0.344866162,0.292275175,0.463246156,0.64292589,0.691049086,0.680461983,0.196136701,0.19910847,0.200594354,1,0,0,0,1,1,0,1,0,0,0,1,4.6449585,4.050058842
9/12/12,US-Tw2,1.468991996,944,0.550120792,0.594913441,0.693489422,0.586796421,0.642087301,0.636797595,0.593366778,0.605629877,0.607859532,0.58277592,0.565217391,0.569397993,0.121415474,0.151467579,0.144504691,0.707594279,0.61474765,0.440404672,0.519199465,0.66506256,0.710298364,0.7093359,0.218424963,0.219910847,0.216939079,1,1,0,0,1,1,0,0,1,0,0,1,2.2423189,5.054592133
3/29/18,US-Tw3,4.953386102,953,0.587140681,0.53903106,0.535861116,0.468846123,0.406160918,0.42690619,0.489687848,0.585005574,0.475752508,0.485785953,0.437569677,0.391861761,0.129140542,0.108275234,0.222549734,0.629680205,0.688096973,0.515160162,0.487464447,0.693936477,0.852743022,0.74879692,0.208023774,0.208023774,0.208023774,1,0,0,0,1,0,0,1,1,0,0,1,4.7459636,4.318966866
8/5/18,US-Bi2,5.626817601,954,0.67410071,0.722625178,0.672668589,0.678509579,0.695455952,0.695412687,0.617892977,0.628483835,0.624024526,0.580824972,0.622073579,0.601727982,0.135729071,0.195806588,0.108275826,0.485516772,0.413800424,0.563069668,0.484207785,0.848893167,0.826756497,0.824831569,0.230312036,0.234769688,0.222882615,1,1,0,1,0,0,1,1,1,0,0,1,7.698501,5.910307884
5/21/14,US-Tw3,7.65823055,980,0.704310832,0.562113757,0.667899443,0.619840773,0.568784747,0.580773778,0.674749164,0.805462653,0.705685619,0.653010033,0.634057971,0.637402453,0.298903884,0.125541932,0.222192318,0.442457796,0.476163227,0.346324733,0.315564363,0.596727623,0.617901829,0.648700674,0.200594354,0.187221397,0.185735513,1,0,0,0,1,0,1,0,1,0,0,1,6.65492,4.007306099
5/13/17,US-Tw3,6.145804639,984,0.509965893,0.515369395,0.541326585,0.649079906,0.612248696,0.581660064,0.618171683,0.651895206,0.614548495,0.73606466,0.628483835,0.651895206,0.291380468,0.367890139,0.389551939,0.556645793,0.622772831,0.71210103,0.552594074,0.73147257,0.818094321,0.675649663,0.194650817,0.194650817,0.190193165,1,0,0,0,1,0,1,0,1,0,0,1,6.1994777,5.039705277
4/14/15,US-Tw3,4.322760024,987,0.495745667,0.55203995,0.597583228,0.533747819,0.566336371,0.458853867,0.573021182,0.573021182,0.63851728,0.607859532,0.452341137,0.469620959,0.320801775,0.368051204,0.228340134,0.431775036,0.614324112,0.512194833,0.55949524,0.728585178,0.711260828,0.681424447,0.176820208,0.175334324,0.176820208,1,0,0,0,1,0,1,0,0,0,0,1,5.9018955,4.096755028