Date,Site Id,LE_bowen_corr(mm),TA,TA-1,TA-2,TA-3,TA-4,TA-5,EEflux LST,EEflux LST-1,EEflux LST-2,EEflux LST-3,EEflux LST-4,EEflux LST-5,WS,WS-1,WS-2,RH,RH-1,RH-2,RH-3,EEflux NDVI,EEflux NDVI-1,EEflux NDVI-2,EEflux Albedo,EEflux Albedo-1,EEflux Albedo-2,Site Id_1,Site Id_2,Site Id_3,Site Id_4,Site Id_5,Month_1,Month_2,Month_3,Month_4,Vegetation_1,Vegetation_2,Vegetation_3,LE_bowen_corr(mm)_predicted,Aleatoric Uncertainty,Epistemic Uncertainty,Total Uncertainty,Eeflux_ET
6/8/09,US-Kon,5.590732498,18.32269565,29.01333333,23.47312,23.081,25.01716667,23.64791667,295.94,311.98,299.64,303.04,299.02,304.74,3.961543478,3.951775556,2.51892,82.58341304,68.86822222,33.07168,29.8345,0.71,0.365,0.53,0.185,0.186,0.158,0,0,0,0,1,0,1,1,0,0,1,0,[5.4419127],2.185813,0.030257035,2.21607,4.770293236
5/8/09,US-Kon,5.999699562,21.18673171,20.51384848,24.77165957,16.08315385,26.72391304,12.055625,306.94,301.46,301.52,293.1,313.94,298.22,4.620341463,1.568939394,1.991404255,52.50802439,39.53539394,65.15040426,22.36538462,0.398,0.542,0.822,0.15,0.135,0.104,0,0,0,0,1,0,1,0,1,0,1,0,[4.7448287],1.6818206,0.08557902,1.7673997,0
9/28/06,US-Kon,2.480927839,9.893666667,22.14516667,10.29083333,26.785625,20.96035417,1.093617021,293,294.72,285.84,304.4,295.84,278.46,3.774733333,1.596416667,4.17375,75.97366667,72.737625,78.6825,67.96708333,0.607,0.551,0.785,0.19,0.105,0.162,0,0,0,0,1,1,0,0,1,0,1,0,[2.1278522],0.51569134,0.057303373,0.5729947,3.189611435
7/21/10,US-Kon,6.724542702,29.01632609,17.5425625,17.24845238,14.80553125,13.45070833,9.264705882,296.18,301.78,296.86,291.86,287.6,281.58,4.533869565,4.316125,5.731285714,74.06676087,68.33254167,70.23809524,59.718375,0.738,0.686,0.568,0.194,0.19,0.184,0,0,0,0,1,0,1,1,1,0,1,0,[6.923989],2.42317,0.06322362,2.4863937,5.285021782
10/3/08,US-Kon,2.839444521,17.19647917,17.15511628,31.1552381,26.97942553,16.8275,19.42708333,300.2,298.54,312.36,312.84,299,298.44,3.188729167,2.433524326,3.30372381,60.38560417,50.82744186,58.81857143,48.951,0.557,0.702,0.63,0.174,0.199,0.196,0,0,0,0,1,1,0,1,0,0,1,0,[1.978613],0.3391258,0.045286395,0.3844122,3.088123798
7/22/10,US-Kon,8.353320115,31.95521429,13.33041667,11.44312821,20.4779375,20.0375,16.45002083,303.76,302.76,283.92,296.32,296.88,294.36,6.577833333,4.173971146,5.608198,69.92280952,64.29041667,76.47410256,75.18714583,0.806,0.311,0.37,0.193,0.142,0.128,0,0,0,0,1,0,1,1,1,0,1,0,[7.0809574],2.6954575,0.36899838,3.0644557,0
10/1/07,US-Kon,2.437220519,19.9459375,13.91147917,11.02865217,27.22379167,19.81560417,24.58470833,305.1,295.64,285.12,306.28,299.12,308.78,2.863541667,2.275099417,3.569695652,54.19022917,69.093125,78.51713043,74.80679167,0.527,0.605,0.413,0.179,0.214,0.146,0,0,0,0,1,1,0,1,0,0,1,0,[2.4321759],0.3951378,0.11324961,0.5083874,2.450853348
9/29/09,US-Kon,2.793395078,14.35741667,17.525625,22.63958333,28.29488462,19.9459375,13.91147917,296.98,300.06,305.48,307.26,305.1,295.64,1.280875,1.022291667,4.463125,46.42577083,60.81916667,58.81875,44.72415385,0.637,0.754,0.569,0.185,0.182,0.185,0,0,0,0,1,1,0,0,1,0,1,0,[2.1631937],0.38266516,0.018820599,0.40148574,0
9/10/11,US-Kon,4.040974633,23.9635,25.3230625,24.96065217,20.115,22.37041667,26.53978723,302.4,298.96,304.8,305.62,299.22,300.1,2.406088235,1.3866875,3.26358687,64.02638235,85.056875,46.12565217,48.1598125,0.571,0.693,0.651,0.184,0.094,0.197,0,0,0,0,1,1,0,0,1,0,1,0,[3.9479852],0.8417028,0.08646887,0.9281717,42.63781738
8/23/10,US-Kon,5.601357709,29.82306667,0.540736111,13.39284783,9.67383333,30.24583333,19.43125,304.64,273.28,291.08,292.08,314.72,299.22,4.291044444,6.170069792,1.058934783,75.94946667,63.45383122,64.38782609,69.62234881,0.727,0.294,0.787,0.185,0.182,0.107,0,0,0,0,1,1,0,0,0,0,1,0,[5.2835455],2.008864,0.045489915,2.054354,0
7/9/11,US-Kon,5.781984851,29.95772917,11.53041667,17.76161364,11.07871429,24.3004878,6.656525,302.76,296.6,297.7,289.68,313.02,284.84,4.991604167,5.412216546,2.864909091,80.45952083,56.54577083,62.69290909,66.4932,0.791,0.664,0.417,0.198,0.112,0.137,0,0,0,0,1,0,1,1,1,0,1,0,[6.7658567],2.0269275,0.05494234,2.0818698,0
6/21/08,US-Kon,7.247074468,23.87068085,24.50504167,20.45947368,16.56875,25.37291667,15.07186667,301.6,299.46,298.54,296.26,297.34,291.42,1.864382979,2.380895833,3.530286842,61.8603617,72.06270833,58.44184211,58.2354375,0.788,0.838,0.479,0.182,0.114,0.155,0,0,0,0,1,0,1,1,0,0,1,0,[7.004057],1.7004268,0.10722617,1.807653,5.801305294
7/17/11,US-Kon,5.80241648,33.95429787,25.9442619,27.41985417,24.88361702,23.645,10.20652381,313.18,306.4,299.46,295.22,302.36,287.34,4.259893617,7.207261905,1.317395833,63.03621277,49.68183333,83.93483333,51.66425532,0.718,0.631,0.401,0.196,0.179,0.105,0,0,0,0,1,0,1,1,1,0,1,0,[6.9115934],2.6536608,0.134314,2.7879748,0
9/24/10,US-Kon,4.558844459,21.05903448,26.39439583,7.231829268,20.633825,15.69641667,19.03343478,298.54,303.94,295.8,299.66,302.54,298.52,1.875586207,1.787979167,2.506195122,67.98051724,62.81854167,45.53285366,51.9978,0.627,0.765,0.401,0.181,0.104,0.121,0,0,0,0,1,1,0,0,1,0,1,0,[3.9103591],0.61962724,0.13917352,0.75880075,0
5/3/10,US-Kon,3.929748918,17.2194375,21.04326087,17.75204651,15.19041667,18.28678125,19.72195652,301.98,295.26,304,296.12,294.34,313.94,2.907145833,1.466195652,0.841059209,50.40191667,92.34669565,50.33116279,45.68291667,0.514,0.749,0.518,0.157,0.12,0.195,0,0,0,0,1,0,1,0,1,0,1,0,[4.355851],1.1887478,0.049361546,1.2381094,0
6/17/12,US-Kon,7.11590661,29.49077778,21.821875,17.2194375,21.04326087,17.75204651,15.19041667,306.26,318.5,301.98,295.26,304,296.12,5.9112,2.568333333,2.907145833,69.93902222,32.658125,50.40191667,92.34669565,0.623,0.391,0.514,0.178,0.108,0.157,0,0,0,0,1,0,1,1,0,0,1,0,[6.3286743],2.690495,0.010578142,2.7010732,0
9/2/11,US-Kon,2.701292558,33.01676596,6.069090909,24.44777778,19.96875,21.70344828,24.08529787,309.18,281.4,303.68,298.78,298.48,307.22,5.542170213,3.330818182,1.132511511,42.62380851,41.35727273,60.56377778,48.68125,0.607,0.527,0.45,0.187,0.099,0.191,0,0,0,0,1,1,0,0,1,0,1,0,[4.5400724],1.490253,0.433368,1.9236209,2.684110641
9/9/08,US-Kon,4.299508743,15.83888889,23.073125,19.19747917,31.81233333,26.0795,10.70844444,294.74,303.88,298.78,306.24,303.7,288.98,2.926088889,2.225409375,6.20525,63.12951111,56.38125,69.54935417,53.15958974,0.705,0.393,0.504,0.18,0.188,0.17,0,0,0,0,1,1,0,0,1,0,1,0,[3.3187377],0.57061756,0.08215259,0.65277016,0
4/1/07,US-Kon,2.202239776,13.21095833,19.51421739,29.8269697,13.44375,22.6233125,16.399375,295.18,302.04,309.22,298.54,301.82,299.86,4.548458333,3.294978261,2.744612121,54.78572917,37.90736957,63.29939394,75.80145833,0.262,0.561,0.433,0.141,0.135,0.176,0,0,0,0,1,0,1,0,0,0,1,0,[2.4115834],1.2094254,0.02185104,1.2312765,0
5/4/08,US-Kon,2.287637418,15.85255319,19.43354167,14.84791667,18.46189583,-2.776595745,13.07572917,304.58,302.92,297.14,300.3,281.82,295.96,3.81287234,5.847876542,3.153958333,41.77102128,63.65229167,73.35958333,40.35833333,0.436,0.557,0.449,0.147,0.178,0.171,0,0,0,0,1,0,1,0,1,0,1,0,[3.1343808],1.0423828,0.007960185,1.050343,0
3/14/08,US-Skr,3.115273424,20.23239583,29.29375,15.28789474,17.39297561,28.7121875,23.89956522,292.28,312.22,299.86,297.68,294.74,303.96,1.755583333,4.912375,1.519894737,84.7781875,51.63189583,74.32210526,59.89597561,0.62,0.316,0.652,0.106,0.199,0.187,0,0,0,1,0,0,0,1,1,1,0,1,[3.5523412],0.5792122,0.0334745,0.6126867,0
3/4/07,US-Skr,3.457141318,23.21586111,21.81308333,18.55152083,23.6868125,28.26252083,14.43117647,293.62,304.38,295.08,300.82,303.8,289.94,2.233694444,4.128166667,5.077625,78.2905,58.417125,70.5246875,76.9168125,0.707,0.656,0.522,0.105,0.191,0.172,0,0,0,1,0,0,0,1,1,1,0,1,[4.029087],0.7132949,0.02070861,0.73400354,8.586050987
2/19/11,US-Skr,3.172317405,19.115375,12.98085106,24.29787234,1.651428571,-1.044125,8.033333333,296.22,288.28,303.98,282.6,282.26,291.64,1.540479167,2.01893617,1.782978723,80.57804167,82.81702128,74.40425532,69.91714286,0.839,0.42,0.692,0.118,0.15,0.161,0,0,0,1,0,0,0,1,0,1,0,1,[2.9227753],0.43715176,0.05138894,0.4885407,0
3/31/11,US-Skr,3.373635733,25.24995833,18.65986105,26.98754167,17.17958333,20.02142857,13.81710345,296.64,298.92,303.52,306.36,294,298.86,2.491104167,1.482714375,1.588333333,85.81429167,57.29123802,61.0125,44.69458333,0.49,0.695,0.831,0.116,0.165,0.145,0,0,0,1,0,0,0,1,1,1,0,1,[4.0688076],0.80305564,0.015439474,0.8184951,5.010143757
1/18/11,US-Skr,1.507531289,21.07358333,13.91375,23.68629167,11.2923125,20.18267391,16.63996667,295.84,287.14,301.38,297.32,300.52,289.52,1.897979167,3.2425,2.462125,92.572625,19.5075,71.28875,37.66175,0.854,0.389,0.792,0.115,0.148,0.114,0,0,0,1,0,0,0,0,1,1,0,1,[2.7970304],0.7962766,0.07891444,0.8751911,1.471554399
8/19/10,US-Skr,5.864069725,28.76274468,21.5875,21.18673171,20.51384848,24.77165957,16.08315385,295.06,300.2,306.94,301.46,301.52,293.1,1.352765957,1.6985,4.620341463,85.42797872,77.3,52.50802439,39.53539394,0.481,0.873,0.398,0.116,0.105,0.15,0,0,0,1,0,1,0,0,0,1,0,1,[5.351181],1.4318029,0.061875194,1.4936781,5.54998064
3/7/11,US-Skr,3.480693116,20.594875,21.71382979,16.27345238,27.89779167,28.76274468,21.5875,295.5,303.9,299.3,299.84,295.06,300.2,2.0958125,3.017709447,3.062604762,79.84891667,61.53085106,57.93333333,83.57114583,0.839,0.803,0.374,0.112,0.197,0.186,0,0,0,1,0,0,0,1,1,1,0,1,[3.7858949],0.7011296,0.010631369,0.711761,5.15047121
1/2/11,US-Skr,1.803476409,21.82025,8.153045455,0.827083333,19.821875,9.844458333,23.6575,295.14,288.6,281.86,314.06,291.9,305.86,1.714354167,2.344568136,1.977916667,85.174125,70.50204545,61.70560417,54.27625,0.92,0.625,0.67,0.109,0.145,0.108,0,0,0,1,0,0,0,0,1,1,0,1,[3.5398512],1.022676,0.12739962,1.1500757,1.651821494
12/1/10,US-Skr,2.613043655,22.22110417,20.30969444,15.94021278,23.44229167,16.89791667,13.51386729,297.2,294.86,295.88,304.02,295.2,303.42,2.117395833,7.626388889,4.473663617,83.8989375,24.06422222,72.20331785,55.17854167,0.882,0.591,0.673,0.11,0.176,0.179,0,0,0,1,0,1,1,0,0,1,0,1,[3.449893],1.1270938,1.0609862,2.1880798,2.255886078
10/22/07,US-Skr,4.904709363,27.40735417,16.44458333,16.78634211,13.16921053,21.515,19.70734783,299.58,297.02,295.78,290.08,302.56,299.72,2.238604167,5.215,7.891131579,82.33364583,43.27416667,27.32155263,56.564,0.366,0.345,0.796,0.107,0.16,0.158,0,0,0,1,0,1,0,1,0,1,0,1,[4.4246516],0.8343968,0.5106832,1.3450799,1.608066916
12/25/10,US-Skr,1.69069303,19.26597917,19.96047917,22.40909091,27.48041667,17.4706383,3.013504792,292.76,296.94,302.8,297.62,299.02,282.72,1.909041667,6.629104167,2.06625,78.94470833,65.84375,70.36545455,88.056375,0.819,0.574,0.757,0.11,0.195,0.104,0,0,0,1,0,1,1,0,0,1,0,1,[2.7107093],0.8685583,0.016423926,0.8849822,1.228938103
8/14/11,US-Skr,5.097941004,28.1418125,26.87985417,19.72142857,19.26597917,19.96047917,22.40909091,303.46,301.7,301.06,292.76,296.94,302.8,1.48875,2.119416667,1.458809524,81.3115,81.04847917,70.53333333,78.94470833,0.842,0.732,0.772,0.108,0.121,0.169,0,0,0,1,0,1,0,0,0,1,0,1,[5.3563824],1.3455603,0.1854811,1.5310414,0
4/8/11,US-Skr,4.16299648,24.45197917,5.248695652,19.93095833,20.398125,15.40645833,19.890625,298.02,289.56,301.48,299.7,297.28,304.08,1.963625,2.17796073,5.038229167,77.707,46.34558696,68.63541667,72.58125,0.75,0.641,0.528,0.12,0.112,0.167,0,0,0,1,0,0,1,0,0,1,0,1,[5.025395],0.8675675,0.039478693,0.9070462,4.183904171
9/12/16,DE-Kli,2.349144834,21.89020833,15.97854167,28.69428571,9.575125,17.76041667,25.42830435,302.74,307.54,308.78,291.06,297.04,303.94,1.602291667,1.960208333,3.875116667,59.08166667,46.954375,64.2502381,51.321875,0.514,0.451,0.184,0.184,0.108,0.194,0,0,1,0,0,1,0,0,1,0,0,1,[2.970676],0.88057256,0.03722352,0.9177961,1.640466809
8/15/12,DE-Kli,2.751245282,14.5925,14.735625,7.833333333,28.0846383,30.57456522,29.38802857,299.76,292.74,288,302.86,309.42,314.16,1.075416667,3.0625,1.005208333,60.48145833,68.83583333,57.82291667,83.71582979,0.872,0.622,0.659,0.179,0.15,0.137,0,0,1,0,0,1,0,0,0,0,0,1,[3.5964875],0.43331927,0.040720224,0.4740395,2.721968889
7/7/15,DE-Kli,6.914928954,22.52717391,16.8954375,20.48354167,17.05208333,28.61854167,12.75333333,305.4,298.36,305.08,302.8,317.06,303.04,2.014347826,4.50875,4.041339542,60.49543478,65.05208333,66.13479167,65.00958333,0.72,0.626,0.655,0.171,0.159,0.204,0,0,1,0,0,0,1,1,1,0,0,1,[5.8246717],1.5089463,0.06703027,1.5759766,0
2/10/14,DE-Kli,2.393983551,2.057083333,19.94333333,12.56478125,17.44340271,6.831236842,27.1875,274.9,302.32,293.14,299.4,284.74,297.98,4.579375,1.208111111,3.246165625,72.81416667,70.47616667,66.6265625,72.51583323,0.407,0.803,0.315,0.164,0.115,0.174,0,0,1,0,0,0,0,1,0,0,0,1,[1.9774561],0.5266239,0.030646823,0.5572707,0.647080302
10/9/14,DE-Kli,4.126310873,16.68416667,0.1875,20.48965517,22.70625,25.65302326,22.1375,291.42,280.24,299.78,300.62,307.82,298.6,5.17625,1.083541667,1.575172414,70.88166667,74.126875,71.46551724,73.24166667,0.619,0.521,0.851,0.161,0.114,0.139,0,0,1,0,0,1,0,1,0,0,0,1,[2.7069879],0.70959806,0.17645872,0.8860568,0
7/10/10,DE-Kli,5.835594258,24.24569446,17.77145833,20.38291667,17.30121053,18.60627083,13.35713636,303.6,300.1,304.38,293.3,296.56,293,1.868697083,2.212291667,4.571905188,54.64312496,62.46958333,55.859375,61.73931579,0.751,0.319,0.572,0.186,0.17,0.196,0,0,1,0,0,0,1,1,1,0,0,1,[6.140712],1.7985158,0.082011975,1.8805277,1.178292155
9/25/15,DE-Kli,2.726271647,11.62916667,12.04459375,12.82211111,22.56829167,15.72388889,19.97421277,284.36,294.9,286.64,304.88,295.76,303.54,2.157916667,1.48303125,1.490333333,80.52583333,48.17421875,45.54244444,48.56425,0.296,0.511,0.327,0.168,0.133,0.164,0,0,1,0,0,1,0,0,1,0,0,1,[2.6214943],0.6673727,0.05166488,0.7190376,2.516218424
7/31/18,DE-Kli,5.838560578,26.47041667,12.78395349,24.91,15.00842553,20.04583333,5.15439585,311.92,290.84,317.3,299.58,301.72,273.48,1.430416667,3.227803333,2.227619048,42.39604167,75.74976744,22.63478571,53.1812766,0.748,0.715,0.382,0.187,0.176,0.155,0,0,1,0,0,0,1,1,1,0,0,1,[6.3273096],2.4234695,0.20650712,2.6299767,0
2/27/17,DE-Kli,2.195787213,7.877083333,17.91093023,12.60297873,20.598125,-3.822479167,19.67541667,284.44,291.44,289.58,303.74,275.8,303.32,5.284166667,1.25570786,5.680651915,60.710625,62.91674419,76.4800339,48.75270833,0.433,0.337,0.669,0.159,0.118,0.143,0,0,1,0,0,0,0,1,0,0,0,1,[2.4495435],0.89297426,0.057795342,0.9507696,0.743035793
8/16/18,DE-Kli,3.483054121,19.753125,20.31172917,19.07666667,29.4406383,15.17979167,5.43125,307.64,300.42,311.92,309.44,297.28,285.3,1.254583333,8.468333333,2.937274625,53.70958333,87.52310417,59.84770833,53.27768085,0.689,0.389,0.725,0.188,0.17,0.177,0,0,1,0,0,1,0,0,0,0,0,1,[3.7823498],1.248724,0.08460322,1.3333272,3.626360416
10/30/13,DE-Kli,1.626962159,6.574375,14.0874,7.678416667,25.86272727,18.581375,27.12045455,281.46,300.32,286.74,308.84,296.04,310.06,4.092083333,2.5332,4.991126042,75.03333333,37.95333333,37.654375,56.63363636,0.207,0.335,0.598,0.142,0.191,0.15,0,0,1,0,0,1,0,1,0,0,0,1,[1.6124341],0.4049604,0.000426795,0.4053872,3.292157888
10/12/15,DE-Kli,1.56436576,0.812083333,30.41541667,18.15493103,15.0610625,18.5139375,12.10047826,281.74,326.38,290.74,298.6,294.76,293.72,3.041875,5.622833333,2.731448276,81.57520833,26.05589583,73.7267931,38.11854167,0.607,0.242,0.488,0.127,0.206,0.179,0,0,1,0,0,1,0,1,0,0,0,1,[1.5618454],0.28812915,0.01267026,0.3007994,0
6/6/18,DE-Kli,3.248567538,17.12041667,-1.43075,21.10736842,22.96,27.17833333,22.78545455,300.92,270.02,304.6,298.86,299.42,303.92,2.920833333,2.2337,2.441362553,67.63083333,83.24375,58.63236842,70.65375,0.44,0.495,0.637,0.183,0.193,0.193,0,0,1,0,0,0,1,1,0,0,0,1,[4.2623434],1.7032877,0.038896665,1.7421844,2.426237822
3/14/14,DE-Kli,2.254576649,7.162083333,16.93934783,14.50979167,22.52215385,25.20744186,14.92291667,290.36,295.98,297.92,298.46,306.02,291.94,2.375625,2.038565217,4.670745604,60.52583333,84.03847826,70.43770833,34.42307692,0.456,0.798,0.576,0.154,0.11,0.171,0,0,1,0,0,0,0,1,1,0,0,1,[2.4909341],0.72009206,0.03939627,0.75948834,1.667385697
4/29/16,DE-Kli,4.158203837,5.832083333,20.13270732,15.89204167,19.713875,-1.025208333,10.08457576,289.84,298.12,300.2,299.96,277.88,287.44,2.795416667,3.872146341,4.9190625,58.524375,46.04878049,35.24585417,60.63541667,0.805,0.58,0.256,0.172,0.182,0.179,0,0,1,0,0,0,1,0,0,0,0,1,[4.079276],1.0692779,0.09011159,1.1593895,2.799290419
10/13/13,DE-Kli,3.018741974,7.000625,31.25326087,21.27446809,10.99375,20.62751282,10.90464728,282.3,313.48,298.06,290.12,301.78,291.58,2.153333333,4.438941304,2.232191489,84.33541667,60.79,61.96980851,71.14166667,0.27,0.441,0.806,0.146,0.185,0.112,0,0,1,0,0,1,0,1,0,0,0,1,[1.5967706],0.55497676,0.005158145,0.5601349,3.185420275
4/21/16,DE-Kli,4.455822518,7.186666667,19.42466667,33.95429787,25.9442619,27.41985417,24.88361702,290.98,300.82,313.18,306.4,299.46,295.22,1.161458333,3.6358125,4.259893617,66.10333333,61.73958333,63.03621277,49.68183333,0.855,0.59,0.718,0.16,0.173,0.196,0,0,1,0,0,0,1,0,0,0,0,1,[4.5219235],0.45885524,0.24083409,0.6996893,2.71982193
6/2/17,DE-Kli,3.071241625,15.53285714,2.470714286,22.0171,20.72592593,31.36553846,15.01073684,300.96,282.86,295.44,301.44,306.96,289.3,1.632285714,0.854714286,2.1928,55.35428571,68.85714286,77.2,77.52592593,0.75,0.322,0.493,0.174,0.159,0.166,0,0,1,0,0,0,1,1,0,0,0,1,[5.116434],1.102631,0.067899525,1.1705306,2.647957444
5/18/17,DE-Kli,1.904370452,15.6692,3.106041667,22.01770833,23.6311875,9.153913043,10.93602083,303.4,283.48,310.56,314.88,288.62,296.02,2.7176,2.358333333,2.638854167,60.8192,57.84708333,82.88729167,48.9365,0.503,0.583,0.374,0.18,0.096,0.181,0,0,1,0,0,0,1,0,1,0,0,1,[3.7985466],1.6479565,0.01668115,1.6646377,1.847263932
4/7/14,DE-Kli,3.849631961,13.336875,24.2905,15.6692,3.106041667,22.01770833,23.6311875,289.78,309.58,303.4,283.48,310.56,314.88,2.201041667,2.46806185,2.7176,69.46916667,48.73775,60.8192,57.84708333,0.742,0.751,0.503,0.163,0.177,0.18,0,0,1,0,0,0,1,0,0,0,0,1,[4.883136],0.86049205,0.08368905,0.9441811,2.579414129
5/26/14,DE-Kli,6.186474163,15.79234043,21.7725,20.30975,6.496875,22.24131915,25.98625,296.66,307.54,303.22,301.62,300.62,301.42,2.371276596,3.47734375,4.821208333,74.28680851,52.19645833,69.44545833,55.84395833,0.161,0.455,0.37,0.189,0.181,0.191,0,0,1,0,0,0,1,0,1,0,0,1,[3.9077764],1.7715514,0.2934309,2.0649822,1.327189684
5/21/17,US-Tw3,8.136472268,22.7475,9.759565174,10.594,29.66476923,17.126875,9.045765957,313.96,283.28,292.06,309.38,296.56,288.64,1.799206479,4.113917826,3.800020833,55.06708333,90.55014493,74.4534375,77.38061538,0.791,0.27,0.184,0.176,0.169,0.119,0,0,1,0,1,0,1,0,1,0,0,1,[6.682488],2.400627,0.31804907,2.718676,7.544161797
12/31/14,US-Tw3,2.123192165,5.919729167,24.43091667,15.64610417,19.31821277,14.2354375,9.596833333,282.12,299.94,295.62,299.38,292.8,292.56,5.967926167,2.8740625,6.406958333,41.045,80.1068125,67.61458333,65.95385106,0.652,0.82,0.576,0.137,0.119,0.183,0,0,1,0,1,1,1,0,0,0,0,1,[2.1577964],0.46581525,0.34517792,0.8109932,0
8/14/13,US-Tw3,3.263464154,23.43333333,16.696625,5.619361702,5.68647619,19.77945833,16.22145833,308.68,297.9,292.7,282.02,301.38,294.82,3.636401188,1.813791667,1.32106383,47.28229167,66.2985,50.1293617,75.86690476,0.538,0.753,0.563,0.193,0.194,0.102,0,0,1,0,1,1,0,0,0,0,0,1,[4.560848],3.458074,0.16053084,3.618605,2.707357168
10/28/17,US-Tw3,2.469508417,17.97404255,26.70145,22.2804375,16.22272917,30.4436383,14.82897917,301.38,296.06,296.92,301.02,320.96,292.22,1.554420553,1.080475,2.512416667,64.66170213,85.987275,84.624375,53.20754167,0.519,0.518,0.849,0.215,0.146,0.103,0,0,1,0,1,1,0,1,0,0,0,1,[2.9665194],0.41603893,0.052067813,0.46810675,1.534075379
12/26/15,US-Tw3,1.249533262,5.511173913,13.35666667,16.55146154,11.14554167,16.5805,11.26116216,282.12,294.54,296.18,290.98,294.44,291.26,3.375829152,1.571815417,5.634358974,62.68173913,68.67976158,28.7,66.53,0.717,0.572,0.722,0.127,0.172,0.171,0,0,1,0,1,1,1,0,0,0,0,1,[1.5577505],0.26445296,0.016329067,0.28078204,1.357157946
8/17/14,US-Tw3,5.042733005,20.69555556,18.34975,6.97,19.17456522,20.31875,21.29577083,306.66,298.78,283.48,297.38,298.32,292.6,2.887114156,4.8420625,5.455882353,59.48333333,72.4326875,64.66647059,79.15804348,0.623,0.731,0.534,0.193,0.142,0.108,0,0,1,0,1,1,0,0,0,0,0,1,[4.058489],1.1589345,0.08055411,1.2394886,4.47864008
7/21/13,US-Tw3,8.150675112,20.92625,11.58717021,20.87916667,30.2611,14.06158333,15.63419149,303.68,292.14,299.02,304.66,309.08,288.42,3.901692729,5.830617021,2.283104167,59.90583333,57.83621277,70.66229167,48.2084,0.651,0.49,0.783,0.189,0.184,0.111,0,0,1,0,1,0,1,1,1,0,0,1,[5.2289677],3.2379112,0.028549457,3.2664607,7.919268131
8/9/14,US-Tw3,4.471659001,20.76708333,23.66458333,27.46911364,21.23176471,8.190217391,24.85395833,302.62,299.9,314,304.04,282.32,301.88,3.664635521,1.552291667,2.077613636,56.26979167,57.74791667,20.57772727,58.36502941,0.63,0.845,0.44,0.194,0.16,0.151,0,0,1,0,1,1,0,0,0,0,0,1,[4.023522],1.3730168,0.110416114,1.483433,2.647813559
6/27/13,US-Tw3,6.767116207,28.8676,18.3660625,14.00121875,19.462,11.94585417,22.01030435,312.7,298.48,296.9,297.84,293.76,298,3.64711932,4.113708333,1.2084375,42.2568,67.19791667,59.101875,52.08802222,0.407,0.559,0.425,0.164,0.166,0.138,0,0,1,0,1,0,1,1,0,0,0,1,[6.1803684],6.708664,0.053346567,6.7620106,1.84282291
11/5/14,US-Tw3,2.334181567,16.5575,23.010625,21.98476596,11.76041667,28.85820833,18.46479167,296.78,300.02,305.44,295.86,302.16,307.16,1.094695611,4.6645,4.497319149,63.44611111,35.825,53.77659574,57.35979167,0.514,0.638,0.586,0.161,0.147,0.162,0,0,1,0,1,1,0,1,1,0,0,1,[1.7091135],0.30601695,0.010635803,0.31665275,1.477926016
7/3/15,US-Tw3,8.042523924,23.13958333,15.29979167,22.38814894,16.719375,23.73266667,22.00270833,305.48,295.98,299.62,304.06,297.4,300.56,4.079062188,2.349583333,3.927893617,58.375625,44.24583333,67.58325532,59.53208333,0.754,0.589,0.543,0.183,0.179,0.158,0,0,1,0,1,0,1,1,1,0,0,1,[6.651045],2.5501044,0.3216269,2.8717313,7.387852192
8/25/14,US-Tw3,6.070547594,19.42342105,20.89174531,20.994375,12.216,11.31058333,21.74095652,297.32,296.86,302.36,296.12,289.54,301.32,5.108932684,1.323819,5.623676708,66.43894737,64.08644238,62.960625,64.2006383,0.651,0.377,0.577,0.191,0.173,0.201,0,0,1,0,1,1,0,0,0,0,0,1,[3.9682543],1.0752556,0.16719723,1.2424529,5.748511314
1/27/16,US-Tw3,2.286688643,11.79888235,15.80293182,22.65925714,9.6465,21.88714583,19.20169565,288.48,303.72,298.4,287.9,302.5,295.2,1.142468765,3.453295455,1.143,77.59088235,36.50977273,69.49374286,52.218375,0.759,0.472,0.855,0.124,0.163,0.164,0,0,1,0,1,0,0,0,1,0,0,1,[3.0521894],0.9190824,0.120814554,1.039897,1.181068659
5/29/14,US-Tw3,9.310466247,19.91642857,17.82666667,22.92864583,18.96744681,12.04505,5.451086957,309.7,302.8,296.92,300.32,295.26,288.54,3.394987464,4.465835938,1.217416667,36.7475,65.4675,90.9226875,62.63191489,0.778,0.718,0.752,0.17,0.17,0.1,0,0,1,0,1,0,1,0,1,0,0,1,[7.313773],1.9882066,0.20899974,2.1972063,7.240914345
2/17/15,US-Tw3,1.737509232,12.42791667,18.9,29.52948485,23.68544186,21.10395833,29.39378723,289.14,300.5,301.44,305.06,302.36,303.6,4.047939292,2.121136364,2.378030303,84.13541667,67.35,74.57745455,58.96786047,0.562,0.771,0.817,0.162,0.179,0.193,0,0,1,0,1,0,0,1,0,0,0,1,[2.6068866],0.39473474,0.080162466,0.4748972,1.880277395
8/20/15,US-Tw3,4.755563625,19.575,17.04479167,21.54993617,21.14083333,29.36848571,3.47,301.78,301.98,298.26,305.22,314.7,283.76,5.340306146,6.408374417,4.346638298,68.056875,63.98229167,59.36170213,60.28604167,0.67,0.555,0.618,0.199,0.176,0.178,0,0,1,0,1,1,0,0,0,0,0,1,[3.770165],0.95065236,0.010563598,0.961216,4.255374908
9/2/14,US-Tw3,12.04448548,26.08,8.0961875,17.61472917,2.715789474,19.02520833,12.36616667,305.18,299.06,299,279.88,300.98,285.44,4.425050111,3.568479167,6.158958333,48.20388889,74.48160417,71.44733333,48.13421053,0.772,0.342,0.564,0.192,0.195,0.171,0,0,1,0,1,1,0,0,1,0,0,1,[5.547014],1.377034,0.4443232,1.8213571,6.607559204
9/2/17,US-Tw3,3.737294317,27.60652174,17.34242424,13.22645833,16.14074074,24.98333333,23.715625,307.28,295.48,296.08,293.9,300.42,301.28,1.214358022,1.291515152,2.957708333,54.1476087,61.97578788,40.22833333,73.92962963,0.572,0.816,0.703,0.205,0.124,0.182,0,0,1,0,1,1,0,0,1,0,0,1,[4.9289255],2.8668823,0.029487755,2.8963702,2.493984938
6/19/16,US-Tw3,6.768181195,22.35659574,19.7175,18.56904167,25.27173913,20.37617021,20.041,310.9,304.42,300.82,305.04,303.5,295.64,2.317783681,2.549954021,2.472,45.01680851,68.424375,63.13960417,71.55217391,0.597,0.841,0.661,0.187,0.191,0.18,0,0,1,0,1,0,1,1,0,0,0,1,[5.5024157],2.8946042,0.19147366,3.086078,2.919791103
6/11/16,US-Tw3,4.801691268,21.58875,23.18339583,7.109416667,14.32168085,20.09961702,19.07276596,301.8,300.24,287.84,297.28,298.98,299.54,4.012942854,2.335958333,8.693729167,43.04375,65.912125,77.610125,54.51685106,0.571,0.819,0.413,0.186,0.113,0.188,0,0,1,0,1,0,1,1,0,0,0,1,[6.021532],2.3297267,0.054110456,2.3838372,3.219891072
5/8/15,US-Tw3,5.087248668,15.57691111,16.07047917,30.20547826,13.87391304,12.90888889,22.112,301.36,301.52,303.7,285.3,301.22,299.22,1.735966578,2.2991875,1.331304348,63.40688889,51.5475625,58.21334783,54.77826087,0.655,0.297,0.729,0.169,0.201,0.124,0,0,1,0,1,0,1,0,1,0,0,1,[5.0857396],1.788503,0.11854493,1.907048,3.300622463
9/23/16,US-Tw3,2.54716135,19.88486486,14.22852083,18.66708333,15.73405556,19.04625,28.88652174,301.76,308.2,302.56,295.8,308.06,303.4,3.394993378,2.705208333,3.431793292,45.35837838,48.94983333,62.46854167,47.25,0.695,0.337,0.697,0.205,0.191,0.17,0,0,1,0,1,1,0,0,1,0,0,1,[4.013426],0.93895274,0.18484798,1.1238008,2.165776253
5/2/16,US-Tw3,6.292353141,17.67020833,14.33028472,16.91142857,20.63363636,15.735625,19.64682979,307.46,294.32,295.38,304.48,300.1,298.68,2.506998354,0.956839667,2.192,62.959375,63.46981025,62.80571429,53.39,0.656,0.672,0.811,0.179,0.213,0.14,0,0,1,0,1,0,1,0,1,0,0,1,[5.2405066],2.008996,0.07352363,2.0825195,3.548557281
9/7/13,US-Tw3,5.427526445,23.9,17.91955556,12.80854167,26.12554167,22.67704545,8.982372093,308.54,307.16,289.94,298.92,302.96,284.84,1.164326687,2.115888889,1.456520833,47.86979167,18.71755556,77.814625,81.79285417,0.569,0.456,0.688,0.204,0.152,0.114,0,0,1,0,1,1,0,0,1,0,0,1,[3.9896417],1.4547062,0.033093367,1.4877995,4.505902052
6/17/15,US-Tw3,7.737253239,22.55354167,13.06058824,23.50020833,21.25045455,23.673125,24.41416667,303.42,284.58,303.24,301.22,306.64,307.02,2.565778854,1.554752353,2.024375,49.56354167,62.1,56.37083333,56.94857576,0.661,0.601,0.853,0.172,0.146,0.186,0,0,1,0,1,0,1,1,0,0,0,1,[6.70489],2.5600915,0.12307894,2.6831703,7.79499054
8/1/17,US-Tw3,4.690591208,26.42145833,33.41854545,11.41375,18.75979167,9.129323529,22.48893617,306.82,307.94,284.08,298.64,287.84,305.3,3.910924125,3.695022727,1.579,43.4425,56.97259091,65.179,67.45666667,0.588,0.749,0.556,0.204,0.199,0.119,0,0,1,0,1,1,0,0,0,0,0,1,[5.6983247],5.0210876,0.3569721,5.37806,3.13728261
7/20/04,US-Wlr,7.135588938,28.43125,17.049375,22.30639583,23.48422917,21.90899634,25.03315789,311.8,305.38,301.76,304.04,302.8,319.76,3.191458333,3.886208333,3.730541667,62.10625,55.06564583,56.21875,69.60566667,0.667,0.448,0.559,0.182,0.16,0.193,0,0,1,1,0,0,1,1,1,0,1,0,[7.322606],1.8132992,0.105957516,1.9192567,4.579813957
2/3/04,US-Wlr,1.205407426,-3.215151515,2.048545455,18.71090909,10.36513636,21.26916667,20.68593548,267.24,276.64,297.16,290.48,300.9,303.86,2.726969697,2.73496597,3.330440909,81.13939394,74.79333333,62.68727273,73.06818182,0.001,0.331,0.522,0.517,0.126,0.16,0,0,1,1,0,0,0,1,0,0,1,0,[1.6524084],0.20401785,0.008939317,0.21295716,0.3
3/7/04,US-Wlr,2.525495279,7.784615385,34.63540909,16.38744681,20.38895833,17.42038462,17.52755263,288.32,310,307.3,301.38,294,296.08,3.828717949,4.88375,4.39106383,54.5,52.72565909,60.73340426,54.44127083,0.257,0.653,0.648,0.166,0.195,0.106,0,0,1,1,0,0,0,1,1,0,1,0,[1.9707459],0.59898007,0.10521583,0.7041959,0
3/9/02,US-Wlr,2.175266065,-3.190697674,15.519375,25.66164516,12.5664375,2.246575758,23.92745455,279.3,291.74,303.66,286.84,291.42,302,6.419767442,1.6808125,4.455645161,53.14883721,81.27397917,78.15845161,23.2575625,0.249,0.698,0.334,0.193,0.111,0.174,0,0,1,1,0,0,0,1,1,0,1,0,[1.3693728],0.29260296,0.009298298,0.30190125,0
3/14/04,US-Wlr,2.215345444,8.541304348,23.32145833,23.55416667,17.51746956,11.5990625,23.13333333,292.86,298.74,308.22,296.28,292.14,301.88,2.650869565,1.989958333,2.673458333,55.56956522,71.08545833,50.4065,68.27916989,0.275,0.789,0.484,0.168,0.113,0.174,0,0,1,1,0,0,0,1,1,0,1,0,[1.9526236],0.34912872,0.14689152,0.49602026,0
6/3/04,US-Wlr,6.647858837,18.9,29.52948485,23.68544186,21.10395833,29.39378723,21.36223077,300.5,301.44,305.06,302.36,303.6,293.78,2.121136364,2.378030303,2.864883721,67.35,74.57745455,58.96786047,60.59791667,0.771,0.817,0.471,0.179,0.193,0.165,0,0,1,1,0,0,1,1,0,0,1,0,[6.997382],2.0608633,0.04252873,2.103392,2.974057198
6/29/02,US-Wlr,5.663895361,26.11666667,16.01475,14.875,27.17375,3.436808511,29.43289583,309.68,285.48,291.74,309.28,276.42,299.86,3.414583333,1.84025,1.420833333,69.39583333,71.3495,62.08125,32.86895833,0.666,0.203,0.787,0.18,0.131,0.138,0,0,1,1,0,0,1,1,0,0,1,0,[6.491804],3.2161198,0.4873307,3.7034504,5.24316597
3/23/04,US-Wlr,1.508385929,15.73333333,17.23912121,9.5789375,6.003521739,29.95772917,11.53041667,298.02,292.68,293.32,288.16,302.76,296.6,7.149375,1.986454545,3.419846625,50.40833333,56.99987879,67.69229167,63.25173913,0.267,0.518,0.707,0.174,0.128,0.185,0,0,1,1,0,0,0,1,1,0,1,0,[2.345707],1.4209617,0.012707594,1.4336693,0.3
8/14/04,US-Wlr,5.564289175,18.4375,10.45229167,14.52527568,-3.918125,21.28477273,22.903625,303.98,291.86,295.58,265.16,303.42,302.34,1.705833333,3.179604167,1.883244081,67.22291667,72.81104167,56.86672663,74.55279167,0.69,0.308,0.698,0.184,0.192,0.208,0,0,1,1,0,1,0,0,0,0,1,0,[4.6454406],1.2672127,0.6435576,1.9107704,2.492971659
9/26/02,US-Wlr,3.117594604,19.53695652,12.10084378,19.8939375,18.5275,15.5187775,23.17361702,305.66,296.1,304.1,298.78,294.44,302.78,1.836086957,2.549011765,2.7985,65.59782609,55.76095556,59.7274375,63.70020833,0.513,0.469,0.355,0.179,0.109,0.184,0,0,1,1,0,1,0,0,1,0,1,0,[3.4225101],0.7602826,0.020917486,0.78120005,1.490410566
4/22/07,US-Ced,2.751623708,16.93833333,15.28020837,20.36791667,22.996,27.44761111,21.81276596,304.64,299.3,301.44,299.54,305.22,305.2,2.005833333,2.844105417,5.423,31.17710417,61.50652777,64.98014583,69.34857143,0.527,0.65,0.66,0.108,0.192,0.186,0,0,1,1,1,0,1,0,0,1,0,0,[2.622178],0.5239294,0.18728514,0.71121454,4.732915401
4/10/14,US-Ced,2.030312347,10.01979167,9.370177778,17.944375,17.30784725,17.2335625,24.24569446,291.64,302.48,302.72,295.64,295.26,303.6,2.5161875,1.980111111,2.610307021,39.93958333,67.39602222,49.30791667,78.9594801,0.686,0.32,0.731,0.106,0.15,0.175,0,0,1,1,1,0,1,0,0,1,0,0,[2.308102],0.52031946,0.06559286,0.58591235,0.421229869
7/16/06,US-Ced,5.189074088,26.78129787,23.52708333,5.344458333,14.44680851,12.767625,20.96958333,301.68,304.94,289.32,304.6,295.9,303.7,1.841361702,5.558529458,2.670208333,63.50489362,41.87020833,73.31,58.34595745,0.802,0.605,0.346,0.111,0.181,0.161,0,0,1,1,1,0,1,1,1,1,0,0,[5.0443096],1.630784,0.07812023,1.7089043,6.464594364
9/29/13,US-Ced,2.422504945,14.353125,17.431,26.88541667,18.54808511,15.625425,26.6540625,294.62,290.5,298.32,301.26,298.22,308.86,1.7235625,1.0082,2.793125,79.45208333,59.3116,65.29379167,44.91085106,0.838,0.529,0.456,0.107,0.124,0.154,0,0,1,1,1,1,0,0,1,1,0,0,[2.7627282],0.47400737,0.017793698,0.49180105,7.311950207
6/20/08,US-Ced,4.230519872,22.6648,21.35538462,19.17005263,21.21668889,18.84191667,14.5749,299.12,302.42,298.4,300.2,295.96,291.78,2.07336,4.150512821,4.548,60.028,53.56410256,63.57526316,67.87537778,0.162,0.629,0.714,0.109,0.18,0.17,0,0,1,1,1,0,1,1,0,1,0,0,[3.9419842],1.6980387,0.042812206,1.7408509,2.554770708
11/3/05,US-Ced,1.767506193,11.35619149,5.511173913,13.35666667,16.55146154,11.14554167,16.5805,290.64,282.12,294.54,296.18,290.98,294.44,3.119574468,3.375829152,1.571815417,57.94129787,62.68173913,68.67976158,28.7,0.606,0.717,0.572,0.115,0.127,0.172,0,0,1,1,1,1,0,1,1,1,0,0,[1.4507786],0.3226674,0.002935509,0.3256029,0
7/17/06,US-Ced,5.484400942,29.4406383,15.17979167,5.43125,23.6675,16.41666667,7.079583776,309.44,297.28,285.3,302.08,300.84,285.72,1.521851064,6.737270833,4.474791667,53.27768085,70.07291667,76.73020833,70.8225,0.773,0.584,0.656,0.112,0.178,0.169,0,0,1,1,1,0,1,1,1,1,0,0,[5.8057795],1.9783254,0.11169469,2.0900202,3.387904644
9/23/08,US-Ced,2.409229442,14.99958333,11.64916667,18.70212766,22.81229167,14.0412766,12.38483333,292.62,300.84,300.14,299.72,299.24,292.04,2.316375,3.48875,3.375780128,76.59875,41.945,55.11382979,75.16041667,0.793,0.476,0.636,0.11,0.106,0.212,0,0,1,1,1,1,0,0,1,1,0,0,[2.8779082],0.50820744,0.10295014,0.6111576,8.687319756
8/5/13,US-Ced,4.892884268,18.78416667,23.825,9.90812766,19.24097917,20.67083333,27.65,299.06,314.54,286.46,300.66,303.78,308.1,1.662854167,2.947699625,2.155765957,63.1875,46.87604167,55.12744681,68.29147917,0.779,0.288,0.494,0.109,0.122,0.119,0,0,1,1,1,1,0,0,0,1,0,0,[3.4787629],0.62964827,0.051938176,0.68158644,4.965390682
7/4/13,US-Ced,5.466733949,24.87625,13.5125625,13.08958333,25.80520833,5.190187505,20.11039286,302.6,280.56,289.54,311.18,282.88,300.92,2.155208333,7.14303125,2.452291667,80.37502083,70.1753125,53.2604375,75.48083333,0.819,0.2,0.635,0.112,0.179,0.133,0,0,1,1,1,0,1,1,1,1,0,0,[4.712425],1.7312459,0.33839065,2.0696366,9.253455162
4/26/14,US-Ced,3.061275083,11.78586957,21.89361702,31.14072917,21.06157447,21.70716667,27.60854167,292.64,304.02,302.5,301.4,300.52,310.9,2.52076087,0.99106383,5.803895833,75.34217391,72.62340426,72.91497917,54.0412766,0.497,0.686,0.774,0.126,0.156,0.196,0,0,1,1,1,0,1,0,0,1,0,0,[2.370169],0.39892724,0.10551098,0.5044382,3.884228468
9/6/07,US-Ced,2.944300133,21.16155556,12.77831915,17.208,4.448085106,23.0650625,17.922,296.84,291.3,299.88,285.86,303.58,289.54,1.641755556,4.284553191,0.904,74.72733333,63.45744681,43.328,69.8387234,0.737,0.733,0.772,0.11,0.155,0.152,0,0,1,1,1,1,0,0,1,1,0,0,[3.4118166],0.7327248,0.011908731,0.7446335,6.316411972
7/13/08,US-Ced,3.691311915,23.32104167,19.62711111,18.71520833,13.363375,8.052272727,13.90083333,305.22,301.8,306.98,286.12,289.42,298.04,2.3985,1.744628844,4.118641646,76.58645833,63.54333333,61.8975,70.1875,0.74,0.741,0.792,0.108,0.189,0.17,0,0,1,1,1,0,1,1,1,1,0,0,[3.7301638],1.3378783,0.15091142,1.4887898,0
6/2/07,US-Ced,3.939534085,23.5775,23.759375,31.06684211,20.628,16.5458125,11.20479167,305.1,299.02,298.8,300.38,313,290.62,2.614104167,3.175625,4.240807895,63.84166667,71.290625,60.21631579,67.74111111,0.834,0.869,0.727,0.118,0.147,0.184,0,0,1,1,1,0,1,1,0,1,0,0,[5.226196],1.12559,0.1192935,1.2448834,0
3/9/14,US-Ced,1.088216647,4.025,20.72916667,14.90688235,5.012729167,21.00083333,7.186666667,280.74,300.06,290.12,280.06,308.48,290.98,2.068586957,1.243888889,2.166705882,58.55173913,77.20305556,55.95588235,79.93764583,0.304,0.681,0.638,0.113,0.202,0.144,0,0,1,1,1,0,0,1,1,1,0,0,[1.5506651],0.2054379,0.0298855,0.2353234,0
8/5/07,US-Ced,4.306265067,22.40909091,27.48041667,17.4706383,3.013504792,20.28566667,21.05903448,302.8,297.62,299.02,282.72,295.66,298.54,2.06625,1.128291667,3.597426553,70.36545455,88.056375,68.79212766,68.32383333,0.757,0.356,0.749,0.104,0.128,0.191,0,0,1,1,1,1,0,0,0,1,0,0,[3.7250204],0.6425538,0.023930412,0.66648424,0
10/26/08,US-Ced,2.070649608,11.1293913,20.78752083,21.32707317,13.336875,24.2905,15.6692,289.06,299.12,300.2,289.78,309.58,303.4,1.868869565,1.052916667,2.530265544,72.81326087,83.6,65.54878049,69.46916667,0.682,0.817,0.427,0.113,0.166,0.184,0,0,1,1,1,1,0,1,0,1,0,0,[1.8268569],0.26277438,0.014795989,0.27757037,0
7/22/11,US-AR2,1.112100881,33.21122917,14.50129167,13.97727273,16.60958333,16.59117073,26.87291667,315.74,298.36,296.14,290.54,290.34,308.38,4.486291667,4.78375,4.525454545,40.868125,46.43604167,80.79772727,77.02833333,0.072,0.523,0.532,0.207,0.162,0.154,0,1,0,0,0,0,1,1,1,0,1,0,[2.372084],2.0610652,0.14144157,2.2025068,0
6/6/09,US-AR2,2.785763884,27.874375,21.24583333,18.28659574,7.162083333,16.93934783,14.50979167,310.12,301.72,312.54,290.36,295.98,297.92,8.572458333,0.661666667,6.638085106,49.59520833,80.62291667,52.15446809,60.52583333,0.155,0.771,0.324,0.183,0.164,0.137,0,1,0,0,0,0,1,1,0,0,1,0,[2.6084816],2.3567164,0.073256806,2.4299731,0
7/14/10,DE-Seh,4.517194465,23.52051282,23.98108333,2.054761905,12.68981818,6.7864,25.214,307.46,304.32,285.78,288.56,281.54,306.92,2.156139482,3.7990625,4.444047619,62.83897436,43.51041667,41.8547619,76.97145455,0.493,0.535,0.335,0.21,0.186,0.153,0,1,0,0,1,0,1,1,1,0,0,1,[4.616187],3.3536196,0.41936773,3.7729874,0
10/10/10,DE-Seh,2.175563978,12.3840625,6.023571429,19.27114583,18.91895833,20.21845833,24.87625,291.08,284.32,302.18,304.52,300,302.6,1.867455442,3.4308,6.537979167,69.17125,69.72337143,71.55208333,53.81229167,0.522,0.435,0.595,0.152,0.119,0.181,0,1,0,0,1,1,0,1,0,0,0,1,[2.004369],0.4690666,0.046560176,0.5156268,0.481508523
6/4/10,DE-Seh,4.731529688,17.76083333,8.623617021,21.00147917,24.57197917,16.26875,12.42791667,299.98,293.42,301.24,299.86,298,289.14,1.04542959,1.827234043,3.208645833,65.09958333,56.43255319,53.35833333,80.09641667,0.792,0.487,0.683,0.178,0.178,0.116,0,1,0,0,1,0,1,1,0,0,0,1,[5.5495524],2.7073994,0.095022835,2.8024223,2.183549166
8/27/09,DE-Seh,4.198511546,21.32707317,13.336875,24.2905,15.6692,3.106041667,22.01770833,300.2,289.78,309.58,303.4,283.48,310.56,2.530265544,2.201041667,2.46806185,65.54878049,69.46916667,48.73775,60.8192,0.427,0.742,0.751,0.184,0.163,0.177,0,1,0,0,1,1,0,0,0,0,0,1,[2.8872066],5.6836643,0.027817275,5.7114816,1.463417053
5/23/08,DK-Ris,3.733773738,11.327625,6.857902439,25.87111111,22.47870833,15.5220303,7.024020833,297.9,290.3,307.9,306.66,299.16,282.94,1.486666667,1.978170732,1.852222222,69.74458333,72.57658537,70.07777778,65.54322917,0.668,0.376,0.301,0.192,0.14,0.182,0,1,0,1,0,0,1,0,1,0,0,1,[3.117608],2.2222633,0.004501571,2.226765,2.805195332
4/21/08,DK-Ris,5.727735467,5.344458333,14.44680851,12.767625,20.96958333,30.15402326,25.14166667,289.32,304.6,295.9,303.7,310.98,299.54,2.670208333,2.516808511,1.27275,73.31,58.34595745,22.888625,63.574375,0.346,0.453,0.589,0.161,0.105,0.159,0,1,0,1,0,0,1,0,0,0,0,1,[2.430646],1.5265682,0.013145259,1.5397134,0
6/10/06,DK-Ris,4.733498836,13.51021739,28.65416667,21.09854167,13.525,0.5375,25.34406383,297.22,307.88,305.34,299.96,279.5,305.3,1.291521739,2.622291667,1,88.60586957,66.2,63.87041667,80.38833333,0.823,0.643,0.769,0.2,0.18,0.187,0,1,0,1,0,0,1,1,0,0,0,1,[3.5884132],4.2226562,0.050339874,4.272996,0
6/8/08,DK-Ris,2.268777014,13.27380952,20.30934783,8.791666667,27.22813636,20.24066667,10.49172222,302.82,298.66,285.68,307.62,296.3,284,0.472857143,1.310869565,3.894722222,84.31380952,64.92891304,72.21944444,67.30654545,0.798,0.58,0.26,0.211,0.19,0.165,0,1,0,1,0,0,1,1,0,0,0,1,[3.6881795],5.2724714,0.031678583,5.30415,3.521666765
5/15/08,DK-Ris,1.925928586,10.93602083,27.14255319,12.44204167,21.38458333,18.80716667,18.3804375,296.02,302.2,292.94,302.58,298.32,296.84,1.391875,1.477446809,3.149708333,65.411875,80.91276596,55.592125,64.57645833,0.701,0.639,0.243,0.184,0.167,0.191,0,1,0,1,0,0,1,0,1,0,0,1,[2.9906666],3.1910846,0.009967918,3.2010524,2.464826822
7/13/06,DK-Ris,3.644253707,16.25202273,25.445625,27.86190476,27.65015217,15.69979167,10.43116669,299.98,300.36,307.44,304.06,303.64,292.44,1.834090909,2.1490625,3.623095238,74.42977273,82.33897917,66.98095238,60.04745652,0.714,0.786,0.772,0.196,0.116,0.179,0,1,0,1,0,0,1,1,1,0,0,1,[3.2449498],2.3827534,0.04527837,2.4280317,4.275231361
11/27/07,US-FR2,1.819841768,9.394464286,17.8978125,8.167125,19.55847115,24.98944444,28.89385417,290.48,298.62,284.02,299.5,315.06,302.26,1.579142857,3.533666667,4.248729167,68.30632143,50.84375,58.77435417,88.70194798,0.502,0.612,0.363,0.125,0.152,0.121,0,1,0,1,1,1,0,1,1,1,1,1,[1.6335179],0.2660609,0.000272947,0.26633385,0
4/11/05,US-FR2,4.624455782,20.79723077,19.18766667,8.265083333,22.6648,21.35538462,19.17005263,306,300.86,292.4,299.12,302.42,298.4,2.71774359,6.244166667,2.003125,49.17146154,72.816375,46.27085417,60.028,0.532,0.478,0.551,0.135,0.168,0.105,0,1,0,1,1,0,1,0,0,1,1,1,[3.9072652],3.2531352,0.12110171,3.3742368,0
10/20/05,US-FR2,2.359898026,25.16902857,10.82624217,16.4189,18.61708333,18.61748485,12.67708333,306.8,288.84,289.14,299.94,300.62,286.32,2.209285714,1.474335933,1.8618,63.60417143,67.85279275,34.5305,40.77208333,0.573,0.361,0.406,0.134,0.143,0.145,0,1,0,1,1,1,0,1,0,1,1,1,[3.0311472],2.234346,0.033145387,2.2674913,0
4/27/05,US-FR2,4.489821433,23.97553333,9.479791667,16.2759375,7.491041667,16.17397727,9.86875,309.24,286.62,298.54,283.24,296.04,295.12,3.7478,2.083541667,4.217208333,41.00643333,45.71520833,50.50070833,56.98158333,0.501,0.453,0.379,0.128,0.138,0.169,0,1,0,1,1,0,1,0,0,1,1,1,[4.1667223],2.5747063,0.37978137,2.9544878,0.381283194
3/6/10,US-AR1,1.38429617,13.525,0.5375,25.34406383,19.31107211,22.2326875,17.26765957,299.96,279.5,305.3,302.46,300.38,297.1,3.682666667,2.472291667,3.824340426,80.38833333,82.28752083,49.19023404,62.14923558,0.234,0.49,0.519,0.163,0.155,0.164,0,1,1,0,0,0,0,1,1,0,1,0,[2.0854533],0.6615886,0.024216637,0.68580526,2.291767359
9/3/12,US-AR1,1.555907598,32.41527083,21.20888889,27.874375,21.24583333,18.28659574,7.162083333,320.1,301.76,310.12,301.72,312.54,290.36,2.904291667,4.1878472,8.572458333,44.14310417,72.20977778,49.59520833,80.62291667,0.419,0.593,0.155,0.169,0.19,0.183,0,1,1,0,0,1,0,0,1,0,1,0,[2.1480405],1.2812861,0.11647959,1.3977658,2.341912508
3/10/17,DE-RuS,3.318800466,6.92615814,17.80458333,9.422195652,12.12666667,31.67242553,17.97021277,285.94,297.3,284.72,284.64,321.86,294.4,1.056396593,1.572604167,1.38146928,75.6533969,63.39791667,68.61826087,78.496875,0.478,0.81,0.062,0.144,0.109,0.2,0,1,1,0,1,0,0,1,1,0,0,1,[3.2017288],0.818542,0.37653655,1.1950786,1.685737371
2/18/18,DE-RuS,2.570680496,1.63507189,20.36493617,24.49895833,17.06808511,10.865,21.15791667,277.62,301.32,303,298.76,289.9,307.38,1.391332056,3.59987234,1.968752396,82.70700652,72.63987234,50.81625,57.14261702,0.585,0.487,0.585,0.155,0.169,0.206,0,1,1,0,1,0,0,1,0,0,0,1,[2.2079964],0.5203229,0.026393538,0.54671645,0.765552461
6/14/17,DE-RuS,7.376693618,19.31107211,22.2326875,17.26765957,9.893666667,22.14516667,10.29083333,302.46,300.38,297.1,293,294.72,285.84,1.172118579,5.870229167,1.617170213,62.14923558,68.14583333,83.21106383,75.97366667,0.761,0.582,0.756,0.206,0.176,0.117,0,1,1,0,1,0,1,1,0,0,0,1,[7.070382],3.9049501,0.3856706,4.290621,3.514577389
5/17/18,DE-RuS,6.521706127,12.17849283,27.80577778,28.94425,21.86842105,16.52729167,26.10666667,293.28,306.02,299.72,296.2,290.02,308.88,1.972066087,2.594643378,1.845208333,72.34346041,39.338,81.11727083,83.72371053,0.835,0.635,0.435,0.203,0.2,0.113,0,1,1,0,1,0,1,0,1,0,0,1,[5.8484073],1.7932767,0.40241998,2.1956966,0
9/29/18,DE-RuS,3.873217798,10.82624217,16.4189,18.61708333,18.61748485,12.67708333,16.95520833,288.84,289.14,299.94,300.62,286.32,298.5,1.474335933,1.8618,6.3741875,67.85279275,34.5305,40.77208333,69.16666667,0.361,0.406,0.356,0.143,0.145,0.178,0,1,1,0,1,1,0,0,1,0,0,1,[2.6047077],0.8925451,0.049277943,0.94182307,0.461157709
5/9/18,DE-RuS,8.143445941,20.73499079,15.73333333,17.23912121,9.5789375,6.003521739,29.95772917,303.12,298.02,292.68,293.32,288.16,302.76,0.920673155,7.149375,1.986454545,57.50012498,50.40833333,56.99987879,67.69229167,0.722,0.267,0.518,0.208,0.174,0.128,0,1,1,0,1,0,1,0,1,0,0,1,[6.6313076],2.2107074,0.7491901,2.9598975,4.115924835
5/9/01,FI-Jok,4.198620704,13.1978,19.7645625,13.00208333,13.863125,11.327625,6.857902439,296,293.82,290.86,295.82,297.9,290.3,3.359577778,2.035625,2.185833333,54.71973333,78.42310417,46.57916667,57.8125,0.558,0.836,0.613,0.11,0.106,0.146,0,1,1,1,0,0,1,0,0,0,0,1,[2.9143589],1.2556473,0.15799895,1.4136462,1.044512749
4/2/02,FI-Jok,1.481127317,2.214311111,7.652104167,23.23583333,25.24995833,18.65986105,26.98754167,278.98,282.94,305.8,296.64,298.92,303.52,2.011822222,3.984733542,4.552808063,65.71813333,60.12429315,49.34,85.81429167,0.367,0.248,0.499,0.136,0.161,0.205,0,1,1,1,0,0,0,1,1,0,0,1,[2.6071634],1.0403236,0.031247362,1.071571,0.3
6/13/02,FI-Jok,1.547954605,14.66718605,25.59583333,19.53127083,23.47435897,-3.190697674,15.519375,291.88,305.48,294.92,304.14,279.3,291.74,2.124627907,2.912526771,0.822916667,78.66655814,39.07625,70.53541667,79.54102564,0.61,0.655,0.865,0.141,0.188,0.162,0,1,1,1,0,0,1,0,1,0,0,1,[3.59208],1.4556535,0.023926228,1.4795798,1.14479816
10/21/17,US-Bi2,1.007633537,13.22297917,13.68544444,18.2393617,24.5313913,12.3840625,6.023571429,296.32,285.08,304.44,299.4,291.08,284.32,2.402592958,1.720381481,1.650212766,70.59833333,68.81259259,33.26851064,84.94219565,0.251,0.664,0.64,0.203,0.142,0.107,0,1,1,1,1,1,0,0,1,0,0,1,[2.3141398],1.1539016,0.031402774,1.1853044,0
7/24/17,US-Bi2,6.28357808,19.7175,18.56904167,25.27173913,20.37617021,20.041,21.58067391,304.42,300.82,305.04,303.5,295.64,297.1,2.549954021,2.472,3.219347826,68.424375,63.13960417,71.55217391,60.16425532,0.841,0.661,0.769,0.191,0.18,0.17,0,1,1,1,1,0,1,1,0,0,0,1,[5.884518],1.7360368,0.09777449,1.8338113,4.270719528
6/2/18,US-Bi2,1.939910828,24.05916667,5.443648649,25.45625,16.51360526,14.89866667,12.33345833,321.12,284.1,301.98,291.62,283.36,292.4,2.275451042,2.637864865,1.874166667,46.14583333,47.72683784,69.93958333,63.19452632,0.24,0.478,0.861,0.121,0.129,0.157,0,1,1,1,1,0,1,0,1,0,0,1,[2.2462294],2.2624226,0.027359247,2.2897818,0
11/9/18,US-Bi2,1.062169787,9.314928571,22.12980851,22.696,10.04130435,5.153333333,9.511041667,294.88,301.06,297.24,286.08,276.88,292.4,1.153527405,7.471276596,2.874416667,43.8052381,41.58112766,73.36302083,44.62441304,0.222,0.485,0.811,0.116,0.168,0.109,0,1,1,1,1,1,0,1,0,0,0,1,[1.6696141],1.1723353,0.000377402,1.1727127,1.863346518
3/30/16,US-Me6,1.696743528,5.59,20.07640426,11.70325,22.92683721,33.76440909,3.22715,290.32,297.66,286.98,301.16,309.72,274.76,1.630208333,1.633914894,1.497333333,55.99354167,65.25276596,54.45608333,77.56113953,0.636,0.777,0.552,0.106,0.115,0.14,1,0,0,0,0,0,0,1,1,0,1,1,[2.2007978],0.26781502,0.054794952,0.32260996,40.66887665
7/12/16,US-Me6,1.934700359,15.11375,2.74875,29.84857143,29.87234043,10.1318,31.71240426,303.16,278.36,310.36,304.22,288.98,318.88,3.4675,4.397916667,3.679142857,56.53104167,64.361875,54.69142857,64.59229787,0.43,0.633,0.682,0.106,0.184,0.182,1,0,0,0,0,0,1,1,1,0,1,1,[2.6803484],0.5154506,0.11633464,0.6317852,3.024712324
7/28/16,US-Me6,1.436381441,22.94106383,14.77293182,22.56405714,15.88611119,23.16809091,18.31845511,317.9,296.46,299.3,295.14,300.52,298.8,1.529361702,3.818545455,3.878285714,42.74659574,64.02370455,54.72928571,69.86366659,0.367,0.722,0.507,0.107,0.149,0.17,1,0,0,0,0,0,1,1,1,0,1,1,[1.9883269],0.706681,0.14651763,0.85319865,4.861202717
3/25/17,US-Me6,1.57624012,4.448085106,23.0650625,17.922,25.41734783,32.41527083,21.20888889,285.86,303.58,289.54,302.88,320.1,301.76,2.566382979,3.532229167,1.5405625,69.8387234,60.060375,71.62325,59.49291304,0.429,0.52,0.78,0.102,0.164,0.111,1,0,0,0,0,0,0,1,1,0,1,1,[1.9681542],0.29438087,0.061364956,0.35574582,0.492453009
7/5/02,US-Goo,4.755512117,27.65,16.26058636,21.92779167,18.5750625,22.593,28.033375,308.1,290.28,300.48,304.26,299.28,305.96,0.982708333,1.082062591,3.508958333,77.0375,68.08510806,63.971375,33.9580625,0.747,0.593,0.6,0.163,0.18,0.192,1,0,0,0,1,0,1,1,1,0,1,0,[5.3604546],1.493364,0.1710395,1.6644034,4.052684784
11/2/05,US-Goo,1.496831117,9.644680851,22.86251163,28.04418605,18.78416667,23.825,9.90812766,295.74,303.68,306.26,299.06,314.54,286.46,0.424680851,4.763790698,5.171923256,75.23829787,40.64602326,70.23627907,63.1875,0.634,0.639,0.753,0.164,0.167,0.189,1,0,0,0,1,1,0,1,1,0,1,0,[1.5717661],0.2239533,0.024574297,0.2485276,1.308443546
11/6/04,US-Goo,1.497014611,16.14074074,24.98333333,23.715625,12.52966667,24.51489362,20.5406383,293.9,300.42,301.28,288.3,302.06,307.3,1.592962963,1.044583333,3.0996875,73.92962963,84.62708333,42.01729167,76.56833333,0.688,0.322,0.733,0.137,0.163,0.196,1,0,0,0,1,1,0,1,1,0,1,0,[2.4495342],0.28279543,0.048226126,0.33102155,0
9/22/02,US-Goo,3.220939228,22.33958333,12.32344737,17.38896429,13.844375,6.682934783,20.54791667,298.02,286.36,297.78,293.68,281.48,306.68,2.32,0.815973684,2.054857143,79.20416667,82.82055263,67.01467857,68.4375,0.541,0.307,0.757,0.14,0.163,0.164,1,0,0,0,1,1,0,0,1,0,1,0,[3.5623589],0.8597147,0.06501249,0.9247272,6.513502598
3/11/04,US-Goo,1.940470979,7.974468085,24.69282609,22.07659574,17.1587931,15.56185417,29.53325,295.5,319.48,301.26,297.66,293.94,302.06,1.585106383,1.702391304,0.909361702,71.99787234,34.06413043,88.77023404,44.73106897,0.434,0.402,0.721,0.15,0.104,0.148,1,0,0,0,1,0,0,1,1,0,1,0,[2.128867],0.3773772,0.032571875,0.4099491,0
9/6/02,US-Goo,4.24038412,25.1,15.4554878,31.90064583,25.37958333,15.47189583,15.83888889,299.98,296.12,318.98,299.98,294.52,294.74,1.143541667,0.86704878,4.970770833,79.36666667,69.81931707,44.89525,65.79735417,0.78,0.833,0.402,0.165,0.167,0.184,1,0,0,0,1,1,0,0,1,0,1,0,[4.7741294],0.72434056,0.18615127,0.9104918,5.299221516
4/29/18,US-Me2,1.513202728,4.5925,-0.358125,18.22402781,21.16127083,14.07439583,5.086458333,286.96,270.98,300.62,302.2,295.6,282.36,3.820205561,2.994157858,1.422374792,74.783875,83.9436875,70.3274305,56.59833333,0.632,0.343,0.759,0.105,0.196,0.204,1,0,0,1,0,0,1,0,0,0,1,1,[1.9252431],0.6166553,0.025993517,0.6426488,2.371570587
3/30/07,US-Me2,2.963984314,8.280666667,26.07520833,2.985217341,14.80611628,23.9,17.91955556,293.42,304.8,297.66,293.32,308.54,307.16,4.01,2.579653958,1.44866269,35.72388889,45.85791667,56.49309091,74.1325814,0.657,0.537,0.388,0.11,0.204,0.107,1,0,0,1,0,0,0,1,1,0,1,1,[2.2036834],0.40128067,0.10372821,0.5050089,0.3
4/25/06,US-SO2,1.798307261,9.370177778,17.944375,17.30784725,17.2335625,24.24569446,17.77145833,302.48,302.72,295.64,295.26,303.6,300.1,1.980111111,2.610307021,1.639145417,67.39602222,49.30791667,78.9594801,68.695,0.32,0.731,0.756,0.15,0.175,0.152,1,0,0,1,1,0,1,0,0,1,0,0,[2.2743688],0.5447691,0.15899332,0.7037624,0.821206152
4/17/06,US-SO2,1.948743519,6.069302326,18.62708333,23.40652174,20.58709677,24.16895833,23.04378261,288.36,307.42,300.52,297.02,302.58,299.92,4.202209302,5.502410167,1.698478261,80.68911628,48.388125,58.44782609,66.49032258,0.413,0.623,0.858,0.146,0.17,0.143,1,0,0,1,1,0,1,0,0,1,0,0,[2.241892],0.4910964,0.12565333,0.61674976,2.004034996
12/1/16,FR-Gri,1.317978827,3.22715,16.33960417,20.17959524,18.95204167,8.433166667,15.60035714,274.76,295.56,298.62,301.42,284.46,288.88,0.988781,3.78375,2.169428571,77.4988,49.15627083,66.10964286,75.17360417,0.566,0.785,0.878,0.132,0.158,0.149,1,0,1,0,0,1,1,0,0,0,0,1,[1.4847133],0.3618429,0.008976003,0.3708189,0
3/12/16,FR-Gri,4.139213751,8.093805909,11.45875,14.81147059,22.82083333,26.0520625,19.58196667,283.76,289.28,297.5,307.7,322.22,298.3,2.601222432,3.925416667,1.973046324,64.50701591,58.09910417,76.82617647,69.2625,0.648,0.713,0.324,0.183,0.108,0.107,1,0,1,0,0,0,0,1,1,0,0,1,[2.6069376],0.41092226,0.1139975,0.52491975,0.942932963
6/30/15,FR-Gri,4.979506769,23.91954545,18.556875,13.60810088,7.634200638,16.54292308,11.0785,304.84,303.64,294.8,292.94,286.88,296.66,1.930840886,3.159983917,1.6076591,46.75943182,59.94854167,59.32347336,53.03048936,0.555,0.705,0.547,0.195,0.161,0.183,1,0,1,0,0,0,1,1,0,0,0,1,[5.218594],4.9883018,0.29500073,5.2833023,0
9/5/15,US-A32,4.416959646,28.91041667,17.36479167,17.81875,23.35434783,28.6396383,15.874375,310.08,308.5,303.22,301.06,318.88,292.62,3.874291667,2.400625,2.666213458,62.81729167,47.63333333,64.631875,48.52173913,0.599,0.467,0.673,0.176,0.106,0.178,1,0,1,0,1,1,0,0,1,0,1,0,[4.7262387],0.9991001,0.022925831,1.022026,3.417196155
7/19/15,US-A32,8.902705507,30.57456522,29.38802857,8.056069767,5.563414634,17.33181818,11.12708333,309.42,314.16,290.8,285.22,297.2,290.92,3.409363043,2.275171429,2.306976744,61.92673913,49.46765714,76.31162791,62.4195122,0.728,0.572,0.507,0.187,0.115,0.179,1,0,1,0,1,0,1,1,1,0,1,0,[7.855362],2.9184656,0.24883118,3.167297,7.066847801
6/6/17,US-A32,9.258435321,29.67357143,21.99,14.15636111,16.95703707,7.921533333,14.68266667,308.36,302.4,296.96,297.68,286.32,293.92,3.008989286,1.225425,4.356777778,47.83714286,51.79025,48.54166667,81.96550607,0.432,0.586,0.623,0.179,0.208,0.174,1,0,1,0,1,0,1,1,0,0,1,0,[6.5017285],6.637232,0.22255161,6.8597836,8.636237621
7/27/15,US-A32,10.13303277,31.06684211,20.628,16.5458125,11.20479167,24.34038298,22.35064516,298.8,300.38,313,290.62,304.3,307.84,4.240807895,1.1165,1.670821388,60.21631579,67.74111111,49.7246875,75.60479167,0.727,0.793,0.398,0.184,0.159,0.106,1,0,1,0,1,0,1,1,1,0,1,0,[8.736278],2.9822683,0.15715957,3.139428,8.727685452
7/13/16,US-A74,8.923495812,30.45642857,19.520625,27.50045833,22.30565217,10.1394878,29.82420588,305.38,297.98,299.62,305.16,288.56,305.6,4.563852381,1.755833333,1.239166667,61.29071429,72.911875,86.886625,25.89128261,0.565,0.497,0.52,0.181,0.168,0.096,1,0,1,1,1,0,1,1,1,0,0,1,[6.7075176],7.1241574,0.21854278,7.3427,6.313183784
4/24/16,US-A74,6.164618859,20.21104167,11.78763636,17.54847619,33.95240426,21.7866087,7.205520833,298.34,282.46,297.08,305.2,299.86,279.1,7.5939625,2.537727273,1.527619048,66.06,68.51540909,37.5372381,63.7467234,0.58,0.285,0.789,0.161,0.103,0.167,1,0,1,1,1,0,1,0,0,0,0,1,[5.7429814],7.064043,0.18531847,7.2493615,6.348655701
10/17/16,US-A74,3.637072482,27.17833333,22.78545455,7.8125625,17.94445833,7.5906875,22.82458333,299.42,303.92,285.44,299.36,282.64,302,8.581602083,2.146409091,3.9023125,56.00895833,74.89590909,54.45291667,75.05208333,0.396,0.441,0.5,0.19,0.174,0.106,1,0,1,1,1,1,0,1,0,0,0,1,[4.864815],4.5182004,0.22553977,4.74374,4.51777029
6/19/16,US-A74,8.976984169,29.2,21.27222917,11.8916875,16.17642857,19.07479167,21.68145833,312.36,295.42,291.02,291.22,313.62,303.18,4.185616667,1.9645,0.617916667,65.51833333,82.42689583,65.31666667,72.97642857,0.535,0.715,0.814,0.164,0.104,0.139,1,0,1,1,1,0,1,1,0,0,0,1,[5.800555],7.389056,0.8769869,8.266043,4.761473656
3/31/16,US-A74,1.848297942,12.41215556,18.32151064,12.54241667,23.66775,14.73108108,21.73619149,296.56,298.06,291.72,303.36,296.32,296.08,6.482402222,5.234595745,1.839229167,51.63111111,75.98406383,70.16666667,61.11604167,0.335,0.526,0.768,0.199,0.154,0.109,1,0,1,1,1,0,0,1,1,0,0,1,[3.1688132],6.5126004,0.14580229,6.658403,2.241171837
3/15/16,US-A74,3.286406228,14.76782857,16.96811111,15.79234043,21.7725,20.30975,6.496875,295.48,295.02,296.66,307.54,303.22,301.62,7.723337143,2.663755556,2.371276596,46.58228571,73.06315556,74.28680851,52.19645833,0.297,0.739,0.161,0.19,0.161,0.189,1,0,1,1,1,0,0,1,1,0,0,1,[3.443564],6.5739374,0.033486925,6.6074243,1.945777774
9/12/12,US-Tw2,1.468991996,15.28789474,17.39297561,28.7121875,23.89956522,10.071875,30.284375,299.86,297.68,294.74,303.96,291.66,314.56,1.519894737,3.453170732,3.542395833,74.32210526,59.89597561,79.64625,42.00847826,0.652,0.596,0.445,0.187,0.173,0.154,1,1,0,0,0,1,0,0,1,0,0,1,[2.2857354],0.8586672,0.044468462,0.90313566,5.054592133
1/2/13,US-Tw2,1.441264705,8.364608696,28.02708333,17.05319149,19.21444444,17.83770833,22.81212766,281.82,297.66,298.58,311.9,300.02,304.2,1.197521739,1.1290625,2.204255319,61.56434783,80.501125,69.07021277,42.95315556,0.295,0.17,0.692,0.104,0.125,0.164,1,1,0,0,0,0,0,0,1,0,0,1,[2.0003977],1.2284005,0.04546372,1.2738642,0.3
3/23/13,US-Tw2,3.275905266,12.8750625,18.59483333,24.4661087,29.03208889,21.58409091,25.65957447,294.26,292.54,300.32,318.58,312.48,303,3.387458333,4.290933333,3.054152174,35.97689583,58.6387,54.47952174,53.40888889,0.48,0.603,0.559,0.159,0.163,0.189,1,1,0,0,0,0,0,1,1,0,0,1,[3.2734897],1.4418252,0.25311136,1.6949365,3.092366815
3/27/00,US-Pon,5.890720041,14.3775,26.58315625,20.53626316,22.11276596,19.104375,19.69036838,293.34,302.74,303.64,301.76,297.1,306.1,3.527272727,1.7250625,3.116763158,68.10454545,78.7706875,61.07813158,76.77234043,0.532,0.732,0.585,0.162,0.185,0.168,1,1,0,1,0,0,0,1,1,0,0,1,[3.666761],2.9475842,0.21326697,3.160851,4.104781151