Date,Site Id,LE_bowen_corr(mm),,TA,TA-1,TA-2,TA-3,TA-4,TA-5,EEflux LST,EEflux LST-1,EEflux LST-2,EEflux LST-3,EEflux LST-4,EEflux LST-5,WS,WS-1,WS-2,RH,RH-1,RH-2,RH-3,EEflux NDVI,EEflux NDVI-1,EEflux NDVI-2,EEflux Albedo,EEflux Albedo-1,EEflux Albedo-2,Site Id_1,Site Id_2,Site Id_3,Site Id_4,Site Id_5,Month_1,Month_2,Month_3,Month_4,Vegetation_1,Vegetation_2,Vegetation_3,LE_bowen_corr(mm)_predicted,Eeflux_ET
8/14/16,US-Tw3,3.23774752,37,0.727041261,0.732001074,0.695509056,0.63222804,0.673637089,0.641001814,0.688322718,0.753000923,0.648076092,0.681104034,0.683227176,0.691977692,0.272333799,0.305035026,0.341596765,0.367160811,0.359928006,0.434814269,0.537537256,0.619934283,0.483578709,0.707557503,0.885057471,0.890804598,0.890804598,1,0,0,0,1,1,0,0,0,0,0,1,4.0257063,2.671939373
5/5/14,US-Tw3,6.053713666,55,0.435547312,0.475259489,0.595740688,0.650718111,0.673684213,0.592196636,0.475583864,0.398430286,0.42153048,0.701910828,0.723566879,0.676533677,0.452571329,0.506703253,0.290353506,0.603366515,0.614851455,0.426572908,0.432723683,0.786418401,0.6398641,0.617743702,0.632183908,0.609195402,0.609195402,1,0,0,0,1,0,1,0,1,0,0,1,8.24312,5.752664566
8/28/18,US-Bi2,3.275556862,113,0.486513937,0.489468643,0.512909665,0.550834272,0.528376094,0.503229132,0.563481953,0.416897507,0.570687419,0.527813163,0.521868365,0.555126555,0.276727261,0.202468673,0.200548535,0.742251235,0.72070914,0.635215192,0.640877903,0.86966046,0.844847112,0.895947426,0.850574713,0.850574713,0.850574713,1,1,0,1,0,0,1,1,1,0,0,1,4.1427746,4.184374809
2/17/15,US-Tw3,1.737509232,136,0.351301739,0.505554714,0.497103176,0.480244548,0.532158461,0.394140987,0.321019108,0.372576177,0.29355815,0.438216561,0.357537155,0.424281424,0.368437958,0.12131778,0.097394553,0.888790648,0.673970471,0.66868069,0.692496769,0.626506024,0.865232163,0.752464403,0.689655172,0.689655172,0.695402299,1,0,0,0,1,0,0,1,0,0,0,1,3.02384,1.880277395
10/9/13,US-Tw3,2.54617823,235,0.496883009,0.523549196,0.476122897,0.501006787,0.587487175,0.5229375,0.48492569,0.561865189,0.447903156,0.615286624,0.560509554,0.512226512,0.309559422,0.126744274,0.044827621,0.425207676,0.411237106,0.480628102,0.33836422,0.489594743,0.468856172,0.381161008,0.959770115,0.959770115,0.942528736,1,0,0,0,1,1,0,1,0,0,0,1,2.6801958,2.790401697
9/15/13,US-Tw3,5.12199367,244,0.5706277,0.58455534,0.618349283,0.603159722,0.652754727,0.763961936,0.611889597,0.539242844,0.638564635,0.592781316,0.623779193,0.776919777,0.421210516,0.313121162,0.304307085,0.63697573,0.59662416,0.589834596,0.693396023,0.470974808,0.630804077,0.78203724,0.925287356,0.931034483,0.931034483,1,0,0,0,1,1,0,0,1,0,0,1,4.0839534,5.402234793
6/11/16,US-Tw3,4.801691268,254,0.627299826,0.570635912,0.539313353,0.545590031,0.640287244,0.688685737,0.589808917,0.686980609,0.59100735,0.677282378,0.716348195,0.821106821,0.364577788,0.540804629,0.512376205,0.374549572,0.424240357,0.586524501,0.672918445,0.636363636,0.586636467,0.569550931,0.827586207,0.82183908,0.82183908,1,0,0,0,1,0,1,1,0,0,0,1,4.644506,3.219891072
2/25/18,US-Bi2,3.705007355,266,0.220624134,0.149141781,0.111497489,0.155560941,0.149762443,0.104007529,0.393205945,0.218374885,0.215737138,0.34522293,0.326963907,0.321321321,0.243894647,0.266890407,0.398618103,0.602516573,0.677073,0.507667797,0.693475872,0.405257393,0.279728199,0.377875137,0.270114943,0.25862069,0.252873563,1,1,0,1,0,0,0,0,1,0,0,1,4.333593,2.429801941
7/29/13,US-Tw3,5.648999534,288,0.487474269,0.534848497,0.576138623,0.681436173,0.758061881,0.607339989,0.582590234,0.523084026,0.631647211,0.678556263,0.648832272,0.655083655,0.480100611,0.423380931,0.412066493,0.740864212,0.683695608,0.644422114,0.464801109,0.675794085,0.770101925,0.842278204,0.850574713,0.850574713,0.844827586,1,0,0,0,1,0,1,1,1,0,0,1,4.864004,5.456245899
7/20/18,US-Bi2,7.119470632,299,0.643832595,0.676566283,0.667362927,0.636062068,0.66447497,0.666604383,0.709129512,0.672668513,0.566796368,0.666242038,0.625477707,0.571857572,0.206084061,0.186139613,0.232118382,0.599247163,0.588769482,0.525009085,0.522350291,0.859802848,0.956964892,0.91347207,0.827586207,0.810344828,0.810344828,1,1,0,1,0,0,1,1,0,0,0,1,7.6798835,0
5/13/17,US-Tw3,6.145804639,317,0.382558341,0.391295737,0.42544186,0.572786877,0.56031224,0.48059503,0.58641189,0.608494922,0.573281453,0.766029724,0.602123142,0.663234663,0.324273061,0.423495704,0.451635459,0.575798145,0.640388542,0.744840404,0.558328209,0.800657174,0.89580974,0.73713034,0.74137931,0.74137931,0.724137931,1,0,0,0,1,0,1,0,1,0,0,1,6.380473,5.039705277
6/14/17,US-Tw3,7.319049991,332,0.641309371,0.553523204,0.464401201,0.414507887,0.501408092,0.585961624,0.741825902,0.789935365,0.602248163,0.654352442,0.672611465,0.808665809,0.289956909,0.250399273,0.192914095,0.452819858,0.571459701,0.633920792,0.586299473,0.764512596,0.798414496,0.587075575,0.752873563,0.775862069,0.775862069,1,0,0,0,1,0,1,1,0,0,0,1,7.5840626,3.754539848
9/23/16,US-Tw3,2.54716135,335,0.575965081,0.592489204,0.593811267,0.660786633,0.714224304,0.650981161,0.58895966,0.611726685,0.56204064,0.666242038,0.709978769,0.666237666,0.296416862,0.466740498,0.52816365,0.403515956,0.565963041,0.536737756,0.481655951,0.772179628,0.738391846,0.675794085,0.936781609,0.890804598,0.896551724,1,0,0,0,1,1,0,0,1,0,0,1,4.192244,2.165776253
4/14/15,US-Tw3,4.322760024,349,0.363113192,0.441613524,0.502368826,0.415078437,0.492977057,0.312666275,0.517622081,0.477839335,0.610462603,0.570700637,0.333757962,0.382668383,0.364897179,0.423704935,0.242213306,0.418470202,0.630509418,0.511089196,0.566397773,0.797371303,0.770101925,0.743702081,0.672413793,0.666666667,0.672413793,1,0,0,0,1,0,1,0,0,0,0,1,5.7592807,4.096755028
10/7/15,US-Tw3,3.450707471,350,0.605231026,0.574773403,0.544190332,0.552856049,0.574523286,0.612712826,0.609766454,0.473684211,0.58279291,0.481953291,0.647558386,0.624195624,0.128429032,0.200853164,0.153567172,0.645900123,0.649764617,0.643410697,0.566806042,0.812705367,0.714609287,0.762322015,0.873563218,0.873563218,0.879310345,1,0,0,0,1,1,0,1,0,0,0,1,4.1828547,2.037944555
10/17/13,US-Tw3,2.871938485,437,0.5281574,0.527337432,0.48031258,0.484364803,0.509788772,0.466079109,0.581316348,0.543859649,0.538261997,0.534607219,0.580467091,0.575718576,0.11812112,0.248699151,0.213320492,0.326251669,0.305151043,0.387350463,0.426904886,0.489594743,0.492638732,0.474260679,0.885057471,0.896551724,0.896551724,1,0,0,0,1,1,0,1,0,0,0,1,2.9441469,2.679741025
6/19/13,US-Tw3,7.884927657,449,0.521926955,0.488532648,0.557609869,0.591171267,0.594476646,0.655231043,0.620382166,0.610803324,0.638996974,0.695541401,0.6985138,0.734448734,0.368838077,0.616648437,0.597286771,0.513822762,0.602617867,0.545211235,0.458875363,0.668127054,0.870894677,0.590361446,0.74137931,0.764367816,0.764367816,1,0,0,0,1,0,1,1,0,0,0,1,6.544674,6.919080734
3/29/18,US-Bi2,4.504782339,455,0.492784339,0.436800413,0.387468172,0.289701166,0.248275996,0.253890634,0.526539278,0.55355494,0.383484652,0.398301486,0.354140127,0.460746461,0.11689842,0.100490642,0.217799298,0.616777872,0.63656372,0.519397123,0.51923135,0.438116101,0.363533409,0.412924425,0.436781609,0.436781609,0.442528736,1,1,0,1,0,0,0,1,0,0,0,1,4.60374,1.735111952
8/6/16,US-Tw3,2.41045227,458,0.550620503,0.544946682,0.509936317,0.65802323,0.663170152,0.590767156,0.697239915,0.499076639,0.549070471,0.627600849,0.653503185,0.651222651,0.301898673,0.53110649,0.582906459,0.619812161,0.625507945,0.635115367,0.501805065,0.562979189,0.591166478,0.726177437,0.908045977,0.913793103,0.91954023,1,0,0,0,1,1,0,0,0,0,0,1,2.4353573,1.52299583
1/27/16,US-Tw3,2.286688643,473,0.332350159,0.316507012,0.403296345,0.315344135,0.158943316,0.142913737,0.307006369,0.194367498,0.277993947,0.250530786,0.16985138,0.192621193,0.047959389,0.157942602,0.177571219,0.806889167,0.813954679,0.769063885,0.772597859,0.842278204,0.150622877,0.508214677,0.471264368,0.471264368,0.402298851,1,0,0,0,1,0,0,0,1,0,0,1,2.203299,1.181068659
1/18/13,US-Tw2,2.142858603,566,0.207037869,0.296219561,0.194337086,0.087705403,0.101290238,0.147496121,0.231422505,0.078024007,0.175529615,0.141825902,0.165180467,0.193050193,0.065242711,0.042720075,0.069960609,0.684221147,0.549316543,0.633395354,0.477484406,0.352683461,0.33182333,0.365826944,0.356321839,0.356321839,0.356321839,1,1,0,0,1,0,0,0,1,0,0,1,1.8271285,1.999269843
10/12/14,US-Tw3,5.795669062,655,0.654452735,0.578590771,0.552732891,0.606170925,0.714142948,0.652100182,0.591507431,0.594182825,0.512753999,0.632696391,0.66581741,0.710853711,0.373548935,0.139159044,0.30142839,0.241321888,0.586507564,0.60877811,0.497698028,0.704271632,0.88788222,0.755750274,0.787356322,0.775862069,0.770114943,1,0,0,0,1,1,0,1,0,0,0,1,4.8113785,7.697583199
9/2/17,US-Tw3,3.737294317,681,0.808603581,0.77235776,0.714978741,0.666133632,0.747102343,0.787083126,0.706157113,0.704524469,0.608300908,0.65477707,0.638641189,0.765336765,0.055888902,0.139879959,0.149892367,0.513508653,0.436943344,0.466565041,0.441211848,0.637458927,0.605889015,0.6516977,0.936781609,0.942528736,0.942528736,1,0,0,0,1,1,0,0,1,0,0,1,4.077205,2.493984938
12/31/14,US-Tw3,2.123192165,690,0.155222712,0.181960895,0.211619379,0.220288639,0.321440702,0.413235479,0.171974522,0.088642659,0.250756593,0.220806794,0.218683652,0.325611326,0.580215926,0.818238081,0.048841223,0.349536243,0.379251143,0.733595853,0.555981139,0.725082147,0.784824462,0.864184009,0.545977011,0.540229885,0.534482759,1,0,0,0,1,1,1,0,0,0,0,1,1.9127665,0
4/24/16,US-Tw3,4.258494831,696,0.433168451,0.40924613,0.517501897,0.559417553,0.628943988,0.539244309,0.501061571,0.558633426,0.602248163,0.639915074,0.699787686,0.62033462,0.523485046,0.220479559,0.216468712,0.634616228,0.656849486,0.449046706,0.428784477,0.792990142,0.749716874,0.811610077,0.75862069,0.770114943,0.764367816,1,0,0,0,1,0,1,0,0,0,0,1,5.7259336,1.69063592
7/13/13,US-Tw3,7.787669751,699,0.633990764,0.566932463,0.549644765,0.661532827,0.734392511,0.619240571,0.753715499,0.595106187,0.64461738,0.672611465,0.773248408,0.735735736,0.157440586,0.259057501,0.384765254,0.538703124,0.621440188,0.624602683,0.434439221,0.644030668,0.737259343,0.78094195,0.804597701,0.804597701,0.798850575,1,0,0,0,1,0,1,1,1,0,0,1,6.7829013,4.331280232
7/21/13,US-Tw3,8.150675112,729,0.607339989,0.645649662,0.645985496,0.630287524,0.631434792,0.487675123,0.629723992,0.657894737,0.646779075,0.742250531,0.653078556,0.587301587,0.352306702,0.284904455,0.243563568,0.585569873,0.568732745,0.555308474,0.558771007,0.723986857,0.80407701,0.798466594,0.844827586,0.83908046,0.83908046,1,0,0,0,1,0,1,1,1,0,0,1,6.5146856,7.919268131
11/13/17,US-Tw3,2.956285957,748,0.440532788,0.385005589,0.378750908,0.421653257,0.333158765,0.34356704,0.434819533,0.307479224,0.384781669,0.349469214,0.402123142,0.436293436,0.145877259,0.073506543,0.098321395,0.787525366,0.751074192,0.803355515,0.830393758,0.769989047,0.651189128,0.675794085,0.637931034,0.637931034,0.649425287,1,0,0,0,1,1,0,1,1,0,0,1,2.2260888,1.630309463
6/22/17,US-Tw3,4.562286834,787,0.856819529,0.782658401,0.791077185,0.853669688,0.93669965,0.803749798,0.814861996,0.716989843,0.862948552,0.703184713,0.768577495,0.858858859,0.398319354,0.263179772,0.270735624,0.345015733,0.501792864,0.511103714,0.395323572,0.725082147,0.790486976,0.830230011,0.764367816,0.775862069,0.764367816,1,0,0,0,1,0,1,1,0,0,0,1,7.7676215,3.399282932
8/2/17,US-Bi2,8.968870122,803,0.7365203,0.72092508,0.676408554,0.631221385,0.657064434,0.680821332,0.687898089,0.610803324,0.648508431,0.605095541,0.66581741,0.705276705,0.103376667,0.111246497,0.211476232,0.503858103,0.468189732,0.474503944,0.608803779,0.905805038,0.92412231,0.976998905,0.913793103,0.91954023,0.902298851,1,1,0,1,0,0,1,1,1,0,0,1,7.7309737,0
5/29/14,US-Tw3,9.310466247,829,0.576916034,0.54383629,0.600360323,0.67018209,0.726253641,0.646964658,0.757537155,0.595106187,0.730220493,0.807643312,0.778768577,0.503646504,0.296416209,0.380774961,0.468191194,0.295755241,0.344164144,0.327766112,0.343247093,0.863088719,0.764439411,0.78094195,0.735632184,0.74137931,0.752873563,1,0,0,0,1,0,1,0,1,0,0,1,8.82499,7.240914345
6/27/13,US-Tw3,6.767116207,830,0.846597415,0.666276868,0.700002587,0.621701029,0.616826563,0.521926955,0.821231423,0.618651893,0.767833982,0.715498938,0.744373673,0.645645646,0.324226802,0.263217083,0.36736071,0.364701297,0.662426801,0.35172558,0.435399826,0.456736035,0.576443941,0.495071194,0.701149425,0.695402299,0.712643678,1,0,0,0,1,0,1,1,0,0,0,1,7.071656,1.84282291
10/4/14,US-Tw3,4.633418268,861,0.625940057,0.627837833,0.586559819,0.610102869,0.610693799,0.567646278,0.661995754,0.587719298,0.60743623,0.569002123,0.554564756,0.589446589,0.045067098,0.065608201,0.100368481,0.463565841,0.437480733,0.397735406,0.298324354,0.670317634,0.698754247,0.760131435,0.752873563,0.752873563,0.770114943,1,0,0,0,1,1,0,1,0,0,0,1,4.548284,5.067423582
9/23/13,US-Tw3,4.341859292,897,0.577381405,0.473010966,0.544177778,0.615455734,0.651394883,0.564884539,0.582590234,0.411819021,0.568093385,0.676857749,0.61358811,0.612612613,0.111411805,0.177965443,0.363802737,0.639718489,0.730312769,0.616690397,0.456073397,0.600219058,0.585503964,0.754654984,0.862068966,0.879310345,0.890804598,1,0,0,0,1,1,0,0,1,0,0,1,4.424957,4.006462574
8/21/18,US-Bi2,3.170588427,909,0.462279684,0.595401157,0.662816545,0.64424058,0.657130464,0.531994746,0.562208068,0.63434903,0.645049719,0.692144374,0.601698514,0.614757615,0.338127677,0.081653371,0.12375977,0.794108135,0.554708398,0.452370897,0.510300387,0.860898138,0.911664779,0.895947426,0.873563218,0.879310345,0.879310345,1,1,0,1,0,0,1,1,1,0,0,1,4.4481893,4.14589119
9/10/17,US-Bi2,4.920970205,998,0.731225713,0.651454225,0.624217977,0.664157814,0.764713001,0.8931548,0.711677282,0.50923361,0.629053178,0.640764331,0.621656051,0.779493779,0.061326887,0.10840745,0.151187782,0.591437081,0.679386246,0.740981047,0.666677165,0.732749179,0.750849377,0.667031763,0.862068966,0.862068966,0.862068966,1,1,0,1,0,1,0,0,0,0,0,1,4.5981097,4.091136932
7/26/12,US-Tw2,4.814301254,1009,0.507741662,0.553958422,0.564834326,0.604673029,0.803885942,0.749991415,0.529087049,0.507848569,0.57846952,0.607643312,0.696390658,0.704847705,0.501735162,0.405109978,0.374797317,0.675113886,0.626100453,0.612930488,0.562792481,0.773274918,0.823329558,0.822562979,0.747126437,0.74137931,0.729885057,1,1,0,0,1,0,1,1,1,0,0,1,4.995693,5.262246132
4/9/13,US-Tw2,5.554629301,1013,0.463867683,0.381767487,0.406499581,0.425046429,0.496949841,0.463814457,0.450106157,0.302862419,0.415477735,0.445859873,0.533333333,0.407550408,0.718149551,0.754779736,0.51379085,0.279629805,0.398609008,0.684890967,0.712180082,0.661555312,0.730464326,0.456736035,0.666666667,0.643678161,0.643678161,1,1,0,0,1,0,1,0,0,0,0,1,6.564548,7.467412472
3/29/15,US-Tw3,5.024299596,1020,0.540129321,0.513081283,0.526053661,0.578515341,0.514239098,0.487788103,0.653503185,0.465835642,0.61997406,0.616135881,0.544373673,0.471471471,0.292335592,0.358402321,0.271487606,0.478539734,0.528776907,0.64667514,0.581389689,0.710843373,0.669309173,0.73932092,0.649425287,0.649425287,0.649425287,1,0,0,0,1,0,0,1,1,0,0,1,4.342911,3.172667384
8/14/13,US-Tw3,3.263464154,1021,0.682873533,0.653573028,0.624299573,0.601829066,0.601296063,0.536871725,0.735881104,0.604801477,0.719844358,0.616985138,0.654352442,0.670956671,0.323044573,0.157703766,0.263862533,0.427592741,0.482960654,0.516364054,0.590139473,0.600219058,0.62400906,0.542168675,0.867816092,0.867816092,0.867816092,1,0,0,0,1,1,0,0,0,0,0,1,3.9183824,2.707357168