Error Metrics,Testing,Validation
Average,3.9974869319230164,-
F1,0.9498919661425316,-
F2,0.921757750278822,-
F05,0.979797697799598,-
Precision,1.000803426006183,-
Recall,0.9039095545984812,-
R2,0.5123609991075695,-
Adjusted R2,0.5046494986283404,-
RMSE,1.4779327028670817,-
MSE,2.184285074203998,2.57
MAE,1.0958439612565132,1.18
MAPE,35.62403318313688,38.35
Accuracy,64.37596681686314,61.65
Pearson C.C.,0.7175570303018136,-
Spearman C.C.,0.7426401439349049,-
Spatial Distance,0.2824429696981866,-
NMI,1.0,-
AIC,20055.95,-
BIC,68029.09,-
Data Size,1093.0,-
Training Time (seconds),173.3045048713684,173.3045048713684
Testing Time (seconds),0.39826607704162603,0.398266077041626
