Error Metrics,Experiment 4`,Experiment 5,Experiment 6,Residual Analysis
mean target,5.132734944,0.6491458732690795,-1.5906232898,-0.3508541267309206
F1,1e-05,1e-05,1e-05,1e-05
F2,1e-05,1e-05,1e-05,1e-05
F05,1e-05,1e-05,1e-05,1e-05
Precision,1e-05,1e-05,1e-05,1e-05
Recall,1e-05,1e-05,1e-05,1e-05
R2,-1.4016662828808246,0.8638565699522169,0.8709048022614239,0.8638565699522172
Adjusted R2,1.208840546337463,1.0118385591345898,1.0112256693685722,1.0118385591345898
RMSE,2.730582256108676,0.17361896784893488,0.797447526624659,0.17361896784893482
MSE,7.456079457375544,0.030143545996929488,0.6359225577197862,0.03014354599692946
MAE,1.805172929,0.13222589857887834,0.7791240040000001,0.1322258985788783
MAPE,41.28984894687768,17.69571062164355,202.24935762550567,229.64094507088086
Accuracy,58.71015105312232,82.30428937835644,-102.24935762550571,-129.64094507088086
Pearson C.C.,0.6270660507540762,0.9976821003481536,0.9907518728654504,0.9976821003481536
Spearman C.C.,0.8207826816681233,0.8999999999999998,0.8999999999999998,0.8999999999999998
Spatial Distance,0.3729339492459239,0.0023178996518460337,0.009248127134549587,0.002317899651846256
NMI,0.9057460992755192,1.0,1.0,1.0
AIC,10.045148670816776,-17.50892220921903,-2.2633924382372785,-17.508922209219033
BIC,10.045148670816776,-17.50892220921903,-2.2633924382372785,-17.508922209219033
Data Size test,5.0,5.0,5.0,5.0
