Date,Site Id,LE_bowen_corr(mm),,Month_1,Month_2,Month_3,Month_4,Vegetation_1,Vegetation_2,Vegetation_3,WS,RH,TA,EEflux LST,EEflux LST-1,EEflux LST-2,EEflux LST-3,EEflux LST-4,EEflux LST-5,EEflux NDVI,EEflux NDVI-1,EEflux NDVI-2,EEflux NDVI-3,EEflux NDVI-4,EEflux NDVI-5,EEflux Albedo,EEflux Albedo-1,EEflux Albedo-2,EEflux Albedo-3,EEflux Albedo-4,EEflux Albedo-5,Site Id_1,Site Id_2,Site Id_3,Site Id_4,Site Id_5,RH-1,RH-2,RH-3,RH-4,RH-5,TA-1,TA-2,TA-3,TA-4,TA-5,WS-1,WS-2,WS-3,WS-4,WS-5,,LE_bowen_corr_mm(pred),Eeflux_ET
7/24/02,US-Wlr,5.902552562,67,0,1,1,1,0,1,0,2.470625,61.2375,25.1,309.8,310.68,313.74,310.72,309.62,305.42,0.53,0.593,0.63,0.578,0.66,0.426,0.181,0.183,0.183,0.183,0.184,0.181,0,0,1,1,0,53.55416667,58.54375,62.47291667,71.11914894,63.5547619,29.53958333,29.44791667,28.78125,26.85744681,27.60714286,4.766041667,3.92625,3.453541667,2.959148936,2.495238095,,4.1296787,5.442691803
9/17/02,US-Wlr,3.554450976,79,1,0,0,1,0,1,0,4.145833333,66.84791667,22.83541667,304.66,302.12,310.9,308.38,310.06,309.4,0.521,0.548,0.539,0.569,0.546,0.551,0.17,0.173,0.195,0.19,0.19,0.19,0,0,1,1,0,54.40740741,62.78695652,52.95833333,56.74318182,58.39111111,22.13333333,24.87391304,26.87291667,27.12045455,26.83333333,1.766666667,3.53173913,2.965625,2.046363636,2.584444444,,3.242293,3.316910744
8/12/03,US-Wlr,4.154651036,80,1,0,0,0,0,1,0,2.35212766,65.5,23.36382979,301.72,302.08,309.66,308.46,297.4,309.64,0.049,0.571,0.221,0.636,0.472,0.641,0.179,0.179,0.182,0.182,0.185,0.182,0,0,1,1,0,70.8225,70.38837209,57.9525,65.50444444,64.02765957,23.6675,25.24418605,27.455,25.30666667,27.55531915,2.38175,2.324186047,1.4305,1.683333333,2.134468085,,3.4485917,2.722238064
8/19/03,US-Wlr,3.258703904,88,1,0,0,0,0,1,0,3.672444444,53.40666667,30.26,315.88,311.64,311.5,307.9,301.72,302.08,0.556,0.593,0.585,0.301,0.049,0.571,0.183,0.183,0.183,0.182,0.179,0.179,0,0,1,1,0,53.52093023,57.80222222,70.07777778,65.5,70.8225,29.71627907,28.39111111,25.87111111,23.36382979,23.6675,2.891860465,1.942222222,1.852222222,2.35212766,2.38175,,4.741271,3.652558565
7/31/02,US-Wlr,5.810811948,102,0,1,1,1,0,1,0,3.425,67.74791667,27.51875,311.02,305.62,309.72,314.58,310.06,309.8,0.599,0.63,0.601,0.562,0.662,0.53,0.18,0.18,0.18,0.18,0.18,0.181,0,0,1,1,0,67.14285714,54.54042553,52.7212766,58.16,61.2375,26.47380952,30.02340426,30.34255319,28.25777778,25.1,2.564761905,5.706595745,4.730851064,3.738222222,2.470625,,5.646618,4.627296925
6/21/02,US-Wlr,7.052919839,105,0,1,1,0,0,1,0,3.574791667,71.65,25.64583333,301.2,305.04,302.06,301.76,301.06,303.54,0.733,0.769,0.724,0.705,0.772,0.744,0.174,0.17,0.17,0.169,0.169,0.17,0,0,1,1,0,71.55217391,67.39148936,67.01333333,70.82045455,76.44375,25.27173913,24.51489362,22.20888889,27.12045455,24.18541667,3.219347826,6.045957447,3.685555556,6.721590909,5.178333333,,8.3912,4.960549831
7/13/04,US-Wlr,8.045225999,108,0,1,1,1,0,1,0,2.066595745,70.11914894,27.87659574,310.2,302.84,306.8,297.34,302.48,300.76,0.661,0.733,0.747,0.69,0.774,0.692,0.176,0.176,0.172,0.171,0.167,0.168,0,0,1,1,0,68.18723404,73.58541667,78.70833333,73.37659574,78.14615385,27.59574468,27.0625,25.37291667,22.92553191,25.52307692,3.440212766,3.962083333,3.544375,3.635106383,2.74025641,,6.9514914,0
7/25/11,US-Kon,6.376432062,113,0,1,1,1,0,1,0,2.513581395,71.62783721,30.11169767,303.56,314.42,309.5,314.86,310,310.3,0.753,0.641,0.672,0.67,0.653,0.644,0.189,0.194,0.194,0.195,0.195,0.194,0,1,0,0,0,57.64362162,48.51461702,50.76355319,52.72565909,52.44334043,34.04510811,35.64844681,34.91157447,34.63540909,34.33019149,3.797702703,4.275553191,4.489021277,4.88375,5.153744681,,4.835332,0
9/10/11,US-Kon,4.040974633,114,1,0,0,1,0,1,0,2.406088235,64.02638235,23.9635,302.4,305.94,306.56,304.42,303.86,309.18,0.571,0.557,0.6,0.575,0.64,0.607,0.184,0.185,0.188,0.187,0.186,0.187,0,1,0,0,0,42.62380851,33.17937778,47.02197727,64.37088095,69.35676087,33.01676596,35.46357778,32.50093182,30.0702619,28.62213043,5.542170213,7.155977778,3.616204545,3.513857143,3.61076087,,3.731138,42.63781738
9/7/10,US-Kon,3.102659334,127,1,0,0,1,0,1,0,1.371289474,56.32647368,22.455,304.28,306.4,301.56,299.26,302.96,307.22,0.566,0.631,0.642,0.673,0.695,0.651,0.177,0.179,0.18,0.185,0.184,0.184,0,1,0,0,0,49.68183333,76.49310526,62.82939583,52.57672917,59.17627083,25.9442619,29.33465789,28.14395833,25.93504167,24.38464583,7.207261905,6.099763158,5.718395833,4.817041667,3.726895833,,4.38563,3.633714437
9/11/11,US-Kon,2.464669297,134,1,0,0,1,0,1,0,1.814148936,68.05019149,24.36574468,305.04,302.4,305.94,306.56,304.42,303.86,0.621,0.571,0.557,0.6,0.575,0.64,0.182,0.184,0.185,0.188,0.187,0.186,0,1,0,0,0,64.02638235,42.62380851,33.17937778,47.02197727,64.37088095,23.9635,33.01676596,35.46357778,32.50093182,30.0702619,2.406088235,5.542170213,7.155977778,3.616204545,3.513857143,,4.510851,0
8/30/10,US-Kon,5.152581512,136,1,0,0,0,0,1,0,6.099763158,76.49310526,29.33465789,302.96,307.22,303.74,304.9,303.36,302.34,0.695,0.651,0.682,0.709,0.677,0.724,0.184,0.184,0.184,0.185,0.185,0.185,0,1,0,0,0,62.82939583,52.57672917,59.17627083,61.11604167,58.44916667,28.14395833,25.93504167,24.38464583,23.66775,22.903625,5.718395833,4.817041667,3.726895833,2.473479167,1.650416667,,5.3764625,3.174283743
7/22/10,US-Kon,8.353320115,144,0,1,1,1,0,1,0,6.577833333,69.92280952,31.95521429,303.76,296.18,301.18,304.22,306.72,302.86,0.806,0.738,0.794,0.773,0.799,0.701,0.193,0.194,0.194,0.195,0.193,0.193,0,1,0,0,0,74.06676087,77.76457143,72.40552083,75.13629167,78.57465217,29.01632609,30.26814286,32.19575,32.05352083,29.87606522,4.533869565,4.377085714,3.3951875,3.16325,2.346608696,,8.520784,0
8/14/10,US-Kon,8.14149763,152,1,0,0,0,0,1,0,1.893314286,74.82754286,30.82597143,301.1,310.18,308.02,309,305.2,308.8,0.716,0.68,0.688,0.684,0.643,0.684,0.187,0.188,0.188,0.189,0.192,0.192,0,1,0,0,0,66.93112821,60.828125,63.99455556,63.7467234,67.21942222,31.98458974,33.65785417,32.92077778,33.95240426,33.85431111,4.052,3.592020833,3.995533333,4.174829787,4.857355556,,6.091834,6.644123077
8/12/09,US-Kon,6.229483122,155,1,0,0,0,0,1,0,2.759145833,59.03254167,26.80589583,307.16,301.68,304.2,307.68,303.98,302.36,0.774,0.794,0.779,0.797,0.775,0.817,0.198,0.198,0.198,0.198,0.198,0.197,0,1,0,0,0,68.52552174,65.86671739,55.23170213,61.20472917,61.96645455,25.9118913,28.95097826,32.00148936,30.46683333,27.74770455,1.554521739,5.193630435,7.715234043,7.3061875,3.177136364,,6.9887557,0
8/14/07,US-Kon,5.098286908,157,1,0,0,0,0,1,0,4.4169375,44.46852083,32.81458333,315.34,309.78,312.58,310.8,308.8,305.34,0.609,0.642,0.687,0.705,0.675,0.739,0.181,0.181,0.179,0.179,0.179,0.18,0,1,0,0,0,47.84957447,53.88702128,58.2473125,66.29948936,60.82413043,33.27329787,33.26789362,31.02597917,30.2497234,31.99836957,3.451276596,3.327319149,4.2039375,2.45,4.753782609,,3.8897798,0
5/7/09,US-Kon,9.045646742,172,0,1,0,1,0,1,0,4.283636364,63.01786364,23.53054545,299.8,306.6,302.36,292.56,293.74,290.8,0.564,0.411,0.269,0.277,0.255,0.234,0.15,0.141,0.159,0.159,0.158,0.167,0,1,0,0,0,65.7955,62.85725532,66.74797826,71.85941667,75.50508696,24.42027083,24.14657447,23.3698913,23.23416667,23.04378261,1.9530625,2.091702128,3.260869565,3.083895833,5.634630435,,4.721299,2.288043499
8/15/07,US-Kon,4.995072033,174,1,0,0,0,0,1,0,4.768790698,38.66569767,33.2257907,314.2,315.34,309.78,312.58,310.8,308.8,0.663,0.609,0.642,0.687,0.705,0.675,0.181,0.181,0.181,0.179,0.179,0.179,0,1,0,0,0,44.46852083,47.84957447,53.88702128,58.2473125,66.29948936,32.81458333,33.27329787,33.26789362,31.02597917,30.2497234,4.4169375,3.451276596,3.327319149,4.2039375,2.45,,3.6593819,0
7/13/10,US-Kon,6.759469912,178,0,1,1,1,0,1,0,4.830326087,80.1661087,29.79671739,301.12,302.18,303.24,296.72,301.64,304.8,0.798,0.793,0.76,0.822,0.79,0.776,0.194,0.193,0.193,0.191,0.191,0.195,0,1,0,0,0,73.9656383,65.12363043,76.8208913,70.42358696,65.21197826,29.08538298,27.14793478,27.54426087,27.02356522,25.73013043,3.826170213,3.038326087,2.250217391,5.460695652,4.668804348,,7.866674,4.837939739
7/7/08,US-Kon,8.424483784,184,0,1,1,1,0,1,0,5.416478261,59.60693478,29.51536957,302.24,304.74,299.72,302.82,301.04,304.12,0.782,0.762,0.751,0.759,0.727,0.811,0.193,0.193,0.191,0.184,0.184,0.185,0,1,0,0,0,56.92697917,57.63215909,61.1979375,66.79834091,66.4003125,26.72841667,22.778,22.21745833,26.20238636,29.2268125,5.036979167,1.589636364,3.387166667,3.550931818,5.433854167,,7.9347377,5.471085072
6/24/09,US-Kon,8.707195394,185,0,1,1,0,0,1,0,4.32635,70.772825,29.6901,302.56,308.8,305.06,304.44,297.26,302.48,0.829,0.837,0.828,0.859,0.708,0.826,0.199,0.196,0.196,0.195,0.191,0.188,0,1,0,0,0,66.94314583,70.97102174,71.40145652,66.14084444,75.44716667,31.95725,31.88715217,30.38226087,30.70446667,30.10783333,3.464708333,4.424086957,5.488717391,6.034666667,5.274729167,,8.294013,6.281275272
6/21/08,US-Kon,7.247074468,190,0,1,1,0,0,1,0,1.864382979,61.8603617,23.87068085,301.6,302.68,305.68,305.6,304.06,298.14,0.788,0.755,0.713,0.757,0.43,0.694,0.182,0.183,0.164,0.164,0.163,0.165,0,1,0,0,0,57.16271429,60.03522917,48.60008333,60.04745652,64.81337778,25.2072,25.78339583,26.30522917,27.65015217,26.46844444,1.673114286,2.427645833,1.655229167,5.616608696,4.955488889,,7.2580853,5.801305294
9/8/07,US-Kon,3.131629603,191,1,0,0,1,0,1,0,2.126583333,69.60566667,23.48422917,304.04,301.04,306.8,308.86,308.76,308.78,0.624,0.646,0.581,0.609,0.676,0.606,0.179,0.179,0.182,0.181,0.181,0.181,0,1,0,0,0,50.60625,55.40239583,42.152,46.04938298,48.11214583,25.0504375,27.23914583,26.6540625,25.64804255,24.58470833,2.705791667,3.0415625,2.9909375,2.433574468,2.9043125,,4.5764008,0
8/1/11,US-Kon,5.387396386,195,1,0,0,0,0,1,0,3.908354167,49.8745625,35.26758333,309.34,313.74,310.06,308.7,303.56,314.42,0.691,0.732,0.727,0.693,0.753,0.641,0.181,0.188,0.188,0.188,0.189,0.194,0,1,0,0,0,73.78002128,48.94621429,65.1839375,71.62783721,57.64362162,33.16778723,34.71954762,32.22820833,30.11169767,34.04510811,3.046617021,6.582452381,3.8396875,2.513581395,3.797702703,,8.234628,6.037320614
7/5/07,US-Kon,6.615248619,201,0,1,1,1,0,1,0,2.022354167,62.09891667,27.37870833,301.34,304.4,302.28,304.42,299.66,295.02,0.699,0.834,0.814,0.765,0.792,0.693,0.199,0.186,0.186,0.181,0.181,0.181,0,1,0,0,0,65.87658333,73.55108889,57.60604167,52.423,68.9437234,26.06025,26.04288889,22.10252083,26.23102128,22.22521277,2.494729167,3.253511111,3.760520833,7.967702128,2.917978723,,7.7707877,58.01512527
6/22/11,US-Kon,3.345811312,206,0,1,1,0,0,1,0,4.340909091,75.62921212,21.80954545,301.86,301.7,302.34,302.78,307.2,302.74,0.804,0.784,0.843,0.794,0.802,0.817,0.192,0.193,0.193,0.193,0.201,0.192,0,1,0,0,0,75.77664516,86.20465,74.4130303,65.06448276,71.3975,30.88345161,25.717025,28.89490909,31.75448276,23.15491176,5.463129032,2.50925,3.532151515,5.249931034,3.581264706,,6.3592634,9.56253624
8/6/10,US-Kon,5.887187965,218,1,0,0,0,0,1,0,2.356978723,75.02525532,28.03823404,302.86,298.26,307.94,309.26,297.86,305.42,0.782,0.702,0.749,0.765,0.729,0.719,0.197,0.197,0.199,0.2,0.198,0.196,0,1,0,0,0,74.71079167,56.97259091,66.38878571,78.70147917,77.52722727,28.31622917,33.41854545,32.98878571,29.59264583,31.03222727,1.866833333,3.695022727,5.138714286,1.898333333,3.594840909,,6.3567123,5.12844944
8/22/16,US-A74,1.943986165,223,1,0,0,0,0,0,1,3.488426471,46.64411765,27.88882353,310.24,305.8,301.4,307.86,302.7,310.6,0.48,0.627,0.472,0.567,0.479,0.54,0.178,0.18,0.18,0.18,0.18,0.18,1,0,0,1,0,35.691875,69.99459459,69.75825,69.20302326,56.689375,27.3475,23.4072973,26.9015,26.87465116,28.6415625,1.9500875,4.090262162,4.125645,2.658569767,2.60025,,6.870162,2.368723631
7/5/16,US-A74,9.804876102,233,0,1,1,1,0,0,1,3.914921951,67.62243902,30.2102439,313.04,309.06,304.68,313.14,316.86,321.08,0.77,0.533,0.462,0.459,0.463,0.604,0.184,0.176,0.178,0.174,0.167,0.167,1,0,0,1,0,64.5264,64.78680851,68.17829268,49.36622222,44.99542857,29.6044,28.58170213,28.05292683,31.63333333,32.02342857,3.4715,4.449085106,3.5082,5.148142222,4.0804,,8.693025,6.973700523
7/21/16,US-A74,10.69347052,235,0,1,1,1,0,0,1,3.588785366,54.88268293,31.8297561,315.04,306.48,305.58,305.72,304.64,305.38,0.475,0.573,0.647,0.739,0.545,0.565,0.188,0.19,0.189,0.188,0.183,0.181,1,0,0,1,0,64.12957447,62.55384615,64.03458333,64.5716,61.29071429,30.29765957,30.14205128,29.12979167,28.4864,30.45642857,3.518359574,3.673546154,4.451585417,2.464436,4.563852381,,8.376735,8.918518066
6/19/16,US-A74,8.976984169,244,0,1,1,0,0,0,1,4.185616667,65.51833333,29.2,312.36,318.78,315.32,315.42,315.76,316.44,0.535,0.399,0.444,0.474,0.388,0.402,0.164,0.165,0.164,0.164,0.163,0.167,1,0,0,1,0,63.85479167,57.50130435,58.89194444,60.83219512,64.51289474,31.11208333,30.78608696,32.55583333,28.85,27.79973684,3.33774375,4.109843478,4.447986111,3.926946341,3.845502632,,6.338379,4.761473656
7/3/18,DE-RuS,4.882310475,253,0,1,1,1,0,0,1,0.832451945,42.90265262,23.06206,306.84,306.1,302.9,307.44,305.64,302.8,0.505,0.592,0.478,0.645,0.635,0.577,0.206,0.206,0.205,0.202,0.203,0.206,1,0,0,0,0,50.92554083,50.32895355,51.87079808,53.35150536,63.4574168,23.74539872,22.94117955,21.90899634,22.15698971,23.25934524,1.394578154,1.74831125,1.866068537,2.025049588,0.986696286,,6.2501645,3.750447243
9/2/17,US-Tw3,3.737294317,267,1,0,0,1,0,0,1,1.214358022,54.1476087,27.60652174,307.28,308.22,303,304.86,304.1,308.82,0.572,0.555,0.585,0.519,0.51,0.521,0.205,0.206,0.206,0.206,0.206,0.207,1,0,0,0,1,48.26581395,50.81625,48.63333333,52.17541667,48.69511111,26.31511628,24.49895833,22.87770833,23.88833333,26.89222222,1.87226907,1.968752396,4.344314208,4.44703225,2.316465467,,4.1776223,2.493984938
5/21/17,US-Tw3,8.136472268,277,0,1,0,1,0,0,1,1.799206479,55.06708333,22.7475,313.96,310.3,311,305.74,304.06,303.08,0.791,0.614,0.814,0.676,0.788,0.715,0.176,0.177,0.176,0.175,0.174,0.172,1,0,0,0,1,51.28979167,59.84395833,48.81583333,48.68604167,42.00847826,22.184375,23.86375,24.186875,22.236875,23.89956522,1.900218188,2.046625604,4.073298188,4.408249417,1.48923513,,7.1655335,7.544161797
8/14/16,US-Tw3,3.23774752,296,1,0,0,0,0,0,1,3.176655444,42.45333333,24.89933333,306.44,310.32,304.84,306.1,306.2,305.4,0.556,0.447,0.636,0.543,0.465,0.532,0.196,0.197,0.197,0.198,0.198,0.2,1,0,0,0,1,41.63477273,48.0825,56.92697674,54.41708333,51.59318182,24.98022727,23.85272727,21.75232558,22.04354167,22.26613636,3.463765227,3.816087864,4.080776163,2.7296545,3.239847341,,4.181829,2.671939373
6/19/16,US-Tw3,6.768181195,297,0,1,1,0,0,0,1,2.317783681,45.01680851,22.35659574,310.9,303.76,304.34,300.54,303.24,310.66,0.597,0.655,0.649,0.58,0.633,0.568,0.187,0.186,0.183,0.183,0.186,0.187,1,0,0,0,1,44.07375,37.67,51.36574468,49.250625,45.31541667,23.62625,26.71916667,23.33914894,23.05416667,25.03166667,5.043263958,2.056832292,2.451785426,2.719962354,2.498002146,,6.5060873,2.919791103
6/17/15,US-Tw3,7.737253239,303,0,1,1,0,0,0,1,2.565778854,49.56354167,22.55354167,303.42,305.42,305.32,302.42,308.38,310.88,0.661,0.718,0.676,0.656,0.718,0.547,0.172,0.172,0.172,0.173,0.172,0.173,1,0,0,0,1,57.23208333,47.18645833,60.86770833,52.0027027,57.95541667,21.71541667,25.85145833,23.6575,24.87621622,22.91791667,4.664979083,3.316999167,3.908093167,2.117219757,3.112204521,,7.183477,7.79499054
6/27/16,US-Tw3,8.452944301,315,0,1,1,0,0,0,1,3.563278957,37.57,26.79869565,306.64,310.6,305.48,305.1,307.12,306.36,0.64,0.716,0.655,0.704,0.666,0.679,0.189,0.188,0.188,0.187,0.185,0.186,1,0,0,0,1,38.89680851,39.07625,49.97270833,44.77104167,43.204375,26.39574468,25.59583333,22.39104167,21.79166667,22.403125,2.87652083,2.912526771,3.812976292,4.899672917,4.019841021,,7.9748883,6.487117767
5/21/14,US-Tw3,7.65823055,316,0,1,0,1,0,0,1,3.741717808,47.62884615,22.28615385,305.7,315.08,307.92,304.14,302.78,303.02,0.581,0.603,0.635,0.595,0.636,0.556,0.175,0.166,0.165,0.163,0.164,0.163,1,0,0,0,1,47.9025,41.95854167,47.245,47.86979167,51.53104167,22.36604167,26.12479167,24.77270833,23.9,22.31958333,2.05521525,3.133695646,1.83852475,1.164326687,2.405255542,,7.0232134,4.007306099
10/31/15,US-Tw3,4.03002476,319,1,0,1,0,0,0,1,2.387791517,52.11241379,22.20517241,300.32,301.16,296.4,301.62,299.14,298.24,0.629,0.679,0.668,0.738,0.79,0.612,0.172,0.174,0.175,0.181,0.181,0.185,1,0,0,0,1,37.80357143,32.50884615,49.72176471,50.07,35.37145833,22.75571429,22.21730769,24.36529412,22.00777778,25.30979167,1.682740929,5.364658885,1.042289118,1.743774444,2.5003935,,4.4886923,4.050058842
6/25/15,US-Tw3,13.48166339,322,0,1,1,0,0,0,1,3.050360379,34.28241379,29.96827586,304.44,303.9,303.52,308.64,303.78,303.42,0.68,0.676,0.682,0.688,0.737,0.661,0.176,0.171,0.172,0.171,0.172,0.172,1,0,0,0,1,39.86229167,49.56354167,57.23208333,47.18645833,60.86770833,22.46125,22.55354167,21.71541667,25.85145833,23.6575,4.011117208,2.565778854,4.664979083,3.316999167,3.908093167,,8.4166355,7.52579546
6/30/14,US-Tw3,6.142380362,330,0,1,1,0,0,0,1,3.275584585,44.21853659,25.28853659,308.58,303.72,306.1,300.66,302.92,301.6,0.617,0.705,0.599,0.566,0.557,0.513,0.179,0.179,0.176,0.179,0.178,0.179,1,0,0,0,1,47.14458333,55.56833333,41.87020833,52.19645833,39.99375,24.72875,21.80291667,23.52708333,21.7725,23.13354167,2.649856812,4.457069792,5.558529458,3.47734375,4.049085417,,7.8641577,5.730061054
8/14/13,US-Tw3,3.263464154,331,1,0,0,0,0,0,1,3.636401188,47.28229167,23.43333333,308.68,303.9,308.16,303.08,304.84,304.42,0.538,0.571,0.485,0.555,0.564,0.507,0.193,0.193,0.193,0.193,0.192,0.194,1,0,0,0,1,52.22791667,50.664375,46.265625,59.61291667,58.45708333,22.38604167,23.385625,24.2275,22.12395833,22.20895833,2.044025958,4.532218042,4.338186729,3.2697795,2.871403208,,4.231579,2.707357168
8/1/14,US-Tw3,2.761046446,332,1,0,0,0,0,0,1,3.776294286,45.77690476,25.05452381,310.62,304.98,307.3,304.8,310.68,308.84,0.431,0.625,0.461,0.651,0.726,0.811,0.199,0.195,0.199,0.197,0.194,0.196,1,0,0,0,1,48.21770833,52.39238095,46.12565217,45.584,49.36146341,24.91604167,24.10214286,24.96065217,25.20225,24.37634146,3.857318313,2.91503681,3.26358687,2.088608375,1.516410195,,3.9750838,0
5/26/11,US-Skr,3.986501598,351,0,1,0,1,1,0,1,1.824333333,81.18414583,25.216125,295.02,301.6,302.52,299.94,302.98,299.78,0.65,0.697,0.784,0.903,0.82,0.679,0.087,0.083,0.084,0.082,0.083,0.095,1,1,0,0,0,74.06570833,82.4864375,81.9366087,75.38421277,68.67241667,26.78708333,25.75270833,26.14252174,25.22751064,24.91033333,1.816541667,1.5305625,1.493043478,1.652170213,2.381104167,,5.211034,3.196647406
6/21/09,US-Skr,6.904969219,364,0,1,1,0,1,0,1,2.154354167,79.4795625,28.76016667,298.62,297.08,300.72,297.2,301.76,301.66,0.684,0.71,0.112,0.61,0.901,0.776,0.114,0.113,0.107,0.107,0.109,0.11,1,1,0,0,0,80.67810417,83.36122917,74.05096875,79.31822727,78.987625,28.29614583,26.79325,27.2520625,27.07036364,28.46352083,1.5530625,1.410208333,2.91075,2.534568182,1.08925,,6.647929,4.991215706
5/7/07,US-Skr,6.50568185,370,0,1,0,1,1,0,1,3.413854167,73.02908333,22.50427083,292.4,301.68,299.42,301.56,299.46,298.96,0.125,0.699,0.899,0.827,0.697,0.693,0.081,0.081,0.08,0.086,0.094,0.094,1,1,0,0,0,82.92616667,85.750875,84.0673125,86.62338298,85.056875,24.93114583,24.86841667,25.47533333,25.17276596,25.3230625,2.1470625,1.67825,1.593104167,1.322212766,1.3866875,,5.272134,10.05272293
5/10/11,US-Skr,4.745159587,381,0,1,0,1,1,0,1,1.644833333,75.441625,26.29347917,302.22,299.12,300.88,295.92,302.38,298.3,0.729,0.867,0.586,0.29,0.778,0.592,0.106,0.108,0.109,0.109,0.11,0.109,1,1,0,0,0,69.25229167,73.13522917,74.35860417,75.25716667,74.36189583,26.72504167,25.78564583,24.79235417,25.16677083,25.35660417,2.0141875,1.752166667,1.555,2.437479167,3.035041667,,5.688981,6.595211506
6/3/11,US-Skr,6.829325473,394,0,1,1,0,1,0,1,2.601,69.504,25.88840426,295.9,302.72,298.36,297.94,295.02,301.6,0.34,0.638,0.707,0.502,0.65,0.697,0.089,0.089,0.089,0.086,0.087,0.083,1,1,0,0,0,70.70479167,71.77761702,77.6079375,81.18414583,74.06570833,25.76760417,26.10897872,26.15795833,25.216125,26.78708333,2.274166667,2.606234043,1.6406875,1.824333333,1.816541667,,5.6983557,44.98263931
6/19/11,US-Skr,4.913398387,395,0,1,1,0,1,0,1,1.538020833,81.46575,27.10372917,298.12,300.1,303.12,300.66,302.44,297.24,0.605,0.806,0.747,0.847,0.792,0.514,0.108,0.108,0.107,0.107,0.106,0.106,1,1,0,0,0,77.5386875,68.41645833,81.26466667,82.70575,82.57641667,28.23904167,27.67452083,27.71191667,26.79366667,26.83172917,1.63575,1.686875,1.78725,1.665625,1.311041667,,6.5480385,0
9/4/07,US-Skr,6.12873842,407,1,0,0,1,1,0,1,1.563270833,79.30247917,28.18133333,298.14,295.44,302.98,299.82,301.4,299.62,0.316,0.573,0.864,0.86,0.808,0.54,0.091,0.092,0.092,0.09,0.091,0.091,1,1,0,0,0,82.52133333,85.81985417,81.347875,78.06285417,78.43083333,27.49085417,27.332125,27.93475,27.99541667,28.2150625,1.414375,1.232395833,1.352770833,1.3069375,1.652395833,,5.8309073,5.912825584
5/17/11,US-Skr,4.853543737,418,0,1,0,1,1,0,1,2.381104167,68.67241667,24.91033333,299.78,296.26,298.16,296.68,302.8,300.36,0.679,0.341,0.425,1,0.646,0.877,0.095,0.093,0.096,0.099,0.097,0.105,1,1,0,0,0,70.1694375,75.27283333,79.69585417,82.07114583,75.89669565,24.42422917,25.641125,24.41066667,25.17304167,25.73034783,2.338604167,2.0015625,1.659208333,1.894020833,1.867891304,,5.6215734,0
7/10/07,US-Skr,7.429746171,448,0,1,1,1,1,0,1,2.323895833,79.094125,28.78935417,296.94,301.88,298.64,299.04,300.02,292.4,0.795,0.538,0.74,0.736,0.795,0.125,0.111,0.111,0.108,0.079,0.081,0.081,1,1,0,0,0,80.45216667,88.70722917,81.89966667,83.3764375,73.02908333,28.30247917,27.07260417,24.84359259,25.37710417,22.50427083,1.914958333,0.890791667,3.081444444,1.7741875,3.413854167,,5.917683,7.74359417
7/29/11,US-Skr,6.297632188,467,0,1,1,1,1,0,1,2.7525,66.72418182,30.42768182,301.04,302.32,302.58,296.82,303.34,297.56,0.201,0.888,0.134,0.612,0.839,0.602,0.119,0.121,0.121,0.121,0.121,0.12,1,1,0,0,0,82.544875,80.55133333,81.22560417,79.37060417,86.681,27.30160417,28.11829167,27.83439583,28.0130625,27.16835294,1.411833333,1.168958333,1.31075,1.4633125,0.609117647,,6.532439,5.434948444
8/14/11,US-Skr,5.097941004,472,1,0,0,0,1,0,1,1.48875,81.3115,28.1418125,303.46,299.94,298.08,298.08,302.86,296.48,0.842,0.713,0.397,0.792,0.501,0.607,0.108,0.122,0.129,0.124,0.123,0.119,1,1,0,0,0,81.02366667,83.70360417,88.55866667,83.71582979,74.65145833,27.3536875,28.05597917,27.61952083,28.0846383,29.00685417,1.510270833,1.26425,1.546229167,1.404234043,2.173270833,,5.77236,0
7/13/11,US-Skr,5.200556547,474,0,1,1,1,1,0,1,1.4633125,79.37060417,28.0130625,303.34,297.56,298.12,300.1,303.12,300.66,0.839,0.602,0.605,0.806,0.747,0.847,0.121,0.12,0.108,0.108,0.107,0.107,1,1,0,0,0,86.681,81.46575,77.5386875,68.41645833,81.26466667,27.16835294,27.10372917,28.23904167,27.67452083,27.71191667,0.609117647,1.538020833,1.63575,1.686875,1.78725,,6.1984076,0
7/24/03,US-Goo,5.735475847,485,0,1,1,1,0,1,0,1.037234043,76.77234043,22.11276596,301.76,297.84,300.94,306.06,297.98,304.86,0.834,0.758,0.792,0.669,0.785,0.78,0.158,0.159,0.16,0.174,0.174,0.169,0,1,0,1,1,80.86595745,83.10416667,86.87502083,83.889625,80.81914894,23.06595745,28.63333333,27.40422917,27.1875,26.65744681,1.654680851,1.809583333,1.11125,1.481041667,1.38106383,,5.836165,4.152947426
8/18/04,US-Goo,5.117146144,488,1,0,0,0,0,1,0,0.993541667,80.03958333,24.15208333,304.44,300.14,300.88,300.48,299.06,296.22,0.796,0.789,0.825,0.788,0.82,0.911,0.166,0.166,0.166,0.166,0.161,0.161,0,1,0,1,1,92.61538462,85.73695652,80.61877083,76.78958333,85.17234043,23.06666667,24.59130435,23.1541875,22.14166667,25.5,1.058974359,0.680869565,1.156041667,1.97125,0.526808511,,4.9404006,5.175475121
7/10/04,US-Goo,5.742052775,502,0,1,1,1,0,1,0,1.065208333,85.81458333,25.53958333,301.48,303.02,299.04,305.66,301.9,302.2,0.766,0.805,0.431,0.786,0.691,0.639,0.192,0.158,0.167,0.167,0.167,0.167,0,1,0,1,1,84.46808511,91.04090909,79.51875,80.66254167,80.91276596,27.54042553,25.3,27.2479375,27.55833333,27.14255319,1.432978723,1.915227273,1.959375,1.396875,1.477446809,,5.566679,0
8/29/02,US-Goo,4.462506404,506,1,0,0,0,0,1,0,1.281875,84.125,23.9,304.26,300.66,299.08,303.2,304.44,300.06,0.772,0.81,0.784,0.796,0.784,0.808,0.157,0.157,0.153,0.153,0.153,0.148,0,1,0,1,1,82.48333333,82.70416667,84.80833333,86.89583333,83.56458333,23.92708333,23.31875,24.12916667,26.86666667,25.7979375,1.5125,1.055,1.021458333,1.334791667,1.052708333,,5.1967506,3.840248823
9/22/02,US-Goo,3.220939228,518,1,0,0,1,0,1,0,2.32,79.20416667,22.33958333,298.02,299.98,307.54,304.04,301.76,302.76,0.541,0.78,0.735,0.803,0.796,0.678,0.14,0.165,0.165,0.162,0.159,0.159,0,1,0,1,1,79.36666667,77.03333333,80.37916667,87.71666667,84.02085417,25.1,26.68960417,26.38129167,24.55625,24.76875,1.143541667,1.198541667,0.752708333,0.857291667,0.835625,,3.9205368,6.513502598
7/15/03,US-Goo,6.504253387,521,0,1,1,1,0,1,0,1.38106383,80.81914894,26.65744681,304.86,304.5,302.28,306.5,302.12,301.56,0.78,0.625,0.766,0.77,0.743,0.737,0.169,0.164,0.165,0.165,0.16,0.161,0,1,0,1,1,80.46382979,78.76877083,77.42340426,67.51875,75.38335417,25.78723404,27.07708333,24.53831915,21.92291667,22.0916875,1.296595745,1.84125,1.168085106,1.5925,1.709583333,,5.7136216,4.810279369
9/22/05,US-Goo,3.975010287,533,1,0,0,1,0,1,0,1.343333333,78.30416667,26.41254167,306.62,307.8,304.24,301.26,304.44,303.88,0.707,0.758,0.759,0.721,0.682,0.776,0.143,0.137,0.139,0.148,0.147,0.148,0,1,0,1,1,73.505,80.51851852,88.77023404,77.53333333,75.06666667,29.12,24.07037037,22.07659574,24.35210417,23.13958333,0.873,0.98962963,0.909361702,1.124791667,1.009375,,4.4656463,0
8/14/02,US-Goo,4.378725648,534,1,0,0,0,0,1,0,1.772173913,90.1608913,24.50434783,294.7,303.46,302.7,298.88,305.08,300.16,0.839,0.678,0.825,0.828,0.831,0.84,0.158,0.166,0.166,0.164,0.164,0.163,0,1,0,1,1,79.53541667,81.47916667,69.87708333,85.0291875,80.90208333,24.97083333,25.83125,25.05208333,26.35833333,27.35002083,1.039375,0.977916667,1.718125,1.011041667,1.115625,,5.1097746,2.394457579
10/15/15,US-A32,1.595051512,656,1,0,1,0,0,1,0,4.699288235,40.79147059,22.25941176,309.94,308.7,305.04,306.88,304.9,300.26,0.401,0.348,0.347,0.355,0.339,0.356,0.189,0.189,0.189,0.185,0.186,0.185,0,0,1,0,0,32.19,37.5669697,63.375625,60.47702703,52.17129032,23.57572414,22.96484848,23.25645833,23.2572973,24.46032258,2.811158621,5.681027273,3.799735417,2.161221622,2.100012903,,2.3704453,1.606127322
6/6/17,US-A32,9.258435321,672,0,1,1,0,0,1,0,3.008989286,47.83714286,29.67357143,308.36,306.24,306.48,305.74,307.1,296.32,0.432,0.387,0.5,0.486,0.544,0.592,0.179,0.174,0.174,0.176,0.176,0.174,0,0,1,0,0,60.0575,49.61815789,57.61342857,65.52204545,75.67311111,23.218125,24.10552632,22.46485714,24.65295455,22.84111111,2.79781875,2.436018421,3.042002857,3.217297727,5.575153333,,7.8203464,8.636237621
9/12/16,DE-Kli,2.349144834,700,1,0,0,1,0,0,1,1.602291667,59.08166667,21.89020833,302.74,301.8,298.7,296.86,298.82,299.06,0.514,0.343,0.44,0.295,0.461,0.421,0.184,0.184,0.185,0.185,0.184,0.182,0,0,0,1,0,63.02957447,64.65375,60.49543478,56.27416667,47.47291667,23.83468085,22.80625,22.52717391,25.64625,27.10875,1.317446809,2.176458333,2.014347826,1.905208333,1.418125,,3.1219766,1.640466809
7/3/08,DE-Kli,5.242992784,703,0,1,1,1,0,0,1,2.634747021,53.6589362,22.56496446,300.64,305.12,301.04,297.12,292.22,298.1,0.251,0.427,0.783,0.083,0.606,0.685,0.207,0.194,0.194,0.193,0.193,0.193,0,0,0,1,0,43.65701383,54.90431562,50.94677793,52.07017159,62.45664444,22.46722221,23.35078012,24.20638884,21.84999994,21.98711111,2.311161875,2.044356383,2.128222083,1.9654675,1.241444444,,3.2782125,1.699241161
6/26/13,US-Ced,2.936107508,711,0,1,1,0,1,0,0,1.8849,79.615,22.076,298.76,303,292.28,299.54,299.86,295.6,0.362,0.761,0.712,0.8,0.362,0.262,0.11,0.11,0.109,0.109,0.116,0.116,0,1,1,0,1,72.56470588,75.02894737,62.255,62.12727273,69.34857143,24.79294118,23.42578947,26.11,25.96254545,22.996,2.053705882,2.504447368,2.1971,1.968045455,2.2502,,4.3190875,2.996829987
7/13/08,US-Ced,3.691311915,713,0,1,1,1,1,0,0,2.3985,76.58645833,23.32104167,305.22,297.68,303.36,300.96,304.86,299.12,0.74,0.783,0.784,0.759,0.76,0.162,0.108,0.108,0.105,0.106,0.105,0.109,0,1,1,0,1,70.15583333,59.56458333,67.215625,56.01395833,60.028,23.70541667,23.115,23.59041667,24.99375,22.6648,2.1133125,1.777708333,1.745104167,2.847145833,2.07336,,4.3511105,0
6/11/08,US-Ced,4.758108152,714,0,1,1,0,1,0,0,1.764222222,46.48040741,26.11962963,304.1,306.86,310.52,305.38,297.4,297.42,0.669,0.742,0.717,0.718,0.565,0.614,0.114,0.115,0.116,0.112,0.111,0.111,0,1,1,0,1,67.9326087,56.42065957,70.23191489,74.13958333,85.19282609,27.5926087,29.87408511,26.19404255,23.59541667,21.76326087,1.449608696,2.098553191,1.90993617,2.003895833,1.262652174,,5.2567816,6.374515533
8/7/11,US-Ced,3.708863202,715,1,0,0,0,1,0,0,1.799666667,80.33647917,26.49229167,301.62,297.8,303.06,303.18,304.22,300.42,0.413,0.802,0.803,0.832,0.795,0.806,0.115,0.115,0.113,0.113,0.113,0.113,0,1,1,0,1,76.33814583,55.705,65.2079375,66.46045455,62.65604167,23.70583333,25.188125,25.8354375,25.12954545,26.51416667,2.417354167,1.935104167,1.614708333,1.447545455,1.789145833,,4.5511255,9.585693359
8/5/07,US-Ced,4.306265067,718,1,0,0,0,1,0,0,2.06625,70.36545455,22.40909091,302.8,305.34,303.94,302.24,299.84,298.18,0.757,0.769,0.765,0.745,0.737,0.654,0.104,0.105,0.104,0.104,0.109,0.112,0,1,1,0,1,70.99604167,62.81854167,58.71416667,82.12166667,71.15645833,25.7323125,26.39439583,26.28791667,21.88854167,23.14604167,2.414125,1.787979167,1.418791667,1.4585625,1.795729167,,3.80555,0
7/31/11,US-Ced,3.978157061,720,0,1,1,1,1,0,0,1.447545455,66.46045455,25.12954545,304.22,300.42,302.58,301.42,304.34,307.76,0.795,0.806,0.801,0.556,0.8,0.787,0.113,0.113,0.113,0.113,0.113,0.112,0,1,1,0,1,62.65604167,61.93814583,66.4973125,72.9012766,74.78404762,26.51416667,24.16895833,25.98625,27.36108511,29.36216667,1.789145833,1.688708333,1.558770833,1.273148936,1.744309524,,4.6916933,6.013785362
7/12/07,US-Ced,4.598144386,727,0,1,1,1,1,0,0,2.0078125,55.6323125,22.51208333,300.36,309.48,304.74,304.38,303.08,297.32,0.77,0.713,0.721,0.742,0.686,0.687,0.114,0.116,0.116,0.116,0.116,0.118,0,1,1,0,1,59.30833333,56.00654167,49.61835417,62.45840909,63.28189583,28.041875,26.0685625,24.73375,24.67295455,22.346875,2.157166667,2.1561875,1.907,2.035295455,2.1595625,,3.9515777,4.132531166
8/7/08,US-Ced,3.942186758,730,1,0,0,0,1,0,0,1.543304348,53.58956522,24.35869565,303.04,304.5,300.5,298.28,302.64,304,0.616,0.417,0.779,0.849,0.717,0.789,0.083,0.085,0.084,0.084,0.087,0.086,0,1,1,0,1,63.44395833,56.98844444,66.41489362,61.300625,61.2725,23.97770833,23.25577778,22.36638298,25.76479167,24.694375,1.4366875,1.856311111,1.83687234,1.552354167,1.467625,,3.2276578,4.326778412
9/9/11,US-Ced,4.632255197,734,1,0,0,1,1,0,0,0.0855,79.1937,23.34733333,297.3,297.7,295.02,300.32,298.42,298.62,0.844,0.787,0.807,0.776,0.812,0.804,0.114,0.113,0.112,0.099,0.112,0.111,0,1,1,0,1,53.9115625,75.02395833,81.31064583,70.65375,60.69022917,21.7421875,22.16979167,21.99479167,22.96,23.16833333,1.56925,1.299729167,1.491854167,1.419083333,1.601833333,,3.7918384,7.683955669
8/4/13,US-Ced,7.114135031,736,1,0,0,0,1,0,0,2.261423077,53.05003846,22.15615385,296.92,298.72,300.38,298.82,303.46,304.08,0.86,0.881,0.768,0.855,0.834,0.811,0.11,0.118,0.118,0.115,0.115,0.115,0,1,1,0,1,57.81923077,89.10952381,75.265625,75.99666667,75.61862791,23.87615385,25.89952381,25.455625,25.59,26.3944186,1.643115385,1.773285714,1.46071875,1.3543,1.615046512,,4.875538,6.444146156
7/21/08,US-Ced,3.825074591,737,0,1,1,1,1,0,0,1.743583333,67.05291667,26.90541667,301.7,305.82,305.02,305.22,297.68,303.36,0.763,0.782,0.798,0.74,0.783,0.784,0.115,0.112,0.109,0.108,0.108,0.105,0,1,1,0,1,64.91208333,54.90083333,76.58645833,70.15583333,59.56458333,26.6623125,24.565,23.32104167,23.70541667,23.115,2.414125,1.483354167,2.3985,2.1133125,1.777708333,,4.707777,6.86219883
8/2/12,US-Ced,5.015973034,741,1,0,0,0,1,0,0,1.498916667,79.9,23.92791667,300.28,300.66,305.96,305.86,306.16,297.56,0.215,0.835,0.808,0.859,0.806,0.848,0.11,0.105,0.105,0.106,0.109,0.11,0,1,1,0,1,49.9916875,62.220875,67.82916667,58.49583333,74.42291667,23.47604167,27.6216875,28.26229167,28.21545833,25.551875,1.853625,2.488354167,1.845145833,1.738020833,1.7121875,,3.5768723,3.900573492
5/30/06,US-Ced,4.745150022,749,0,1,0,1,1,0,0,1.868829787,71.15406383,22.55382979,305.58,301.38,299.34,294.04,298.02,298.64,0.743,0.728,0.663,0.601,0.574,0.541,0.115,0.116,0.116,0.113,0.115,0.109,0,1,1,0,1,68.36066667,65.28619149,68.97510638,66.28085106,64.72425532,23.332,22.99042553,21.82595745,23.16491489,21.96680851,1.431933333,1.363212766,1.500744681,1.718446809,2.185808511,,3.8847287,4.114170074
7/17/12,US-Ced,5.634197397,750,0,1,1,1,1,0,0,1.738020833,58.49583333,28.21545833,306.16,297.56,300.56,301.56,305.48,304.42,0.806,0.848,0.793,0.798,0.805,0.792,0.109,0.11,0.109,0.11,0.109,0.11,0,1,1,0,1,74.42291667,71.06666667,67.705,66.88125,64.84583333,25.551875,22.00270833,23.9665,25.62208333,27.52610417,1.7121875,1.593854167,1.4384,1.5489375,1.7688125,,6.2368855,0
8/17/09,US-Ced,4.122412162,755,1,0,0,0,1,0,0,1.385833333,72.41791667,25.58985417,303.4,300.76,300.44,298.7,303.2,296.86,0.816,0.845,0.353,0.813,0.815,0.796,0.103,0.105,0.103,0.103,0.103,0.102,0,1,1,0,1,77.00382979,78.4866875,71.13777273,75.27833333,52.73103448,24.56957447,23.39104167,26.44477273,26.55045833,22.95551724,1.417531915,1.364875,1.654272727,1.784083333,2.152931034,,4.6885457,7.247119904
7/22/08,US-Ced,1.79087653,760,0,1,1,1,1,0,0,1.136,71.9385,24.5225,303.14,301.7,305.82,305.02,305.22,297.68,0.714,0.763,0.782,0.798,0.74,0.783,0.115,0.115,0.112,0.109,0.108,0.108,0,1,1,0,1,67.05291667,64.91208333,54.90083333,76.58645833,70.15583333,26.90541667,26.6623125,24.565,23.32104167,23.70541667,1.743583333,2.414125,1.483354167,2.3985,2.1133125,,4.64835,0.3
8/18/09,US-Ced,3.659723999,763,1,0,0,0,1,0,0,2.02425,80.77456818,24.55272727,299.96,303.4,300.76,300.44,298.7,303.2,0.043,0.816,0.845,0.353,0.813,0.815,0.103,0.103,0.105,0.103,0.103,0.103,0,1,1,0,1,72.41791667,77.00382979,78.4866875,71.13777273,75.27833333,25.58985417,24.56957447,23.39104167,26.44477273,26.55045833,1.385833333,1.417531915,1.364875,1.654272727,1.784083333,,3.6310768,4.891768932
9/15/08,US-Ced,4.172751984,773,1,0,0,1,1,0,0,2.536416667,58.58,24.73458333,301.58,293.68,296.36,305.5,299.06,297.88,0.779,1,0.771,0.807,0.8,0.81,0.107,0.106,0.106,0.108,0.112,0.112,0,1,1,0,1,72.06416667,63.94895833,67.69666667,59.1160625,75.15744681,24.95335417,23.266875,22.88977778,21.85166667,22.32617021,1.888125,2.006291667,1.922555556,1.801791667,1.444723404,,5.673567,0
9/27/09,US-AR1,1.756410813,872,1,0,0,1,0,1,0,4.238166667,50.43125,25.433125,311.56,302.02,299.38,302.32,301.14,306.56,0.506,0.512,0.368,0.521,0.462,0.507,0.171,0.171,0.169,0.158,0.16,0.172,0,1,1,0,0,82.11391304,81.53384615,66.00979167,60.99212121,56.93979167,22.94021739,22.76717949,26.03775,25.4830303,29.18835417,2.370065217,2.083923077,3.321583333,1.890393939,3.85075,,2.887536,0.3
8/15/05,US-Me2,1.058349716,909,1,0,0,0,0,1,1,2.738826087,20.51434783,22.27695652,311.94,300.36,303.94,303.6,305.1,305.32,0.635,0.757,0.657,0.707,0.716,0.719,0.109,0.109,0.108,0.108,0.108,0.107,0,0,1,0,1,25.538125,17.17520833,23.79025,23.8873913,29.89068182,24.67291667,25.7025,24.804,22.39869565,23.61386364,3.408729167,2.296604167,1.79345,3.263934783,2.84375,,1.9899054,6.19914341
6/6/09,US-AR2,2.785763884,931,0,1,1,0,0,1,0,8.572458333,49.59520833,27.874375,310.12,311.82,307.38,309.14,316.36,310.3,0.155,0.361,0.456,0.483,0.341,0.526,0.183,0.181,0.18,0.177,0.177,0.177,1,0,1,0,0,60.32479167,54.85875,46.67708333,44.3566875,55.10604167,23.19270833,25.17375,26.11979167,25.42791667,22.09125,5.710708333,4.473416667,4.581125,3.805041667,1.497104167,,2.451215,0
6/15/12,US-AR2,4.6201967,975,0,1,1,0,0,1,0,3.787916667,79.6151875,23.94152083,306.28,309.74,317.32,315.68,320.6,310.26,0.322,0.363,0.291,0.33,0.272,0.392,0.209,0.209,0.209,0.206,0.205,0.204,1,0,1,0,0,73.26854348,67.20114583,43.05958333,55.95227083,65.04870833,26.88854348,24.9221875,26.0620625,27.97929167,26.11002083,7.02723913,4.952395833,5.083541667,5.376958333,7.870729167,,4.635168,3.836369276
7/22/11,US-AR2,1.112100881,990,0,1,1,1,0,1,0,4.486291667,40.868125,33.21122917,315.74,329.04,321.26,309.42,313.86,322.9,0.072,0.289,0.249,0.361,0.303,0.317,0.207,0.217,0.184,0.208,0.211,0.211,1,0,1,0,0,37.61414583,31.7313,63.72161765,52.79383333,35.3031875,34.11795833,34.569,28.67288235,28.48325,34.73402083,4.129229167,4.47265,6.533852941,6.209875,5.0814375,,2.1091871,0
8/20/09,DE-Seh,1.613622078,1058,1,0,0,0,0,0,1,2.436217612,59.48205882,24.74205882,309.26,308,302.4,301.94,303.66,306.72,0.453,0.431,0.423,0.427,0.447,0.441,0.172,0.171,0.17,0.17,0.17,0.185,0,1,0,0,1,42.24954545,71.25244444,62.85935484,56.02434783,69.938,21.84681818,23.69177778,22.37483871,26.39565217,23.33342857,1.134584514,0.906775511,2.940026839,1.209854957,1.750490229,,4.513487,2.490668297
6/28/10,DE-Seh,4.281943124,1059,0,1,1,0,0,0,1,1.108931721,63.49354167,22.25916667,305.26,301.88,302.82,297.76,303.38,297.6,0.665,0.682,0.675,0.628,0.712,0.699,0.215,0.215,0.215,0.215,0.212,0.212,0,1,0,0,1,59.48205882,42.24954545,71.25244444,62.85935484,56.02434783,24.74205882,21.84681818,23.69177778,22.37483871,26.39565217,2.436217612,1.134584514,0.906775511,2.940026839,1.209854957,,5.855734,1.615260005