Error Metrics,Experiment 4`,Experiment 5,Experiment 6,Residual Analysis
mean target,3.9427176355238096,0.5587363583095892,-1.4010958062857144,-0.4412636416904108
F1,1e-05,0.8818609229228277,0.8339088418613451,0.8818609229228277
F2,1e-05,0.8794761207245699,0.8761682840184295,0.8794761207245699
F05,1e-05,0.8842586936259713,0.7955383512254968,0.8842586936259713
Precision,1e-05,0.8858644644867266,0.7718613440303358,0.8858644644867266
Recall,1e-05,0.8778934054545137,0.9068039499713118,0.8778934054545137
R2,-1.9059693203071981,0.8258132400231953,0.8383081389869491,0.8258132400231952
Adjusted R2,2.8748189163272238,1.1123785548237453,1.1043173296858393,1.112378554823745
RMSE,3.1365007226569963,0.2335694666747305,1.128385326661671,0.2335694666747306
MSE,9.83763678322786,0.054554695762718056,1.2732534454253661,0.0545546957627181
MAE,2.338281770190476,0.15291621600471744,0.9789949276190476,0.15291621600471755
MAPE,60.08956345524275,25.1258546599413,345.3085155668432,202.54861832185114
Accuracy,39.91043654475725,74.8741453400587,-245.30851556684314,-102.54861832185114
Pearson C.C.,0.596031454019328,0.9492174074840352,0.9446146625271552,0.9492174074840352
Spearman C.C.,0.5176176012364719,0.9428571428571428,0.9077922077922078,0.9428571428571428
Spatial Distance,0.4039685459806721,0.050782592515965175,0.05538533747284447,0.050782592515965175
NMI,0.7401118946961204,1.0,1.0,1.0
AIC,48.010525876193675,-61.07958126056228,5.073083248536443,-61.07958126056225
BIC,48.010525876193675,-61.07958126056228,5.073083248536443,-61.07958126056225
Data Size test,21.0,21.0,21.0,21.0
