,TA,TA-1,TA-2,TA-3,TA-4,TA-5,EEflux LST,EEflux LST-1,EEflux LST-2,EEflux LST-3,EEflux LST-4,EEflux LST-5,RH,RH-1,RH-2,RH-3,LE_bowen_corr(mm),Date,Site Id
0,8.504166666666665,5.59,2.1766666666666667,2.4716666666666667,2.4533333333333336,4.995416666666666,294.36,290.32,280.94,281.46,279.66,285.76,56.97374999999999,55.99354166666666,61.07749999999999,74.02666666666666,1.815428944024271,2016-03-31,US-Me6
1,20.322916666666668,18.224583333333328,13.782127659574465,10.668541666666664,14.065555555555555,16.31276595744681,302.7,314.66,296.88,298.86,300.1,307.9,45.22062500000001,45.294375,51.64744680851066,58.76416666666666,3.3955164149637884,2016-06-27,US-Me6
2,24.69282608695652,20.917708333333334,17.06604166666666,16.591875000000005,15.881250000000005,17.30065217391305,319.48,308.06,301.26,308.36,308.38,310.86,34.064130434782605,42.05354166666667,43.75958333333333,44.97979166666665,3.5215353445609607,2015-06-26,US-Me6
3,13.159478260869564,12.436044090909093,2.985217340909091,3.060144374999999,3.0135047916666653,1.2396055172413791,301.34,304.02,297.66,279.78,282.72,273.62,50.63193478260869,49.36627272727274,56.49309090909092,70.17797916666665,1.0970544347349722,2018-04-26,US-Me6
4,25.86958333333334,23.761041666666657,19.556595744680845,14.671276595744677,18.23148936170213,17.179583333333333,316.72,313.94,310.1,308.02,309.6,306.36,24.125000000000004,24.38875,32.080212765957434,45.8836170212766,1.401036549146789,2015-07-31,US-Me6
5,17.8531914893617,19.435625000000005,22.468723404255325,24.03978723404255,22.941063829787243,20.54063829787234,309.74,308.9,314.48,312.58,317.9,307.3,38.814468085106384,29.916875,31.2836170212766,39.915319148936156,1.5438152354053831,2016-08-01,US-Me6
6,15.74,14.699574468085109,14.356041666666664,19.301136363636363,18.51625,15.518125000000005,303.1,307.84,300.38,306.5,314.76,301.4,54.253125,56.155106382978715,58.77354166666668,41.970909090909096,3.281438817877235,2017-06-03,US-Me6
7,4.707499999999999,7.292708333333333,11.04625,9.015434782608695,7.831914893617022,10.076458333333333,288.14,292.94,297.34,299.36,296.52,302.16,65.17541666666666,43.310625,46.54979166666666,48.081304347826084,1.7179859832109723,2015-04-25,US-Me6
8,9.253333333333332,1.759411764705883,2.2983333333333333,11.785208333333335,11.561041666666664,12.685217391304347,281.48,272.78,277.38,296.28,289.1,296.62,71.45208333333333,80.08882352941175,71.60166666666667,55.34812500000002,1.3519366600276306,2016-02-14,US-Me6
9,14.671276595744677,18.23148936170213,17.179583333333333,20.129375000000003,23.24021739130435,21.821875,308.02,309.6,306.36,311.84,308.9,318.5,45.8836170212766,45.10297872340425,44.69458333333333,37.72958333333332,1.1981792377370124,2015-07-28,US-Me6
10,13.358749999999995,15.190416666666666,21.00181818181818,13.991041666666668,11.348936170212765,8.625416666666668,299.72,296.12,307.14,307.26,293.92,299.36,56.72833333333333,45.682916666666664,21.435909090909085,47.29541666666669,2.9818482514177185,2016-05-17,US-Me6
11,18.88071428571429,21.596595744680855,23.04750000000001,23.71562500000001,25.97458333333333,24.661875,309.72,315.34,313.26,314.5,311.92,317.88,39.452857142857134,41.42808510638299,42.229375,32.103541666666665,1.689457544094093,2015-07-15,US-Me6
12,10.546956521739132,4.595217391304349,10.199791666666668,11.504791666666668,10.713478260869564,8.504166666666665,293.44,286.1,296.7,294.52,297.52,294.36,54.27652173913043,69.92782608695651,57.19166666666669,59.73374999999999,2.3434491530422203,2016-04-06,US-Me6
13,21.00181818181818,13.991041666666668,11.348936170212765,8.625416666666668,7.393749999999998,6.764375,307.14,307.26,293.92,299.36,294.2,291.9,21.435909090909085,47.29541666666669,54.96893617021279,54.69125,4.0529758859432565,2016-05-11,US-Me6
14,19.661777083333327,21.76064583333333,22.62119375,23.81939583333333,22.63945208333333,23.03471666666667,308.16,315.8,309.36,316.7,310.12,313.06,41.29214583333334,38.292854166666665,34.42561666666666,35.33622916666667,1.6585039322848951,2018-07-19,US-Me6
15,12.771250000000002,14.712291666666673,13.205416666666665,10.557500000000003,7.326875,10.869791666666664,296.94,302.84,301.98,289.18,293.94,299.46,58.85062500000002,47.90854166666665,52.97291666666666,59.299375,3.1351282833220337,2016-04-20,US-Me6
16,5.7376595744680845,3.3685416666666668,1.4525,5.0,4.52659090909091,4.6912765957446805,296.16,289.78,289.06,290.74,278.48,288.24,52.14021276595745,49.48083333333332,66.77958333333335,60.533695652173904,1.6725472366709313,2015-04-16,US-Me6
17,-0.7054166666666665,4.857499999999997,5.613958333333333,9.195,5.402708333333332,5.652916666666667,275.84,285.24,288.12,289.78,285.08,286.78,74.30854166666668,49.49833333333333,81.52354166666666,63.08208333333335,1.0854228293647905,2017-11-06,US-Me6
18,9.034186046511627,11.158235294117643,4.641521739130434,9.06972972972973,5.214318181818182,7.1870967741935505,291.84,290.34,293.68,289.08,286.68,284.24,55.916046511627904,33.175000000000004,54.88695652173912,53.183513513513496,2.130008732883153,2017-04-30,US-Me6
19,22.62119375,23.81939583333333,22.63945208333333,23.03471666666667,22.878547916666665,20.012054166666672,309.36,316.7,310.12,313.06,302.9,309.48,34.42561666666666,35.33622916666667,34.89485416666667,29.25364583333333,2.1665754724555275,2018-07-17,US-Me6
20,14.8825,9.616041666666666,6.490000000000001,6.134374999999999,13.4525,11.975833333333336,298.54,295.42,292.86,294.06,306.84,298.72,45.29916666666667,54.71437499999999,61.34562499999999,62.65500000000002,3.038049635697357,2017-05-20,US-Me6
21,21.378333333333334,19.4325,14.446808510638304,8.777291666666667,16.814375,12.055625000000004,306.88,311.18,304.6,302.48,312.24,298.22,56.24916666666666,52.44854166666667,58.34595744680853,57.26270833333334,4.101385534141755,2017-06-19,US-Me6
22,20.129375000000003,23.24021739130435,21.821875,18.239361702127653,15.142083333333336,17.99468085106383,311.84,308.9,318.5,304.44,296.42,299.46,37.72958333333332,30.46043478260869,32.65812499999999,33.26851063829786,1.3363710238494484,2015-07-21,US-Me6
23,11.649166666666668,19.046250000000008,17.648125,14.081666666666665,14.8825,9.616041666666666,300.84,308.06,303.54,308.48,298.54,295.42,41.945,46.111875,52.17083333333335,57.92020833333333,2.7824840291226693,2017-05-24,US-Me6
24,19.721956521739124,19.384166666666665,19.738181818181808,21.193958333333327,22.15234042553192,19.404375,313.94,307.7,310.46,315.96,308.16,314.72,41.36608695652173,49.54145833333333,45.59,40.26250000000002,1.5153470180391049,2017-07-29,US-Me6
25,8.51,5.061458333333333,1.64125,0.1874999999999999,4.735,3.8127083333333327,292.46,287.38,279.42,280.24,291.58,284.94,45.18833333333333,63.38291666666666,75.28895833333333,74.126875,1.3831230696179833,2017-10-17,US-Me6
26,11.561041666666664,12.685217391304347,20.803548387096765,23.081,29.676,22.337368421052627,289.1,296.62,299.74,303.04,307.74,313.04,58.14979166666665,64.66891304347827,43.04870967741936,29.8345,1.6795459026658546,2015-10-11,US-Me6
27,6.4968749999999975,7.868541666666666,10.344791666666664,10.565208333333333,11.246595744680855,7.799791666666664,301.62,298.94,300.12,302.78,302.82,301.36,55.84395833333333,48.00479166666665,48.29374999999999,48.52604166666668,1.7990351446305493,2015-05-07,US-Me6
28,17.30065217391305,13.338124999999998,18.108125,20.739999999999995,20.63229166666667,24.77166666666667,310.86,307.8,308.6,310.02,314.64,319.78,36.46847826086957,40.897083333333335,34.2725,27.63020833333333,3.3145103622419487,2015-06-15,US-Me6
29,22.71355625,21.72082708333333,21.71288125000001,22.789416666666664,23.531922916666666,22.75944375000001,315.26,310.66,319.24,308.82,318.56,307.04,32.71352083333333,33.09252083333333,29.48249999999999,28.23539583333334,1.28385072078905,2018-07-29,US-Me6
30,23.04750000000001,23.71562500000001,25.97458333333333,24.661875,23.239166666666673,24.51872340425533,313.26,314.5,311.92,317.88,310.18,313.2,42.229375,32.103541666666665,36.73020833333332,41.075,2.146623634364132,2015-07-07,US-Me6
31,8.088958333333332,12.771250000000002,14.712291666666673,13.205416666666665,10.557500000000003,7.326875,293.6,296.94,302.84,301.98,289.18,293.94,64.69395833333333,58.85062500000002,47.90854166666665,52.97291666666666,1.8986019943885832,2016-04-23,US-Me6
32,10.303541666666666,11.546458333333335,14.290833333333325,13.358749999999995,15.190416666666666,21.00181818181818,294.8,299.84,310.14,299.72,296.12,307.14,54.49770833333334,60.983125,57.95354166666665,56.72833333333333,2.38977863213724,2016-05-26,US-Me6
33,3.058958333333333,3.643809523809524,6.019787234042554,2.306875,4.790208333333333,5.406428571428571,282.82,287.44,283.58,289.94,287.06,285.78,66.45437500000001,60.5561904761905,56.02808510638298,53.73562500000002,1.7573058876395833,2017-04-13,US-Me6
34,3.0135047916666653,1.2396055172413791,6.649485145833332,8.287202941176469,-0.7054166666666665,4.857499999999997,282.72,273.62,281.12,277.5,275.84,285.24,68.32383333333333,63.630344827586214,57.93889583333333,45.03964705882352,1.1936510366369877,2018-03-11,US-Me6
35,2.306875,4.790208333333333,5.406428571428571,3.0991489361702125,6.1393617021276565,3.7080851063829776,289.94,287.06,285.78,282.14,278.42,284.74,53.73562500000002,49.36458333333334,53.990238095238105,70.07744680851064,1.1970167925638249,2017-04-03,US-Me6
36,24.5625,24.22829787234043,22.629787234042553,23.14212765957447,21.593750000000004,20.411875,312.9,313.62,316.38,311.76,316.68,306.14,25.94812499999999,27.5031914893617,26.310851063829777,26.40638297872341,1.1183584604452697,2017-08-04,US-Me6
37,20.788510638297875,21.85187500000001,22.46521739130434,21.15222222222221,18.81854166666666,14.4031914893617,304.0,312.96,307.0,306.44,312.0,299.82,31.89659574468085,37.20666666666667,39.03065217391304,39.23022222222223,1.1793846430954809,2016-08-21,US-Me6
38,15.518125000000005,11.926458333333334,8.868541666666664,11.649166666666668,19.046250000000008,17.648125,301.4,306.82,299.4,300.84,308.06,303.54,43.83708333333334,50.76416666666666,56.96625,41.945,3.5023265134371817,2017-05-27,US-Me6
39,2.985217340909091,3.060144374999999,3.0135047916666653,1.2396055172413791,6.649485145833332,8.287202941176469,297.66,279.78,282.72,273.62,281.12,277.5,56.49309090909092,70.17797916666665,68.32383333333333,63.630344827586214,1.1148571289949107,2018-04-22,US-Me6
40,21.15222222222221,18.81854166666666,14.4031914893617,18.48125,19.973750000000013,18.949375,306.44,312.0,299.82,312.86,304.66,313.64,39.23022222222223,47.368125,59.57574468085107,34.82395833333334,1.161663588426741,2016-08-12,US-Me6
41,19.738181818181808,21.193958333333327,22.15234042553192,19.404375,16.393191489361698,17.325625000000002,310.46,315.96,308.16,314.72,304.2,307.38,45.59,40.26250000000002,48.17191489361703,41.271875,1.4507594526951335,2017-07-27,US-Me6
42,7.771666666666667,11.012708333333334,4.707499999999999,7.292708333333333,11.04625,9.015434782608695,291.3,300.08,288.14,292.94,297.34,299.36,52.47145833333334,67.14791666666666,65.17541666666666,43.310625,2.1560781278436147,2015-04-29,US-Me6
43,13.782127659574465,10.668541666666664,14.065555555555555,16.31276595744681,15.978541666666665,12.533749999999998,296.88,298.86,300.1,307.9,307.54,310.9,51.64744680851066,58.76416666666666,53.171111111111145,49.79340425531914,3.0888244628074486,2016-06-25,US-Me6
44,11.916875,16.474857142857143,12.762916666666667,20.788510638297875,21.85187500000001,22.46521739130434,282.58,293.58,288.14,304.0,312.96,307.0,49.91250000000001,56.84971428571429,68.46625,31.89659574468085,2.822117876000984,2016-11-02,US-Me6
45,16.937499999999993,15.111666666666665,11.554680851063829,12.443333333333333,10.729166666666664,8.475833333333332,293.54,301.58,304.42,304.18,300.78,297.12,50.34645833333334,41.07999999999999,53.80617021276598,53.92354166666666,2.6037514490427403,2016-06-02,US-Me6
46,9.616041666666666,6.490000000000001,6.134374999999999,13.4525,11.975833333333336,9.80979166666667,295.42,292.86,294.06,306.84,298.72,301.28,54.71437499999999,61.34562499999999,62.65500000000002,54.12062499999999,2.6963092574983616,2017-05-18,US-Me6
47,18.23148936170213,17.179583333333333,20.129375000000003,23.24021739130435,21.821875,18.239361702127653,309.6,306.36,311.84,308.9,318.5,304.44,45.10297872340425,44.69458333333333,37.72958333333332,30.46043478260869,1.1385793703998888,2015-07-24,US-Me6
48,1.759411764705883,2.2983333333333333,11.785208333333335,11.561041666666664,12.685217391304347,20.803548387096765,272.78,277.38,296.28,289.1,296.62,299.74,80.08882352941175,71.60166666666667,55.34812500000002,58.14979166666665,3.3865520745845936,2016-01-29,US-Me6
49,21.126808510638305,21.52583333333333,19.060416666666654,15.957021276595736,16.3725,18.37270833333333,313.44,310.8,310.8,309.56,303.08,313.84,48.04425531914895,43.10854166666667,42.305625,50.69106382978722,1.5174537485391228,2016-07-26,US-Me6
50,4.830208333333333,6.652083333333333,3.0112765957446808,9.253333333333332,1.759411764705883,2.2983333333333333,283.02,284.92,282.04,281.48,272.78,277.38,63.35125000000002,60.72041666666667,72.53340425531916,71.45208333333333,2.1970481387739698,2016-03-06,US-Me6
51,11.504791666666668,10.713478260869564,8.504166666666665,5.59,2.1766666666666667,2.4716666666666667,294.52,297.52,294.36,290.32,280.94,281.46,59.73374999999999,60.39543478260871,56.97374999999999,55.99354166666666,2.0024818009674443,2016-04-02,US-Me6
52,15.031875,15.79979166666667,19.464791666666674,19.615833333333327,17.953124999999996,19.734375000000004,311.78,299.74,311.88,301.98,303.7,311.14,44.69770833333335,43.83062499999999,42.56374999999999,51.251874999999984,2.368106532481939,2016-07-05,US-Me6
53,19.384166666666665,19.738181818181808,21.193958333333327,22.15234042553192,19.404375,16.393191489361698,307.7,310.46,315.96,308.16,314.72,304.2,49.54145833333333,45.59,40.26250000000002,48.17191489361703,1.5696076339303409,2017-07-28,US-Me6
54,18.737197916666666,16.605187500000003,13.830138125000005,14.025279545454545,7.63420063829787,15.089147826086956,304.9,308.4,294.56,308.58,292.94,302.96,48.56633333333334,49.33954166666667,49.67729166666666,50.32402272727273,1.1441969269409011,2018-06-24,US-Me6
55,15.190416666666666,21.00181818181818,13.991041666666668,11.348936170212765,8.625416666666668,7.393749999999998,296.12,307.14,307.26,293.92,299.36,294.2,45.682916666666664,21.435909090909085,47.29541666666669,54.96893617021279,3.4430876524064584,2016-05-13,US-Me6
56,2.1766666666666667,2.4716666666666667,2.4533333333333336,4.995416666666666,3.4693749999999994,5.4675,280.94,281.46,279.66,285.76,283.74,285.84,61.07749999999999,74.02666666666666,65.95666666666668,64.51062499999999,1.9696743204097042,2016-03-28,US-Me6
57,16.815416666666668,17.8531914893617,19.435625000000005,22.468723404255325,24.03978723404255,22.941063829787243,304.9,309.74,308.9,314.48,312.58,317.9,41.168541666666655,38.814468085106384,29.916875,31.2836170212766,1.0461200149382497,2016-08-02,US-Me6
58,22.989791666666665,23.161041666666666,20.598125,18.868125000000006,16.937499999999993,15.111666666666665,314.32,316.52,303.74,314.68,293.54,301.58,49.33479166666667,46.07583333333333,48.75270833333334,52.05625,4.169311909949382,2016-06-06,US-Me6
59,11.04625,9.015434782608695,7.831914893617022,10.076458333333333,5.7376595744680845,3.3685416666666668,297.34,299.36,296.52,302.16,296.16,289.78,46.54979166666666,48.081304347826084,54.24957446808511,52.5375,2.3174000643117574,2015-04-20,US-Me6
60,4.414888888888889,2.479767441860465,4.830208333333333,6.652083333333333,3.0112765957446808,9.253333333333332,282.04,280.48,283.02,284.92,282.04,281.48,76.2342222222222,65.2632558139535,63.35125000000002,60.72041666666667,2.281047382357096,2016-03-10,US-Me6
61,15.111666666666665,11.554680851063829,12.443333333333333,10.729166666666664,8.475833333333332,10.303541666666666,301.58,304.42,304.18,300.78,297.12,294.8,41.07999999999999,53.80617021276598,53.92354166666666,53.51333333333332,3.3507753081766563,2016-05-31,US-Me6
62,1.64125,0.1874999999999999,4.735,3.8127083333333327,3.115625000000001,7.154791666666665,279.42,280.24,291.58,284.94,286.48,289.52,75.28895833333333,74.126875,60.708333333333314,61.51083333333335,1.2112393282695075,2017-10-15,US-Me6
63,14.805833333333338,16.162500000000005,15.031875,15.79979166666667,19.464791666666674,19.615833333333327,297.26,300.86,311.78,299.74,311.88,301.98,57.58354166666664,48.88166666666667,44.69770833333335,43.83062499999999,1.9954766901204537,2016-07-11,US-Me6
64,5.6193617021276605,5.529787234042553,0.6004166666666672,-1.0252083333333335,-0.6485714285714285,3.339166666666667,292.7,287.5,278.46,277.88,277.06,288.94,50.12936170212766,52.28319148936168,49.954583333333346,52.99666666666669,1.3801462192460945,2015-03-07,US-Me6
65,1.4525,5.0,4.52659090909091,4.6912765957446805,5.654871794871795,3.1060416666666666,289.06,290.74,278.48,288.24,284.1,283.48,66.77958333333335,60.533695652173904,66.5440909090909,66.31276595744683,1.5625251198800545,2015-04-14,US-Me6
66,8.777291666666667,16.814375,12.055625000000004,11.54020833333334,15.74,14.699574468085109,302.48,312.24,298.22,302.64,303.1,307.84,57.26270833333334,44.863125,45.40708333333333,54.18229166666668,1.7802819850073397,2017-06-13,US-Me6
67,24.338085106382977,25.128510638297872,25.86958333333334,23.761041666666657,19.556595744680845,14.671276595744677,314.34,306.5,316.72,313.94,310.1,308.02,25.96829787234044,25.49,24.125000000000004,24.38875,1.0374133605403844,2015-08-02,US-Me6
68,19.4325,14.446808510638304,8.777291666666667,16.814375,12.055625000000004,11.54020833333334,311.18,304.6,302.48,312.24,298.22,302.64,52.44854166666667,58.34595744680853,57.26270833333334,44.863125,3.5635563798014283,2017-06-18,US-Me6
69,11.39,14.490909090909092,2.9563333333333337,7.566304347826088,6.855531914893618,5.357954545454547,301.24,292.02,279.18,281.22,282.82,289.24,65.74720930232557,53.77393939393941,74.43933333333331,56.81956521739131,2.162358295679413,2015-03-27,US-Me6
70,11.554680851063829,12.443333333333333,10.729166666666664,8.475833333333332,10.303541666666666,11.546458333333335,304.42,304.18,300.78,297.12,294.8,299.84,53.80617021276598,53.92354166666666,53.51333333333332,54.17416666666667,2.687578111747004,2016-05-30,US-Me6
71,23.083854166666665,23.848625,22.71355625,21.72082708333333,21.71288125000001,22.789416666666664,306.72,311.58,315.26,310.66,319.24,308.82,37.5501875,35.378125,32.71352083333333,33.09252083333333,1.2839473277829323,2018-07-31,US-Me6
72,7.768181818181821,7.572978723404256,5.596666666666668,5.6193617021276605,5.529787234042553,0.6004166666666672,287.14,293.94,289.6,292.7,287.5,278.46,67.59,49.41829787234043,55.04354166666667,50.12936170212766,2.378329183428315,2015-03-12,US-Me6
73,19.818520833333334,21.59310416666667,24.531625000000005,18.93786666666667,23.083854166666665,23.848625,308.96,306.42,313.62,304.54,306.72,311.58,40.13999999999999,47.60602083333333,35.42500000000001,36.26879166666666,1.136590997191539,2018-08-17,US-Me6
74,11.012708333333334,4.707499999999999,7.292708333333333,11.04625,9.015434782608695,7.831914893617022,300.08,288.14,292.94,297.34,299.36,296.52,67.14791666666666,65.17541666666666,43.310625,46.54979166666666,2.453165756416836,2015-04-28,US-Me6
75,17.06604166666666,16.591875000000005,15.881250000000005,17.30065217391305,13.338124999999998,18.108125,301.26,308.36,308.38,310.86,307.8,308.6,43.75958333333333,44.97979166666665,48.67708333333332,36.46847826086957,2.8255964249747803,2015-06-23,US-Me6
76,19.464791666666674,19.615833333333327,17.953124999999996,19.734375000000004,19.2525,20.55541666666666,311.88,301.98,303.7,311.14,310.28,314.56,42.56374999999999,51.251874999999984,42.12999999999999,35.41624999999999,2.5999181607191653,2016-07-03,US-Me6
77,16.591875000000005,15.881250000000005,17.30065217391305,13.338124999999998,18.108125,20.739999999999995,308.36,308.38,310.86,307.8,308.6,310.02,44.97979166666665,48.67708333333332,36.46847826086957,40.897083333333335,2.8905732484193685,2015-06-22,US-Me6
78,12.677488095238092,11.082842825,12.100843777777778,7.400818604651163,13.159478260869564,12.436044090909093,308.96,298.58,296.1,298.88,301.34,304.02,51.93816666666666,63.00362499999998,55.76095555555556,61.72483720930232,1.9752812188736761,2018-05-13,US-Me6
79,6.652083333333333,3.0112765957446808,9.253333333333332,1.759411764705883,2.2983333333333333,11.785208333333335,284.92,282.04,281.48,272.78,277.38,296.28,60.72041666666667,72.53340425531916,71.45208333333333,80.08882352941175,1.8155936800697845,2016-03-03,US-Me6
80,19.404375,16.393191489361698,17.325625000000002,17.36479166666666,17.351666666666667,15.80282608695652,314.72,304.2,307.38,308.5,308.48,312.4,41.271875,47.9568085106383,47.28229166666665,47.63333333333335,1.7025935385927262,2017-07-22,US-Me6
81,7.292708333333333,11.04625,9.015434782608695,7.831914893617022,10.076458333333333,5.7376595744680845,292.94,297.34,299.36,296.52,302.16,296.16,43.310625,46.54979166666666,48.081304347826084,54.24957446808511,2.258624333198978,2015-04-22,US-Me6
82,23.161041666666666,20.598125,18.868125000000006,16.937499999999993,15.111666666666665,11.554680851063829,316.52,303.74,314.68,293.54,301.58,304.42,46.07583333333333,48.75270833333334,52.05625,50.34645833333334,4.161735650260598,2016-06-05,US-Me6
83,5.402708333333332,5.652916666666667,9.068095238095236,8.51,5.061458333333333,1.64125,285.08,286.78,278.0,292.46,287.38,279.42,79.17583333333333,78.14062499999999,72.95452380952379,45.18833333333333,1.3894589146799388,2017-10-24,US-Me6
84,8.744222222222222,16.933181818181815,15.360625,9.034186046511627,11.158235294117643,4.641521739130434,295.2,299.92,306.94,291.84,290.34,293.68,62.69000000000001,63.6140909090909,62.90291666666665,55.916046511627904,2.8234570259954013,2017-05-05,US-Me6
85,16.903312499999995,19.661777083333327,21.76064583333333,22.62119375,23.81939583333333,22.63945208333333,313.96,308.16,315.8,309.36,316.7,310.12,38.15991666666667,41.29214583333334,38.292854166666665,34.42561666666666,1.9099354869552645,2018-07-20,US-Me6
86,18.43489361702128,15.19914893617021,15.11375,14.805833333333338,16.162500000000005,15.031875,314.18,302.22,303.16,297.26,300.86,311.78,49.82872340425532,57.90361702127658,56.53104166666665,57.58354166666664,2.2284711682078107,2016-07-14,US-Me6
87,22.859791666666666,22.989791666666665,23.161041666666666,20.598125,18.868125000000006,16.937499999999993,310.24,314.32,316.52,303.74,314.68,293.54,46.96958333333336,49.33479166666667,46.07583333333333,48.75270833333334,4.14216283803594,2016-06-07,US-Me6
88,16.242916666666662,19.345208333333346,21.378333333333334,19.4325,14.446808510638304,8.777291666666667,303.04,300.54,306.88,311.18,304.6,302.48,43.55770833333332,51.42395833333334,56.24916666666666,52.44854166666667,3.5399724928624887,2017-06-21,US-Me6
89,18.51625,15.518125000000005,11.926458333333334,8.868541666666664,11.649166666666668,19.046250000000008,314.76,301.4,306.82,299.4,300.84,308.06,40.79208333333335,43.83708333333334,50.76416666666666,56.96625,3.9970758018127994,2017-05-28,US-Me6
90,4.595217391304349,10.199791666666668,11.504791666666668,10.713478260869564,8.504166666666665,5.59,286.1,296.7,294.52,297.52,294.36,290.32,69.92782608695651,57.19166666666669,59.73374999999999,60.39543478260871,2.249919298004773,2016-04-04,US-Me6
91,17.351666666666667,15.80282608695652,17.34791666666667,19.750208333333337,20.011041666666664,19.074791666666666,308.48,312.4,301.66,314.58,304.66,313.62,46.52354166666667,49.025217391304366,45.59729166666669,43.90333333333333,1.9601623120865528,2017-07-18,US-Me6
92,11.969374999999998,10.546956521739132,4.595217391304349,10.199791666666668,11.504791666666668,10.713478260869564,301.26,293.44,286.1,296.7,294.52,297.52,54.43104166666666,54.27652173913043,69.92782608695651,57.19166666666669,2.370551063276749,2016-04-07,US-Me6
93,5.652916666666667,9.068095238095236,8.51,5.061458333333333,1.64125,0.1874999999999999,286.78,278.0,292.46,287.38,279.42,280.24,78.14062499999999,72.95452380952379,45.18833333333333,63.38291666666666,1.7079270665719282,2017-10-23,US-Me6
94,7.1870967741935505,5.713823529411764,2.166041666666667,3.058958333333333,3.643809523809524,6.019787234042554,284.24,280.24,285.02,282.82,287.44,283.58,66.21612903225807,49.77058823529411,66.07124999999998,66.45437500000001,3.6274002304966713,2017-04-18,US-Me6
95,21.193958333333327,22.15234042553192,19.404375,16.393191489361698,17.325625000000002,17.36479166666666,315.96,308.16,314.72,304.2,307.38,308.5,40.26250000000002,48.17191489361703,41.271875,47.9568085106383,1.7104188833977612,2017-07-24,US-Me6
96,19.750208333333337,20.011041666666664,19.074791666666666,24.6375,18.424864864864865,16.683333333333334,314.58,304.66,313.62,308.72,312.78,307.44,43.90333333333333,46.08166666666667,45.47437499999999,26.17625,2.3453147102709493,2017-07-15,US-Me6
97,13.4525,11.975833333333336,9.80979166666667,5.551041666666666,8.744222222222222,16.933181818181815,306.84,298.72,301.28,297.52,295.2,299.92,54.12062499999999,51.205625,46.559375,47.84375,2.902714783530155,2017-05-10,US-Me6
98,21.70250000000001,19.101458333333333,14.98833333333333,11.903478260869566,14.53242424242424,16.521875,308.1,311.78,303.1,297.34,295.26,306.64,42.25416666666667,44.86625,52.19895833333333,58.33608695652176,4.054072523098895,2015-06-07,US-Me6
99,9.195,5.402708333333332,5.652916666666667,9.068095238095236,8.51,5.061458333333333,289.78,285.08,286.78,278.0,292.46,287.38,63.08208333333335,79.17583333333333,78.14062499999999,72.95452380952379,1.7461645589115034,2017-10-25,US-Me6
100,4.1695833333333345,5.650000000000001,22.813255813953482,17.10173913043478,14.410191489361706,16.515600000000006,284.74,283.28,294.0,294.06,297.18,295.36,61.37229166666666,66.01416666666668,74.85930232558141,60.11217391304349,1.3697963069420778,2015-02-18,US-Me6
101,5.1106250000000015,4.302083333333335,8.088958333333332,12.771250000000002,14.712291666666673,13.205416666666665,291.74,293.04,293.6,296.94,302.84,301.98,54.65333333333333,55.25895833333334,64.69395833333333,58.85062500000002,2.0628231520792992,2016-04-26,US-Me6
102,20.012054166666672,16.5458125,20.425166666666666,11.912006937500005,13.513867291666667,18.737197916666666,309.48,313.0,302.04,299.76,303.42,304.9,37.818791666666655,49.7246875,39.11458333333332,41.279604166666665,2.2719988657930523,2018-07-12,US-Me6
103,23.108085106382976,21.442500000000006,24.5625,24.22829787234043,22.629787234042553,23.14212765957447,312.12,314.78,312.9,313.62,316.38,311.76,31.570425531914893,26.23479166666667,25.94812499999999,27.5031914893617,1.2490314352745715,2017-08-07,US-Me6
104,25.128510638297872,25.86958333333334,23.761041666666657,19.556595744680845,14.671276595744677,18.23148936170213,306.5,316.72,313.94,310.1,308.02,309.6,25.49,24.125000000000004,24.38875,32.080212765957434,1.1935076530138795,2015-08-01,US-Me6
105,10.668541666666664,14.065555555555555,16.31276595744681,15.978541666666665,12.533749999999998,8.810624999999998,298.86,300.1,307.9,307.54,310.9,303.02,58.76416666666666,53.171111111111145,49.79340425531914,46.95437500000001,2.729308356326272,2016-06-24,US-Me6
106,21.85187500000001,22.46521739130434,21.15222222222221,18.81854166666666,14.4031914893617,18.48125,312.96,307.0,306.44,312.0,299.82,312.86,37.20666666666667,39.03065217391304,39.23022222222223,47.368125,1.053844017791099,2016-08-18,US-Me6
107,23.71562500000001,25.97458333333333,24.661875,23.239166666666673,24.51872340425533,24.69282608695652,314.5,311.92,317.88,310.18,313.2,319.48,32.103541666666665,36.73020833333332,41.075,43.82729166666668,2.3637602926905563,2015-07-05,US-Me6
108,16.5458125,20.425166666666666,11.912006937500005,13.513867291666667,18.737197916666666,16.605187500000003,313.0,302.04,299.76,303.42,304.9,308.4,49.7246875,39.11458333333332,41.279604166666665,49.095875,2.2876293389478084,2018-07-11,US-Me6
109,13.830138125000005,14.025279545454545,7.63420063829787,15.089147826086956,12.397629069767444,14.758270731707318,294.56,308.58,292.94,302.96,302.14,310.86,49.67729166666666,50.32402272727273,53.03048936170212,49.57582608695652,1.6670638075627118,2018-06-12,US-Me6
110,4.4480851063829805,4.414358974358975,4.772391304347826,8.112127659574469,2.386000000000001,8.11,285.86,284.3,283.86,281.48,272.8,275.1,69.83872340425532,61.73435897435897,62.33978260869564,57.16489361702126,1.5762401196874056,2017-03-25,US-Me6
111,13.513867291666667,18.737197916666666,16.605187500000003,13.830138125000005,14.025279545454545,7.63420063829787,303.42,304.9,308.4,294.56,308.58,292.94,49.095875,48.56633333333334,49.33954166666667,49.67729166666666,1.0758026792728457,2018-06-26,US-Me6
112,8.625416666666668,7.393749999999998,6.764375,5.1106250000000015,4.302083333333335,8.088958333333332,299.36,294.2,291.9,291.74,293.04,293.6,54.69125,59.88729166666668,67.5797916666667,54.65333333333333,2.106279105310197,2016-04-30,US-Me6
113,1.2396055172413791,6.649485145833332,8.287202941176469,-0.7054166666666665,4.857499999999997,5.613958333333333,273.62,281.12,277.5,275.84,285.24,288.12,63.630344827586214,57.93889583333333,45.03964705882352,74.30854166666668,1.0547743561392091,2018-03-01,US-Me6
114,7.326875,10.869791666666664,12.341875,15.35166666666666,13.217916666666667,11.969374999999998,293.94,299.46,300.0,303.8,299.3,301.26,62.48416666666668,51.43458333333333,52.40333333333333,50.59708333333336,2.7338036519384143,2016-04-16,US-Me6
115,17.78118125,15.657685416666668,16.903312499999995,19.661777083333327,21.76064583333333,22.62119375,308.52,307.22,313.96,308.16,315.8,309.36,38.456291666666665,41.09562499999999,38.15991666666667,41.29214583333334,1.5678014681645611,2018-07-22,US-Me6
116,2.2983333333333333,11.785208333333335,11.561041666666664,12.685217391304347,20.803548387096765,23.081,277.38,296.28,289.1,296.62,299.74,303.04,71.60166666666667,55.34812500000002,58.14979166666665,64.66891304347827,2.6522195211638984,2015-11-20,US-Me6
117,6.134374999999999,13.4525,11.975833333333336,9.80979166666667,5.551041666666666,8.744222222222222,294.06,306.84,298.72,301.28,297.52,295.2,62.65500000000002,54.12062499999999,51.205625,46.559375,1.8847635220433143,2017-05-15,US-Me6
118,14.712291666666673,13.205416666666665,10.557500000000003,7.326875,10.869791666666664,12.341875,302.84,301.98,289.18,293.94,299.46,300.0,47.90854166666665,52.97291666666666,59.299375,62.48416666666668,3.29837655686468,2016-04-19,US-Me6
119,14.446808510638304,8.777291666666667,16.814375,12.055625000000004,11.54020833333334,15.74,304.6,302.48,312.24,298.22,302.64,303.1,58.34595744680853,57.26270833333334,44.863125,45.40708333333333,2.83989246497607,2017-06-17,US-Me6
120,22.63945208333333,23.03471666666667,22.878547916666665,20.012054166666672,16.5458125,20.425166666666666,310.12,313.06,302.9,309.48,313.0,302.04,34.89485416666667,29.25364583333333,34.659937500000005,37.818791666666655,2.184691116208384,2018-07-15,US-Me6
121,10.869791666666664,12.341875,15.35166666666666,13.217916666666667,11.969374999999998,10.546956521739132,299.46,300.0,303.8,299.3,301.26,293.44,51.43458333333333,52.40333333333333,50.59708333333336,54.79041666666666,2.391326564668286,2016-04-11,US-Me6
122,23.761041666666657,19.556595744680845,14.671276595744677,18.23148936170213,17.179583333333333,20.129375000000003,313.94,310.1,308.02,309.6,306.36,311.84,24.38875,32.080212765957434,45.8836170212766,45.10297872340425,1.3318273436621342,2015-07-30,US-Me6
123,11.54020833333334,15.74,14.699574468085109,14.356041666666664,19.301136363636363,18.51625,302.64,303.1,307.84,300.38,306.5,314.76,54.18229166666668,54.253125,56.155106382978715,58.77354166666668,2.235082996492737,2017-06-04,US-Me6
124,16.683333333333334,14.291875000000005,16.242916666666662,19.345208333333346,21.378333333333334,19.4325,307.44,312.2,303.04,300.54,306.88,311.18,36.00854166666667,38.53625,43.55770833333332,51.42395833333334,3.3775152515385423,2017-06-23,US-Me6
125,15.80282608695652,17.34791666666667,19.750208333333337,20.011041666666664,19.074791666666666,24.6375,312.4,301.66,314.58,304.66,313.62,308.72,49.025217391304366,45.59729166666669,43.90333333333333,46.08166666666667,2.1248542135876898,2017-07-17,US-Me6
126,20.598125,18.868125000000006,16.937499999999993,15.111666666666665,11.554680851063829,12.443333333333333,303.74,314.68,293.54,301.58,304.42,304.18,48.75270833333334,52.05625,50.34645833333334,41.07999999999999,3.4772741675588525,2016-06-04,US-Me6
127,21.76064583333333,22.62119375,23.81939583333333,22.63945208333333,23.03471666666667,22.878547916666665,315.8,309.36,316.7,310.12,313.06,302.9,38.292854166666665,34.42561666666666,35.33622916666667,34.89485416666667,1.9341121650717847,2018-07-18,US-Me6
128,23.14212765957447,21.593750000000004,20.411875,19.721956521739124,19.384166666666665,19.738181818181808,311.76,316.68,306.14,313.94,307.7,310.46,26.40638297872341,33.42937499999999,37.747291666666655,41.36608695652173,1.5065434548475,2017-08-01,US-Me6
129,13.991041666666668,11.348936170212765,8.625416666666668,7.393749999999998,6.764375,5.1106250000000015,307.26,293.92,299.36,294.2,291.9,291.74,47.29541666666669,54.96893617021279,54.69125,59.88729166666668,2.859388374818119,2016-05-02,US-Me6
130,22.629787234042553,23.14212765957447,21.593750000000004,20.411875,19.721956521739124,19.384166666666665,316.38,311.76,316.68,306.14,313.94,307.7,26.310851063829777,26.40638297872341,33.42937499999999,37.747291666666655,1.7030939321110348,2017-08-02,US-Me6
131,13.338124999999998,18.108125,20.739999999999995,20.63229166666667,24.77166666666667,21.70250000000001,307.8,308.6,310.02,314.64,319.78,308.1,40.897083333333335,34.2725,27.63020833333333,28.084375,2.8920665310980787,2015-06-13,US-Me6
132,18.239361702127653,15.142083333333336,17.99468085106383,18.88071428571429,21.596595744680855,23.04750000000001,304.44,296.42,299.46,309.72,315.34,313.26,33.26851063829786,43.09958333333334,41.78191489361704,39.452857142857134,1.4200850554649234,2015-07-18,US-Me6
133,7.799791666666664,7.771666666666667,11.012708333333334,4.707499999999999,7.292708333333333,11.04625,301.36,291.3,300.08,288.14,292.94,297.34,50.559791666666676,52.47145833333334,67.14791666666666,65.17541666666666,1.97344091489472,2015-04-30,US-Me6
134,18.224583333333328,13.782127659574465,10.668541666666664,14.065555555555555,16.31276595744681,15.978541666666665,314.66,296.88,298.86,300.1,307.9,307.54,45.294375,51.64744680851066,58.76416666666666,53.171111111111145,3.5098742293113654,2016-06-26,US-Me6
135,17.648125,14.081666666666665,14.8825,9.616041666666666,6.490000000000001,6.134374999999999,303.54,308.48,298.54,295.42,292.86,294.06,52.17083333333335,57.92020833333333,45.29916666666667,54.71437499999999,3.5646325701021584,2017-05-22,US-Me6
136,14.758270731707318,11.55921761904762,12.536386363636366,16.128317391304346,14.11475,12.677488095238092,310.86,300.4,301.52,313.5,300.9,308.96,56.27812195121952,59.71947619047618,52.39195454545453,50.82573913043479,2.0922993895246558,2018-05-22,US-Me6
137,10.199791666666668,11.504791666666668,10.713478260869564,8.504166666666665,5.59,2.1766666666666667,296.7,294.52,297.52,294.36,290.32,280.94,57.19166666666669,59.73374999999999,60.39543478260871,56.97374999999999,2.120637615557035,2016-04-03,US-Me6
138,4.7370833333333335,4.414888888888889,2.479767441860465,4.830208333333333,6.652083333333333,3.0112765957446808,282.56,282.04,280.48,283.02,284.92,282.04,77.29229166666667,76.2342222222222,65.2632558139535,63.35125000000002,2.2971840431137154,2016-03-16,US-Me6
139,9.322790697674419,11.39,14.490909090909092,2.9563333333333337,7.566304347826088,6.855531914893618,295.82,301.24,292.02,279.18,281.22,282.82,57.25558139534884,65.74720930232557,53.77393939393941,74.43933333333331,2.3810663518988737,2015-03-29,US-Me6
140,14.065555555555555,16.31276595744681,15.978541666666665,12.533749999999998,8.810624999999998,22.859791666666666,300.1,307.9,307.54,310.9,303.02,310.24,53.171111111111145,49.79340425531914,46.95437500000001,51.00625,2.4192732285076843,2016-06-23,US-Me6
141,2.9563333333333337,7.566304347826088,6.855531914893618,5.357954545454547,7.768181818181821,7.572978723404256,279.18,281.22,282.82,289.24,287.14,293.94,74.43933333333331,56.81956521739131,56.402978723404225,63.02613636363637,3.835623256496632,2015-03-23,US-Me6
142,9.068095238095236,8.51,5.061458333333333,1.64125,0.1874999999999999,4.735,278.0,292.46,287.38,279.42,280.24,291.58,72.95452380952379,45.18833333333333,63.38291666666666,75.28895833333333,1.6754136015843122,2017-10-22,US-Me6
143,22.789416666666664,23.531922916666666,22.75944375000001,21.000181249999994,17.78118125,15.657685416666668,308.82,318.56,307.04,313.78,308.52,307.22,28.23539583333334,29.840708333333332,36.462291666666665,35.00552083333334,1.7102355572097097,2018-07-26,US-Me6
144,10.602553191489356,9.27,4.206666666666668,4.212173913043477,8.830208333333333,9.017916666666666,297.98,290.9,291.26,293.02,291.98,298.76,67.27,51.23173913043478,74.46083333333334,74.23130434782608,2.6766969405478336,2005-06-10,US-Me2
145,12.84340425531915,8.742826086956523,6.898409090909089,5.9477777777777785,4.7047500000000015,14.005833333333335,300.84,293.98,291.2,290.8,287.66,288.16,36.25170212765956,45.421086956521734,58.86318181818183,60.88844444444442,3.1867744742056026,2005-05-25,US-Me2
146,10.842083333333333,7.327916666666668,5.2486956521739145,5.689375000000001,8.66625,5.739375,292.26,287.74,289.56,284.06,291.62,284.3,34.35229166666667,35.67210416666666,46.34558695652174,52.62489583333332,2.0890246914707444,2018-04-24,US-Me2
147,5.2529166666666685,-1.1424999999999998,-0.35812499999999986,-1.4752083333333328,-3.918125,14.697708333333335,280.2,276.88,270.98,268.34,265.16,282.34,78.11220833333333,60.698999999999984,83.9436875,92.4846875,2.510894465475897,2018-04-07,US-Me2
148,19.627500000000005,17.43437500000001,18.19276595744681,17.687659574468086,20.720689655172414,24.672916666666666,300.36,303.94,303.6,305.1,305.32,313.68,21.029166666666665,39.04979166666667,37.37340425531913,30.07978723404255,1.066642241085094,2005-08-14,US-Me2
149,6.38125,18.77446808510639,19.722916666666666,22.276956521739134,19.627500000000005,17.43437500000001,282.94,303.52,303.4,311.94,300.36,303.94,71.74875000000002,47.134893617021284,39.44041666666666,20.51434782608696,1.947044008455105,2005-10-08,US-Me2
150,15.601875,18.4625,20.484166666666663,22.305652173913046,23.067291666666666,19.919574468085106,302.0,302.88,304.04,305.16,304.12,297.92,40.709625,35.211020833333336,25.34925,25.89128260869565,1.1456608469285343,2006-09-10,US-Me2
151,4.5925,15.988958333333333,15.939166666666672,10.842083333333333,7.327916666666668,5.2486956521739145,286.96,296.12,298.66,292.26,287.74,289.56,74.783875,33.3673125,32.76577083333333,34.35229166666667,1.5132027278430529,2018-04-29,US-Me2
152,19.00434782608696,16.580434782608695,14.314222222222226,16.916170212765962,11.857045454545455,10.964255319148938,310.3,300.42,304.46,296.8,298.3,291.36,48.79782608695652,52.00260869565218,47.281111111111095,47.18319148936172,4.036371483145695,2005-06-30,US-Me2
153,5.739375,7.491041666666668,2.528125,5.2529166666666685,-1.1424999999999998,-0.35812499999999986,284.3,283.24,280.36,280.2,276.88,270.98,64.81164583333333,56.98158333333331,82.20108333333333,78.11220833333333,1.9495888152752672,2018-04-19,US-Me2
154,11.788478260869562,11.577708333333335,6.38125,18.77446808510639,19.722916666666666,22.276956521739134,290.3,290.36,282.94,303.52,303.4,311.94,56.07260869565218,53.09562500000001,71.74875000000002,47.134893617021284,1.5514389495010892,2005-10-13,US-Me2
155,11.530416666666673,15.688750000000004,5.308541666666667,11.619791666666664,9.92125,16.597708333333333,296.6,293.22,291.44,295.5,292.58,302.1,56.54577083333333,37.3875625,71.55125000000002,44.95420833333332,2.4017989804009092,2018-06-14,US-Me2
156,16.916170212765962,11.857045454545455,10.964255319148938,7.499583333333331,10.602553191489356,9.27,296.8,298.3,291.36,300.14,297.98,290.9,47.18319148936172,59.020454545454534,61.89063829787237,60.54729166666666,4.947688789742023,2005-06-20,US-Me2
157,16.387446808510635,17.48673913043479,11.509574468085107,14.223777777777775,18.841875,18.35186046511628,307.3,304.18,299.32,307.94,309.06,300.04,60.73340425531914,57.5241304347826,71.21510638297873,65.23377777777779,3.8601758848574415,2005-07-12,US-Me2
158,14.918749999999998,12.567916666666667,14.496666666666664,11.41617021276596,4.5925,15.988958333333333,292.62,292.88,296.8,291.94,286.96,296.12,51.98260416666668,59.30425000000002,49.13400000000002,47.64457446808512,3.2392146979357705,2018-05-07,US-Me2
159,5.707391304347824,0.8751063829787233,3.736363636363636,7.621666666666669,7.4876595744680845,0.8270833333333333,281.36,281.5,281.04,290.64,284.38,281.86,42.82402173913044,54.146595744680866,56.78849999999999,62.82904166666668,1.7042766913595448,2007-03-29,US-Me2
160,11.619791666666664,9.92125,16.597708333333333,10.377916666666668,8.681041666666664,10.306874999999998,295.5,292.58,302.1,291.72,288.54,294.1,44.95420833333332,58.1854375,39.74483333333333,51.1496875,2.7728950048844268,2018-06-05,US-Me2
161,20.484166666666663,22.305652173913046,23.067291666666666,19.919574468085106,14.95458333333334,13.252962962962966,304.04,305.16,304.12,297.92,302.0,306.92,25.34925,25.89128260869565,23.67766666666667,18.67985106382979,1.0805327243016576,2006-09-07,US-Me2
162,10.964255319148938,7.499583333333331,10.602553191489356,9.27,4.206666666666668,4.212173913043477,291.36,300.14,297.98,290.9,291.26,293.02,61.89063829787237,60.54729166666666,67.27,51.23173913043478,3.0550050919378378,2005-06-13,US-Me2
163,3.8592857142857135,4.9027659574468085,9.492222222222221,-1.4307499999999995,0.4031818181818184,4.175384615384616,292.86,292.0,296.94,270.02,269.1,283.96,44.16642857142857,46.80787234042554,37.013703703703705,83.24375,1.4530623180651363,2006-05-02,US-Me2
164,21.460416666666664,25.69458333333333,25.070625000000003,22.656041666666663,23.425416666666663,24.43333333333333,299.38,303.48,306.52,308.6,303.84,310.34,29.31208333333333,27.510500000000004,23.80435416666667,27.977375,1.8433493234994915,2018-08-02,US-Me2
165,8.830208333333333,9.017916666666666,19.64936170212766,16.08791666666667,12.84340425531915,8.742826086956523,291.98,298.76,309.94,298.48,300.84,293.98,56.49916666666667,61.3725,29.78425531914895,32.92770833333333,3.264783850524563,2005-06-04,US-Me2
166,19.64936170212766,16.08791666666667,12.84340425531915,8.742826086956523,6.898409090909089,5.9477777777777785,309.94,298.48,300.84,293.98,291.2,290.8,29.78425531914895,32.92770833333333,36.25170212765956,45.421086956521734,3.169560989235139,2005-05-27,US-Me2
167,11.458723404255315,10.819565217391302,6.071458333333332,7.521956521739129,5.2446875,12.662765957446805,287.1,284.12,282.76,284.16,280.6,290.0,39.93789361702128,37.46078260869565,46.87245833333333,53.1893695652174,1.0234543869440458,2007-11-04,US-Me2
168,9.492222222222221,-1.4307499999999995,0.4031818181818184,4.175384615384616,11.412000000000004,11.639111111111104,296.94,270.02,269.1,283.96,293.26,288.72,37.013703703703705,83.24375,43.161136363636366,64.60589743589746,2.565059081452376,2006-04-30,US-Me2
169,-1.0635555555555558,-1.3425000000000005,7.111041666666668,4.998709677419353,0.5456666666666666,6.143333333333333,275.62,267.74,276.7,277.9,276.54,279.88,68.79631111111111,81.23821875000002,40.20554166666665,55.20348387096775,1.0162235446402241,2008-03-25,US-Me2
170,23.235434782608696,20.677234042553188,15.818297872340429,16.387446808510635,17.48673913043479,11.509574468085107,307.38,311.58,299.08,307.3,304.18,299.32,31.3104347826087,24.82829787234041,47.828510638297864,60.73340425531914,4.1006738309873185,2005-07-15,US-Me2
171,6.967291666666667,12.79361702127659,12.163333333333336,16.49425531914893,15.45145833333333,8.399285714285716,296.36,303.24,294.14,306.34,291.8,286.1,51.40816666666666,36.48602127659576,50.6726875,40.476574468085104,2.8063056297330053,2007-05-13,US-Me2
172,16.61936170212766,20.72311111111112,11.992666666666667,13.807446808510633,20.191489361702125,15.601875,299.2,304.66,296.28,298.0,306.5,302.0,36.46429787234041,22.012511111111106,50.116200000000006,37.32359574468085,1.4062145219524578,2006-09-30,US-Me2
173,15.97541666666667,14.232499999999995,8.560000000000002,17.955833333333327,14.372499999999995,12.479583333333332,298.38,296.26,289.28,302.74,294.66,291.48,43.61177083333334,49.79214583333332,64.98785416666668,41.079770833333335,3.7319588680582387,2018-05-28,US-Me2
174,8.66625,5.739375,7.491041666666668,2.528125,5.2529166666666685,-1.1424999999999998,291.62,284.3,283.24,280.36,280.2,276.88,52.82077083333334,64.81164583333333,56.98158333333331,82.20108333333333,2.426781271497976,2018-04-20,US-Me2
175,22.656041666666663,23.425416666666663,24.43333333333333,25.186875,24.56958333333333,23.423541666666665,308.6,303.84,310.34,304.64,310.28,303.42,27.977375,22.63420833333333,20.669895833333328,20.059145833333336,1.4737229496028237,2018-07-29,US-Me2
176,8.681041666666664,10.306874999999998,15.97541666666667,14.232499999999995,8.560000000000002,17.955833333333327,288.54,294.1,298.38,296.26,289.28,302.74,47.2444375,55.23066666666666,43.61177083333334,49.79214583333332,2.6251708507629448,2018-05-30,US-Me2
177,8.560000000000002,17.955833333333327,14.372499999999995,12.479583333333332,12.648333333333332,13.188125,289.28,302.74,294.66,291.48,293.78,294.34,64.98785416666668,41.079770833333335,47.92368750000001,54.88274999999999,3.399610471550921,2018-05-26,US-Me2
178,20.404375000000005,15.65375,15.502708333333333,17.486250000000002,18.170416666666668,19.358541666666664,300.66,300.3,301.06,296.98,298.7,303.06,38.2923125,49.74964583333332,44.65077083333333,52.95875,4.491864984422701,2018-06-25,US-Me2
179,18.945217391304343,24.804,22.39869565217391,21.190465116279064,23.61386363636363,19.679791666666674,310.46,315.04,306.2,310.14,311.14,305.16,50.13608695652174,23.79025,23.887391304347826,36.004186046511634,3.2198516873774237,2005-07-23,US-Me2
180,15.502708333333333,17.486250000000002,18.170416666666668,19.358541666666664,17.075416666666673,11.253124999999995,301.06,296.98,298.7,303.06,300.56,292.9,44.65077083333333,52.95875,48.39064583333333,40.150291666666654,3.8795652932917006,2018-06-23,US-Me2
181,9.27,4.206666666666668,4.212173913043477,8.830208333333333,9.017916666666666,19.64936170212766,290.9,291.26,293.02,291.98,298.76,309.94,51.23173913043478,74.46083333333334,74.23130434782608,56.49916666666667,2.960144372289672,2005-06-08,US-Me2
182,21.190465116279064,23.61386363636363,19.679791666666674,17.778510638297874,23.235434782608696,20.677234042553188,310.14,311.14,305.16,306.66,307.38,311.58,36.004186046511634,29.89068181818181,35.299375,50.827021276595744,3.553164577985841,2005-07-19,US-Me2
183,7.499583333333331,10.602553191489356,9.27,4.206666666666668,4.212173913043477,8.830208333333333,300.14,297.98,290.9,291.26,293.02,291.98,60.54729166666666,67.27,51.23173913043478,74.46083333333334,2.995990454007541,2005-06-12,US-Me2
184,15.988958333333333,15.939166666666672,10.842083333333333,7.327916666666668,5.2486956521739145,5.689375000000001,296.12,298.66,292.26,287.74,289.56,284.06,33.3673125,32.76577083333333,34.35229166666667,35.67210416666666,2.6682990947362217,2018-04-26,US-Me2
185,10.306874999999998,15.97541666666667,14.232499999999995,8.560000000000002,17.955833333333327,14.372499999999995,294.1,298.38,296.26,289.28,302.74,294.66,55.23066666666666,43.61177083333334,49.79214583333332,64.98785416666668,3.050524255515395,2018-05-29,US-Me2
186,20.41375,23.490625000000005,25.395416666666666,24.864375,23.760625000000008,25.27125,300.72,307.58,303.36,309.24,305.38,305.98,38.17689583333333,27.159785416666665,26.86591666666667,23.308875,2.281101566223295,2018-07-19,US-Me2
187,12.907708333333332,20.404375000000005,15.65375,15.502708333333333,17.486250000000002,18.170416666666668,296.62,300.66,300.3,301.06,296.98,298.7,55.69089583333332,38.2923125,49.74964583333332,44.65077083333333,2.9822534103451788,2018-06-26,US-Me2
188,18.634583333333328,20.41375,23.490625000000005,25.395416666666666,24.864375,23.760625000000008,305.8,300.72,307.58,303.36,309.24,305.38,43.19202083333334,38.17689583333333,27.159785416666665,26.86591666666667,2.290925843699944,2018-07-20,US-Me2
189,5.2446875,12.662765957446805,11.45875,15.95787234042553,5.252083333333334,7.9957446808510655,280.6,290.0,289.28,288.68,278.16,286.36,72.66353125000002,34.099595744680855,58.09910416666666,43.067382978723394,2.5100961383958227,2007-10-30,US-Me2
190,10.056808510638296,8.533333333333337,15.17,14.150454545454547,11.788478260869562,11.577708333333335,289.12,283.54,293.0,288.52,290.3,290.36,59.80489361702129,71.87833333333332,46.03590909090911,50.07681818181818,1.128559485433872,2005-10-21,US-Me2
191,7.327916666666668,5.2486956521739145,5.689375000000001,8.66625,5.739375,7.491041666666668,287.74,289.56,284.06,291.62,284.3,283.24,35.67210416666666,46.34558695652174,52.62489583333332,52.82077083333334,1.71663774933683,2018-04-23,US-Me2
192,14.697708333333335,6.973199999999998,-5.2664583333333335,-2.871914893617024,-2.1270833333333337,-3.2965957446808503,282.34,289.06,268.22,271.8,268.36,270.34,40.984854166666665,42.44820000000001,83.1779375,71.84634042553192,1.46349136394596,2018-02-07,US-Me2
193,19.722916666666666,22.276956521739134,19.627500000000005,17.43437500000001,18.19276595744681,17.687659574468086,303.4,311.94,300.36,303.94,303.6,305.1,39.44041666666666,20.51434782608696,21.029166666666665,39.04979166666667,1.1800911182759044,2005-08-16,US-Me2
194,7.521956521739129,5.2446875,12.662765957446805,11.45875,15.95787234042553,5.252083333333334,284.16,280.6,290.0,289.28,288.68,278.16,53.1893695652174,72.66353125000002,34.099595744680855,58.09910416666666,1.6831098094221253,2007-10-31,US-Me2
195,7.283124999999999,2.497872340425532,6.067804878048781,6.1582500000000024,9.844042553191487,8.102083333333335,287.02,288.7,287.4,291.36,296.34,288.26,57.54952083333334,56.35791489361701,55.82778048780487,52.86007500000001,2.677106127805553,2007-04-23,US-Me2
196,16.427500000000002,14.611249999999998,15.617499999999998,14.329791666666665,12.907708333333332,20.404375000000005,295.06,303.42,296.22,301.5,296.62,300.66,48.76779166666668,52.86777083333333,41.71291666666667,48.85349999999999,3.4304931240856087,2018-07-01,US-Me2
197,15.45145833333333,8.399285714285716,9.7725,11.967872340425535,8.212083333333332,7.283124999999999,291.8,286.1,297.96,298.94,295.62,287.02,40.48685416666665,59.536261904761886,61.36718749999999,52.866978723404294,3.489164427300766,2007-05-07,US-Me2
198,17.618125000000006,11.093125,15.941875000000005,16.427500000000002,14.611249999999998,15.617499999999998,302.04,293.86,299.02,295.06,303.42,296.22,30.3351875,52.33835416666667,51.17260416666666,48.76779166666668,3.1222585011235138,2018-07-05,US-Me2
199,7.427045454545455,2.3891111111111107,16.61936170212766,20.72311111111112,11.992666666666667,13.807446808510633,281.92,278.46,299.2,304.66,296.28,298.0,52.389431818181826,66.82473333333336,36.46429787234041,22.012511111111106,1.3537302123616075,2006-10-26,US-Me2
200,9.998958333333333,14.918749999999998,12.567916666666667,14.496666666666664,11.41617021276596,4.5925,284.58,292.62,292.88,296.8,291.94,286.96,67.75097916666665,51.98260416666668,59.30425000000002,49.13400000000002,2.368005238095804,2018-05-09,US-Me2
201,7.366666666666667,0.5808333333333334,-4.010714285714286,8.19021739130435,6.2261702127659575,-4.235,278.58,272.06,267.68,282.32,278.78,271.1,39.786625,51.25064583333332,83.80254761904763,43.18969565217392,1.0745120862217512,2009-01-30,US-Me2
202,25.186875,24.56958333333333,23.423541666666665,20.444166666666664,17.895208333333333,18.08333333333333,304.64,310.28,303.42,306.48,302.38,300.58,20.059145833333336,24.45779791666667,25.19777083333333,26.643229166666675,2.0210844257402663,2018-07-26,US-Me2
203,10.377916666666668,8.681041666666664,10.306874999999998,15.97541666666667,14.232499999999995,8.560000000000002,291.72,288.54,294.1,298.38,296.26,289.28,51.1496875,47.2444375,55.23066666666666,43.61177083333334,2.7855691587234626,2018-06-01,US-Me2
204,7.263333333333333,12.431276595744679,28.914166666666674,28.935208333333346,28.248333333333324,26.785625,281.96,294.46,309.86,306.0,308.24,304.4,45.84722222222222,50.52787234042554,59.21833333333334,58.09125,3.053571741759833,2005-04-28,US-Me2
205,11.17086956521739,12.71787234042553,7.329999999999997,8.905208333333334,-5.043181818181818,14.60191489361702,292.88,292.78,286.42,281.12,257.28,293.04,57.06389130434781,37.223595744680864,37.58460869565216,48.76962499999999,2.0650635140817486,2007-03-17,US-Me2
206,-0.8145454545454545,8.280666666666665,5.707391304347824,0.8751063829787233,3.736363636363636,7.621666666666669,281.76,293.42,281.36,281.5,281.04,290.64,54.07868181818181,35.72388888888889,42.82402173913044,54.146595744680866,1.1337380893240605,2007-04-02,US-Me2
207,17.390625,16.993409090909093,18.945217391304343,24.804,22.39869565217391,21.190465116279064,305.78,301.6,310.46,315.04,306.2,310.14,32.34083333333333,42.272045454545456,50.13608695652174,23.79025,2.5211001457272,2005-07-25,US-Me2
208,8.19021739130435,6.2261702127659575,-4.235,-4.058333333333334,-1.0635555555555558,-1.3425000000000005,282.32,278.78,271.1,266.66,275.62,267.74,43.18969565217392,31.119382978723394,70.61283333333331,65.47422916666666,2.0533044987301494,2008-04-11,US-Me2
209,14.598297872340428,15.026969696969696,4.659999999999998,3.8592857142857135,4.9027659574468085,9.492222222222221,298.16,296.46,295.76,292.86,292.0,296.94,63.78617021276595,60.64818181818183,36.72071428571429,44.16642857142857,3.9294512486450697,2006-06-06,US-Me2
210,5.252083333333334,7.9957446808510655,12.48083333333333,6.921041666666665,11.450625,10.971875000000002,278.16,286.36,289.7,293.84,292.02,302.02,59.51729166666666,63.25738297872342,55.64710416666667,52.59137499999999,1.8651598706436456,2007-10-21,US-Me2
211,14.95458333333334,13.252962962962966,10.09391304347826,11.836595744680851,11.57695652173913,10.276808510638302,302.0,306.92,298.56,298.94,302.54,296.76,33.44885416666667,41.33555555555555,54.29217391304348,53.584255319148944,1.0498173219708165,2006-09-01,US-Me2
212,12.567916666666667,14.496666666666664,11.41617021276596,4.5925,15.988958333333333,15.939166666666672,292.88,296.8,291.94,286.96,296.12,298.66,59.30425000000002,49.13400000000002,47.64457446808512,74.783875,2.26181045468639,2018-05-06,US-Me2
213,23.490625000000005,25.395416666666666,24.864375,23.760625000000008,25.27125,22.97916666666666,307.58,303.36,309.24,305.38,305.98,303.3,27.159785416666665,26.86591666666667,23.308875,24.03991666666667,2.7309494522915463,2018-07-18,US-Me2
214,18.152708333333333,18.848125000000003,16.460208333333334,16.780000000000005,17.618125000000006,11.093125,296.0,306.3,299.34,300.52,302.04,293.86,44.43574999999999,40.91308333333333,47.645,53.92729166666666,2.605122390533233,2018-07-10,US-Me2
215,14.232499999999995,8.560000000000002,17.955833333333327,14.372499999999995,12.479583333333332,12.648333333333332,296.26,289.28,302.74,294.66,291.48,293.78,49.79214583333332,64.98785416666668,41.079770833333335,47.92368750000001,3.788241594990439,2018-05-27,US-Me2
216,14.496666666666664,11.41617021276596,4.5925,15.988958333333333,15.939166666666672,10.842083333333333,296.8,291.94,286.96,296.12,298.66,292.26,49.13400000000002,47.64457446808512,74.783875,33.3673125,2.7260698204045535,2018-05-03,US-Me2
217,2.497872340425532,6.067804878048781,6.1582500000000024,9.844042553191487,8.102083333333335,-0.8145454545454545,288.7,287.4,291.36,296.34,288.26,281.76,56.35791489361701,55.82778048780487,52.86007500000001,64.19804255319148,1.9999033569470424,2007-04-15,US-Me2
218,10.041304347826086,11.213777777777779,11.458723404255315,10.819565217391302,6.071458333333332,7.521956521739129,286.08,281.84,287.1,284.12,282.76,284.16,44.62441304347827,49.17797777777778,39.93789361702128,37.46078260869565,1.632470210875603,2007-11-09,US-Me2
219,11.992666666666667,13.807446808510633,20.191489361702125,15.601875,18.4625,20.484166666666663,296.28,298.0,306.5,302.0,302.88,304.04,50.116200000000006,37.32359574468085,31.275297872340413,40.709625,1.0090470800683289,2006-09-17,US-Me2
220,0.5456666666666666,6.143333333333333,10.041304347826086,11.213777777777779,11.458723404255315,10.819565217391302,276.54,279.88,286.08,281.84,287.1,284.12,69.59913333333333,67.33874999999998,44.62441304347827,49.17797777777778,2.7488924071488148,2007-11-13,US-Me2
221,4.659999999999998,3.8592857142857135,4.9027659574468085,9.492222222222221,-1.4307499999999995,0.4031818181818184,295.76,292.86,292.0,296.94,270.02,269.1,36.72071428571429,44.16642857142857,46.80787234042554,37.013703703703705,2.442539887656123,2006-05-03,US-Me2
222,12.355,14.598297872340428,15.026969696969696,4.659999999999998,3.8592857142857135,4.9027659574468085,291.68,298.16,296.46,295.76,292.86,292.0,63.5058695652174,63.78617021276595,60.64818181818183,36.72071428571429,3.7095144660296,2006-06-07,US-Me2
223,20.720689655172414,24.672916666666666,25.702500000000004,21.4891304347826,17.390625,16.993409090909093,305.32,313.68,309.22,307.7,305.78,301.6,32.06551724137931,25.538125,17.175208333333334,18.59108695652174,3.032054411422981,2005-07-29,US-Me2
224,11.412000000000004,11.639111111111104,10.708444444444439,10.056808510638296,8.533333333333337,15.17,293.26,288.72,288.98,289.12,283.54,293.0,61.00888888888888,67.27822222222223,66.40000000000002,59.80489361702129,1.987263626691785,2005-10-25,US-Me2
225,7.9957446808510655,12.48083333333333,6.921041666666665,11.450625,10.971875000000002,15.004166666666672,286.36,289.7,293.84,292.02,302.02,291.86,63.25738297872342,55.64710416666667,52.59137499999999,55.23420833333335,3.0435237384794216,2007-05-27,US-Me2
226,16.08791666666667,12.84340425531915,8.742826086956523,6.898409090909089,5.9477777777777785,4.7047500000000015,298.48,300.84,293.98,291.2,290.8,287.66,32.92770833333333,36.25170212765956,45.421086956521734,58.86318181818183,3.2200814053978464,2005-05-26,US-Me2
227,6.9700000000000015,8.116363636363637,11.17086956521739,12.71787234042553,7.329999999999997,8.905208333333334,283.48,287.3,292.88,292.78,286.42,281.12,64.66647058823528,72.54613636363636,57.06389130434781,37.223595744680864,2.2643537026977816,2007-03-19,US-Me2
228,18.841875,18.35186046511628,15.819791666666674,13.406666666666665,16.02613636363636,19.00434782608696,309.06,300.04,304.4,300.22,303.08,310.3,46.17833333333334,42.59325581395347,45.87895833333334,56.36270833333332,4.104930342976953,2005-07-05,US-Me2
229,12.79361702127659,12.163333333333336,16.49425531914893,15.45145833333333,8.399285714285716,9.7725,303.24,294.14,306.34,291.8,286.1,297.96,36.48602127659576,50.6726875,40.476574468085104,40.48685416666665,3.21977036602369,2007-05-10,US-Me2
230,12.648333333333332,13.188125,17.89520833333334,16.930416666666662,12.913958333333335,9.998958333333333,293.78,294.34,296.82,300.56,292.52,284.58,54.241374999999984,58.05979166666666,31.327729166666675,34.16816666666666,3.2654587181522654,2018-05-18,US-Me2
231,11.509574468085107,14.223777777777775,18.841875,18.35186046511628,15.819791666666674,13.406666666666665,299.32,307.94,309.06,300.04,304.4,300.22,71.21510638297873,65.23377777777779,46.17833333333334,42.59325581395347,3.0583407535509486,2005-07-09,US-Me2
232,11.967872340425535,8.212083333333332,7.283124999999999,2.497872340425532,6.067804878048781,6.1582500000000024,298.94,295.62,287.02,288.7,287.4,291.36,52.866978723404294,64.12854166666666,57.54952083333334,56.35791489361701,2.9841696746754454,2007-04-27,US-Me2
233,23.423541666666665,20.444166666666664,17.895208333333333,18.08333333333333,18.634583333333328,20.41375,303.42,306.48,302.38,300.58,305.8,300.72,25.19777083333333,26.643229166666675,25.92695833333333,26.89558333333333,1.7831587976988887,2018-07-24,US-Me2
234,22.39869565217391,21.190465116279064,23.61386363636363,19.679791666666674,17.778510638297874,23.235434782608696,306.2,310.14,311.14,305.16,306.66,307.38,23.887391304347826,36.004186046511634,29.89068181818181,35.299375,3.573747267056932,2005-07-20,US-Me2
235,24.804,22.39869565217391,21.190465116279064,23.61386363636363,19.679791666666674,17.778510638297874,315.04,306.2,310.14,311.14,305.16,306.66,23.79025,23.887391304347826,36.004186046511634,29.89068181818181,3.1833830403851744,2005-07-21,US-Me2
236,17.895208333333333,18.08333333333333,18.634583333333328,20.41375,23.490625000000005,25.395416666666666,302.38,300.58,305.8,300.72,307.58,303.36,25.92695833333333,26.89558333333333,43.19202083333334,38.17689583333333,2.1507081250437166,2018-07-22,US-Me2
237,17.075416666666673,11.253124999999995,11.189791666666665,11.530416666666673,15.688750000000004,5.308541666666667,300.56,292.9,288.26,296.6,293.22,291.44,45.50197916666666,58.99962499999998,58.22654166666667,56.54577083333333,3.2408801801194653,2018-06-19,US-Me2
238,11.213777777777779,11.458723404255315,10.819565217391302,6.071458333333332,7.521956521739129,5.2446875,281.84,287.1,284.12,282.76,284.16,280.6,49.17797777777778,39.93789361702128,37.46078260869565,46.87245833333333,1.927794316284949,2007-11-06,US-Me2
239,23.760625000000008,25.27125,22.97916666666666,17.989375,15.796874999999998,18.152708333333333,305.38,305.98,303.3,303.04,304.14,296.0,24.03991666666667,23.94527083333333,25.819166666666664,43.40743749999999,2.7084725651464248,2018-07-15,US-Me2
240,12.479583333333332,12.648333333333332,13.188125,17.89520833333334,16.930416666666662,12.913958333333335,291.48,293.78,294.34,296.82,300.56,292.52,54.88274999999999,54.241374999999984,58.05979166666666,31.327729166666675,3.146617956808417,2018-05-20,US-Me2
241,-4.058333333333334,-1.0635555555555558,-1.3425000000000005,7.111041666666668,4.998709677419353,0.5456666666666666,266.66,275.62,267.74,276.7,277.9,276.54,65.47422916666666,68.79631111111111,81.23821875000002,40.20554166666665,2.086480536874324,2008-03-27,US-Me2
242,13.406666666666665,16.02613636363636,19.00434782608696,16.580434782608695,14.314222222222226,16.916170212765962,300.22,303.08,310.3,300.42,304.46,296.8,56.36270833333332,54.19863636363637,48.79782608695652,52.00260869565218,3.767681830825359,2005-07-02,US-Me2
243,-5.043181818181818,14.60191489361702,11.146808510638293,7.427045454545455,2.3891111111111107,16.61936170212766,257.28,293.04,286.54,281.92,278.46,299.2,79.75343181818181,21.075234042553195,39.26748936170213,52.389431818181826,1.0680786284447377,2007-02-28,US-Me2
244,15.17,14.150454545454547,11.788478260869562,11.577708333333335,6.38125,18.77446808510639,293.0,288.52,290.3,290.36,282.94,303.52,46.03590909090911,50.07681818181818,56.07260869565218,53.09562500000001,1.6324987352338851,2005-10-17,US-Me2
