Error Metrics,Experiment 4`,Residual Analysis`,Experiment 5,Experiment 6,Residual Analysis
mean target,3.85159533368932,-0.3979979752341798,0.7499775948508751,-0.9481956203495148,-0.25002240514912516
F1,0.7120491251713756,1e-05,0.9321413884080256,0.9602316498979204,0.9321413884080255
F2,0.72351358463904,1e-05,0.9364341325260852,0.9664409026058162,0.9364341325260853
F05,0.7009423194647714,1e-05,0.9278878217654281,0.9541016750660006,0.9278878217654281
Precision,0.6937282990103757,1e-05,0.925073611885256,0.9500583218450114,0.925073611885256
Recall,0.7313638777685327,1e-05,0.939317995317382,0.9706252104353476,0.939317995317382
R2,-1.8242985166075745,0.9727144398772752,0.9593880020784398,0.9484364031396932,0.9593880020784398
Adjusted R2,-4.539970167191782,1.01819037341515,0.9203380040769396,0.8988560215432444,0.9203380040769396
RMSE,3.3301386198424523,0.08542624024970874,0.16571214335919213,0.7248942244774682,0.16571214335919213
MSE,11.089823227366193,0.0072976425232009565,0.027460514456697446,0.52547163668079,0.027460514456697446
MAE,2.396410849650486,0.0564397355454729,0.1102415810312175,0.5636611550679613,0.11024158103121749
MAPE,66.22620878458689,78.87595125594366,15.856168038272159,256.05616789453256,180.41061583270516
Accuracy,33.773791215413105,21.12404874405634,84.14383196172784,-156.05616789453262,-80.41061583270516
Pearson C.C.,0.38432415887194105,0.9893422000809264,0.9822140104163968,0.9763210446393908,0.9822140104163966
Spearman C.C.,0.3798827394899561,0.9701298701298702,0.9774304792865616,0.9428019153890086,0.9774304792865616
Spatial Distance,0.615675841128059,0.010657799919073452,0.017785989583603223,0.0236789553606096,0.017785989583603223
NMI,0.8227165603847791,1.0,1.0,1.0,1.0
AIC,247.82086972549047,-103.32428242525332,-370.28563283724935,-66.27628360105624,-370.2856328372494
BIC,247.82086972549047,-103.32428242525332,-370.28563283724935,-66.27628360105624,-370.2856328372494
Data Size test,103.0,21.0,103.0,103.0,103.0
