Error Metrics,Testing,Validation
Average,4.023248973538392,-
F1,0.9466843850010986,-
F2,0.93819088349514,-
F05,0.9553330758605596,-
Precision,0.9611871993516063,-
Recall,0.9326127150122868,-
R2,0.5434691143287216,-
Adjusted R2,0.5350721280482238,-
RMSE,1.3057960813673204,-
MSE,1.7051034061142498,1.89
MAE,0.9566800618187228,0.96
MAPE,29.482420409573074,29.59
Accuracy,70.51757959042692,70.41
Pearson C.C.,0.7390495192227882,-
Spearman C.C.,0.7537002185309195,-
Spatial Distance,0.2609504807772117,-
NMI,1.0,-
AIC,20019.91,-
BIC,68269.9,-
Data Size,1053.0,-
Training Time (seconds),195.08968257904053,195.08968257904053
Testing Time (seconds),0.7093544006347656,0.7093544006347656
