Error Metrics,Testing,Validation
Average,3.5671086041893787,-
F1,0.9489312004206664,-
F2,0.9352059522703178,-
F05,0.9630653175488384,-
Precision,0.9727243244605104,-
Recall,0.9262742586974041,-
R2,0.5213763125013736,-
Adjusted R2,0.5045764839287141,-
RMSE,1.1156144784693895,-
MSE,1.244595664570528,1.51
MAE,0.8196672207060952,0.87
MAPE,28.86199456461204,30.09
Accuracy,71.13800543538797,69.91
Pearson C.C.,0.7288651990051266,-
Spearman C.C.,0.7434202538917054,-
Spatial Distance,0.2711348009948735,-
NMI,1.0,-
AIC,23614.4,-
BIC,85081.01,-
Data Size,1446.0,-
Training Time (seconds),159.4681534767151,159.4681534767151
Testing Time (seconds),0.14899802207946775,0.14899802207946777
